Division,WeightClassKg,Place,Name,Team,BodyweightKg,Best3SquatKg,Best3BenchKg,Best3DeadliftKg,TotalKg,Equipment,Event,Sex
Boys,51.71,1,Justin Davis,Buda Hays,50.53,142.88,102.06,158.76,403.7,Single-ply,SBD,M
Boys,51.71,2,Daivd Tubig,Burleson,51.44,131.54,79.38,174.63,385.55,Single-ply,SBD,M
Boys,55.79,3,Blake Alford,Kyle Lehman,51.8,145.15,72.57,167.83,385.55,Single-ply,SBD,M
Boys,55.79,4,Davon Aldridge,Hutto,51.94,129.27,65.77,151.95,347,Single-ply,SBD,M
Boys,51.71,5,Ray Landry,Del Valle,50.98,122.47,74.84,142.88,340.19,Single-ply,SBD,M
Boys,51.71,6,Brandon Deleon,Kyle Lehman,51.44,122.47,72.57,136.08,331.12,Single-ply,SBD,M
Boys,51.71,7,Sammy Ortego,Hutto,51.17,124.74,70.31,133.81,328.85,Single-ply,SBD,M
Boys,51.71,8,Blake Borgholthaus,Pflugerville Hendrickson,50.71,117.93,72.57,113.4,303.91,Single-ply,SBD,M
Boys,51.71,DQ,Tyrus King,Pflugerville Connally,51.62,,,,,Single-ply,SBD,M
Boys,51.71,DQ,Chris Vivero,Bryan,51.62,136.08,65.77,,,Single-ply,SBD,M
Boys,55.79,1,Thomas Mascorro,San Marcos,54.98,181.44,127.01,190.51,498.95,Single-ply,SBD,M
Boys,55.79,2,Marquis Wilson,Elgin,55.61,151.95,90.72,188.24,430.91,Single-ply,SBD,M
Boys,55.79,3,Isaiah Robinson #4,Waco Midway,55.07,158.76,90.72,179.17,428.64,Single-ply,SBD,M
Boys,55.79,4,JoRey Gonzales,Elgin,54.98,147.42,95.25,165.56,408.23,Single-ply,SBD,M
Boys,55.79,5,Joe Lendo,Leander,54.52,124.74,86.18,165.56,376.48,Single-ply,SBD,M
Boys,55.79,6,Celestino Hernandez,Del Valle,55.79,151.95,79.38,145.15,376.48,Single-ply,SBD,M
Boys,55.79,7,Johnny Martinez,Belton,54.79,129.27,79.38,145.15,353.8,Single-ply,SBD,M
Boys,55.79,DQ,Adonis Davis,Bastrop,55.16,,,,,Single-ply,SBD,M
Boys,55.79,DQ,Jeremy Fejeran,Killeen Ellison,54.79,117.93,79.38,,,Single-ply,SBD,M
Boys,55.79,DQ,Kris Glynn,Waco University,55.79,,,,,Single-ply,SBD,M
Boys,59.87,1,Jarrett Burford,Dripping Springs,59.87,197.31,127.01,185.97,510.29,Single-ply,SBD,M
Boys,59.87,2,Josh Fantauzzi,Buda Hays,57.33,188.24,92.99,217.72,498.95,Single-ply,SBD,M
Boys,67.13,3,Dominic Packer,Austin Lake Travis,60.06,183.7,97.52,206.38,487.61,Single-ply,SBD,M
Boys,59.87,4,Jayvier Rigmaiden,Burleson Centennial,59.51,174.63,92.99,181.44,449.06,Single-ply,SBD,M
Boys,59.87,5,Jonathan McCarty,Leander,59.78,154.22,86.18,197.31,437.72,Single-ply,SBD,M
Boys,59.87,6,Miguel Valdez,Georgetown east view,58.42,165.56,86.18,170.1,421.84,Single-ply,SBD,M
Boys,59.87,7,Anthony Holguin,San Marcos,59.51,149.69,99.79,170.1,419.57,Single-ply,SBD,M
Boys,59.87,8,Clint Lott,Waco Midway,57.7,165.56,81.65,167.83,415.04,Single-ply,SBD,M
Boys,59.87,9,Austin Blalock,Burleson Centennial,59.06,154.22,86.18,172.37,412.77,Single-ply,SBD,M
Boys,59.87,DQ,Jonathan Johnson,Copperas Cove,59.69,170.1,88.45,,,Single-ply,SBD,M
Boys,74.84,1,Connor Cross,Dripping Springs,67.27,244.94,115.67,210.92,571.53,Single-ply,SBD,M
Boys,74.84,2,Reggie Davis,College Station A&M Cons,67.22,192.78,136.08,213.19,542.04,Single-ply,SBD,M
Boys,67.13,3,Antwan Coleman,Waco University,65.32,213.19,117.93,199.58,530.7,Single-ply,SBD,M
Boys,67.13,4,Paul Brown,Kyle Lehman,65.23,208.65,106.59,210.92,526.17,Single-ply,SBD,M
Boys,67.13,5,Chris Hendricks,Leander Rouse,67.13,195.04,117.93,208.65,521.63,Single-ply,SBD,M
Boys,67.13,6,Ryan Arnold #5,Georgetown,66.86,206.38,111.13,199.58,517.1,Single-ply,SBD,M
Boys,67.13,7,Xavier Moffitt,Belton,65.77,172.37,104.33,233.6,510.29,Single-ply,SBD,M
Boys,67.13,8,David Taylor,College Station A&M Cons,64.32,201.85,99.79,199.58,501.22,Single-ply,SBD,M
Boys,67.13,9,Jeremy Fuentes,Cleburne,67.04,181.44,104.33,188.24,474,Single-ply,SBD,M
Boys,67.13,DQ,Justis Owens,Hutto,66.77,176.9,102.06,,,Single-ply,SBD,M
Boys,74.84,1,Sigi Martinez,Leander Rouse,74.66,226.8,140.61,210.92,578.33,Single-ply,SBD,M
Boys,74.84,2,Erik Estrada,Hutto,73.48,208.65,111.13,244.94,564.72,Single-ply,SBD,M
Boys,74.84,3,R J Nava,Georgetown,73.75,217.72,131.54,210.92,560.19,Single-ply,SBD,M
Boys,74.84,4,Case D'Herde,Waco Midway,73.48,181.44,117.93,238.14,537.51,Single-ply,SBD,M
Boys,74.84,5,Kevin Reed,Marble Falls,74.03,201.85,127.01,208.65,537.51,Single-ply,SBD,M
Boys,74.84,6,Weston Murrary,Dripping Springs,74.84,210.92,83.91,213.19,508.02,Single-ply,SBD,M
Boys,74.84,7,Placid Unebu,Pflugerville Connally,73.12,197.31,111.13,190.51,498.95,Single-ply,SBD,M
Boys,74.84,DQ,Kole Sneed,Pflugerville Connally,74.57,197.31,113.4,,,Single-ply,SBD,M
Boys,74.84,DQ,Jobe Falcon,Dripping Springs,72.26,,,,,Single-ply,SBD,M
Boys,74.84,DQ,Benjamin Munoz,Belton,72.57,195.04,,,,Single-ply,SBD,M
Boys,82.1,1,Blake Dunham,Burleson Centennial,80.29,226.8,136.08,258.55,621.42,Single-ply,SBD,M
Boys,82.1,2,David Rodriguez,Joshua,80.29,233.6,140.61,238.14,612.35,Single-ply,SBD,M
Boys,82.1,3,Hayden Eskew,Buda Hays,80.56,229.06,154.22,229.06,612.35,Single-ply,SBD,M
Boys,82.1,4,Korey Chatman,Waco Midway,80.56,226.8,138.35,240.4,605.55,Single-ply,SBD,M
Boys,89.81,5,Jacob Flores,San Marcos,82.19,233.6,133.81,215.46,582.87,Single-ply,SBD,M
Boys,89.81,6,Tyrone Owens,Manor,82.28,226.8,136.08,210.92,573.79,Single-ply,SBD,M
Boys,82.1,7,Chukie Ojiyi,Pflugerville Hendrickson,77.38,244.94,120.2,201.85,566.99,Single-ply,SBD,M
Boys,82.1,8,Devin Jennings,Buda Hays,80.65,208.65,127.01,226.8,562.45,Single-ply,SBD,M
Boys,82.1,9,Simon Castillo,Bastrop Cedar Creek,81.83,204.12,140.61,201.85,546.58,Single-ply,SBD,M
Boys,82.1,10,Luke Evans #2,Hutto,81.37,197.31,122.47,222.26,542.04,Single-ply,SBD,M
Boys,89.81,1,KJ Evans,Joshua,87.45,256.28,156.49,254.01,666.78,Single-ply,SBD,M
Boys,89.81,2,Marlin O'Neal,Dripping Springs,89.81,254.01,154.22,251.74,659.98,Single-ply,SBD,M
Boys,89.81,3,Zach Haler,Cleburne,85.73,233.6,149.69,235.87,619.15,Single-ply,SBD,M
Boys,89.81,4,Daniel Minor,Buda Hays,88.99,235.87,133.81,249.48,619.15,Single-ply,SBD,M
Boys,89.81,5,Michael Hicks,Temple,87.18,229.06,136.08,238.14,603.28,Single-ply,SBD,M
Boys,89.81,6,Jj Johnson,Manor,87.45,183.7,149.69,251.74,585.13,Single-ply,SBD,M
Boys,89.81,7,Kelly McBride,Del Valle,86.45,217.72,127.01,222.26,566.99,Single-ply,SBD,M
Boys,89.81,8,Nikka Davis,Waco,85.91,190.51,124.74,226.8,542.04,Single-ply,SBD,M
Boys,89.81,DQ,Curtis Williams,Manor,88.45,,,,,Single-ply,SBD,M
Boys,89.81,DQ,Austin Ellis,Bryan Rudder,85.55,,,,,Single-ply,SBD,M
Boys,99.79,1,Drew Peterson,Dripping Springs,98.88,285.76,176.9,285.76,748.43,Single-ply,SBD,M
Boys,109.77,2,Rihl Dougherty,Dripping Springs,99.93,249.48,172.37,249.48,671.32,Single-ply,SBD,M
Boys,99.79,3,Xavier Bryant,Temple,98.25,249.48,158.76,249.48,657.71,Single-ply,SBD,M
Boys,99.79,4,Cory Goosby,Bryan,96.16,254.01,147.42,240.4,641.83,Single-ply,SBD,M
Boys,99.79,5,Elijah Tienda,Lockhart,99.25,242.67,142.88,233.6,619.15,Single-ply,SBD,M
Boys,99.79,6,Marcus Mesta,Manor,96.71,260.82,136.08,219.99,616.89,Single-ply,SBD,M
Boys,99.79,7,Brent Marona,Copperas Cove,97.43,272.16,115.67,226.8,614.62,Single-ply,SBD,M
Boys,109.77,8,Brandon Quinterro,Austin Lake Travis,100.02,219.99,165.56,222.26,607.81,Single-ply,SBD,M
Boys,99.79,9,Chasin Allen,Hutto,98.88,222.26,122.47,251.74,596.47,Single-ply,SBD,M
Boys,99.79,10,Josh Whitworth,Joshua,97.61,213.19,147.42,226.8,587.4,Single-ply,SBD,M
Boys,109.77,1,Clayton Anderson,Elgin,108.05,297.1,185.97,272.16,755.23,Single-ply,SBD,M
Boys,109.77,2,Baliey Rhoads,Buda Hays,107.59,278.96,142.88,258.55,680.39,Single-ply,SBD,M
Boys,109.77,3,Gerald Hatch,Burleson,107.59,244.94,161.03,260.82,666.78,Single-ply,SBD,M
Boys,109.77,4,Lorenzo Martinez,Georgetown,103.78,267.62,156.49,231.33,655.44,Single-ply,SBD,M
Boys,109.77,5,Cruz Marquez,Joshua,105.51,249.48,147.42,244.94,641.83,Single-ply,SBD,M
Boys,109.77,6,Levi Mair,Lockhart,107.23,249.48,154.22,229.06,632.76,Single-ply,SBD,M
Boys,109.77,7,Cruz Banda,Kyle Lehman,105.14,258.55,151.95,213.19,623.69,Single-ply,SBD,M
Boys,109.77,8,Koby Williams,Belton,107.59,233.6,136.08,242.67,612.35,Single-ply,SBD,M
Boys,109.77,9,Vincent Compuzano,Marble Falls,102.69,204.12,127.01,242.67,573.79,Single-ply,SBD,M
Boys,109.77,DQ,Andy Flores,Pflugerville Hendrickson,104.78,,,,,Single-ply,SBD,M
Boys,124.74,1,Ivan Garciduenas,Burleson Centennial,119.48,269.89,170.1,244.94,684.92,Single-ply,SBD,M
Boys,124.74,2,Colton Hostetler,Burleson Centennial,119.11,265.35,154.22,251.74,671.32,Single-ply,SBD,M
Boys,124.74,3,Rolando Ruiz,Hutto,113.4,258.55,145.15,254.01,657.71,Single-ply,SBD,M
Boys,124.74,4,Chance Williamson,Del Valle,115.76,272.16,176.9,204.12,653.17,Single-ply,SBD,M
Boys,124.74,5,Tanner Morgan,Temple,119.84,272.16,147.42,226.8,646.37,Single-ply,SBD,M
Boys,124.74,6,Rodarius Birks,Belton,121.56,267.62,133.81,229.06,630.49,Single-ply,SBD,M
Boys,124.74,7,Marin Biletic,Killeen Ellison,116.12,226.8,149.69,235.87,612.35,Single-ply,SBD,M
Boys,124.74,DQ,Kyle Parkinson,Cleburne,120.75,,,,,Single-ply,SBD,M
Boys,124.74,DQ,Richard Carvajal,Waco,122.56,,,,,Single-ply,SBD,M
Boys,124.74,DQ,Cameron Kenney,San Marcos,121.83,265.35,,,,Single-ply,SBD,M
Boys,124.74+,1,Andrew Billings #1,Waco,146.42,351.53,217.72,319.78,889.04,Single-ply,SBD,M
Boys,124.74+,2,Kenny Higgins,Kyle Lehman,140.61,351.53,217.72,281.23,850.49,Single-ply,SBD,M
Boys,124.74+,3,Ben Hughes,Waco University,148.05,301.64,185.97,322.05,809.66,Single-ply,SBD,M
Boys,124.74+,4,Ray Sedwick,Lockhart,130.63,303.91,199.58,272.16,775.64,Single-ply,SBD,M
Boys,124.74+,5,Davonte Moore,Temple,142.52,317.51,185.97,249.48,752.96,Single-ply,SBD,M
Boys,124.74+,6,Ryne Lehman,Lockhart,148.96,254.01,190.51,247.21,691.73,Single-ply,SBD,M
Boys,124.74+,7,Tre Thomas,Pflugerville Hendrickson,163.75,317.51,145.15,229.06,691.73,Single-ply,SBD,M
Boys,124.74+,8,Freddie Johnson,Temple,155.31,238.14,149.69,274.42,662.24,Single-ply,SBD,M
Boys,124.74+,DQ,Jacob Shanks,Elgin,155.13,,,,,Single-ply,SBD,M
Boys,124.74+,DQ,Les Sakaria,Copperas Cove,147.42,294.84,163.29,,,Single-ply,SBD,M
