Place,Name,Sex,BirthDate,BirthYear,Age,Country,State,Equipment,Division,BodyweightKg,WeightClassKg,Squat1Kg,Squat2Kg,Squat3Kg,Best3SquatKg,Bench1Kg,Bench2Kg,Bench3Kg,Best3BenchKg,Deadlift1Kg,Deadlift2Kg,Deadlift3Kg,Best3DeadliftKg,TotalKg,Event
1,Lynda Follis,F,,1952,72,England,,Raw,Masters 4,50.6,52,,,,,40,42.5,-47.5,42.5,,,,,42.5,B
2,Janine Wheeler,F,,1960,64,Canada,,Raw,Masters 3,75.5,76,,,,,45,50,55,55,,,,,55,B
1,Janet Derby,F,,1962,62,England,,Raw,Masters 3,66.5,69,,,,,42.5,45,-47.5,45,,,,,45,B
1,Jackie Blasbery,F,,1963,61,England,,Raw,Masters 3,97.95,84+,,,,,60,67.5,70,70,,,,,70,B
1,Delwyn Evans,F,,1964,60,New Zealand,,Raw,Masters 3,73.6,76,,,,,72.5,75,77,77,,,,,77,B
3,Liz Elfleet,F,,1966,58,England,,Raw,Masters 2,74.05,76,,,,,35,37.5,40,40,,,,,40,B
3,Joanne Holden,F,,1966,58,England,,Raw,Masters 2,58.95,63,,,,,42.5,45,47.5,47.5,,,,,47.5,B
2,Ruthie Norton,F,,1969,55,N.Ireland,,Raw,Masters 2,74.45,76,,,,,42.5,45,47.5,47.5,,,,,47.5,B
1,Angela Lauder,F,,1970,54,Scotland,,Raw,Masters 2,83.7,84,,,,,72.5,77.5,82.5,82.5,,,,,82.5,B
1,Rachel Spragg,F,,1970,54,England,,Raw,Masters 2,62.45,63,,,,,57.5,60,62.5,62.5,,,,,62.5,B
1,Toni Vernelli,F,,1971,53,England,,Raw,Masters 2,51.15,52,,,,,55,57.5,-60,57.5,,,,,57.5,B
3,Emma Kehoe,F,,1972,52,England,,Raw,Masters 2,82.95,84,,,,,67.5,72.5,-77.5,72.5,,,,,72.5,B
4,Senga Dent,F,,1972,52,Scotland,,Raw,Masters 2,112.75,84+,,,,,62.5,70,77.5,77.5,,,,,77.5,B
1,Joanne Laird,F,,1972,52,England,,Raw,Masters 2,135.85,84+,,,,,90,95,102.5,102.5,,,,,102.5,B
2,Kerry Lindsay,F,,1973,51,Isle of Man,,Raw,Masters 2,62.45,63,,,,,45,47.5,50,50,,,,,50,B
2,Karen McKendry,F,,1973,51,England,,Raw,Masters 2,77.35,84,,,,,75,77.5,-82.5,77.5,,,,,77.5,B
1,Maggie McCormick,F,,1973,51,N.Ireland,,Raw,Masters 2,53.8,57,,,,,47.5,55,57.5,57.5,,,,,57.5,B
1,Sweety Sharma,F,,1973,51,India,,Raw,Masters 2,74.3,76,,,,,60,62.5,-65,62.5,,,,,62.5,B
2,Kyla Mulholland,F,,1974,50,N.Ireland,,Raw,Masters 2,107.6,84+,,,,,92.5,95,100,100,,,,,100,B
3,Lisa Bell,F,,1974,50,N.Ireland,,Raw,Masters 2,145.95,84+,,,,,77.5,80,-82.5,80,,,,,80,B
1,Joanne Parkin,F,,1975,49,Scotland,,Raw,Masters 1,121.4,84+,,,,,102.5,107.5,112.5,112.5,,,,,112.5,B
2,Georgina Palmer,F,,1975,49,England,,Raw,Masters 1,74.8,76,,,,,67.5,72.5,75,75,,,,,75,B
1,Helen Carrington,F,,1976,48,Wales,,Raw,Masters 1,83.45,84,,,,,77.5,80,82.5,82.5,,,,,82.5,B
2,Lisa Grant #2,F,,1977,47,Isle of Man,,Raw,Masters 1,79.4,84,,,,,65,67.5,72.5,72.5,,,,,72.5,B
3,Fiona Gaffney,F,,1977,47,England,,Raw,Masters 1,111.3,84+,,,,,95,97.5,102.5,102.5,,,,,102.5,B
1,Anita Roy,F,,1977,47,India,,Raw,Masters 1,62.15,63,,,,,-60,60,70,70,,,,,70,B
1,Carole O'Neil,F,,1977,47,England,,Raw,Masters 1,74.85,76,,,,,80,85,90,90,,,,,90,B
4,Caroline Buckle,F,,1979,45,England,,Raw,Masters 1,103.65,84+,,,,,82.5,85,90,90,,,,,90,B
3,Kelly Fysh,F,,1981,43,England,,Raw,Masters 1,82,84,,,,,-67.5,67.5,72.5,72.5,,,,,72.5,B
2,Michelle Brooke,F,,1982,42,England,,Raw,Masters 1,53.95,57,,,,,37.5,40,-45,40,,,,,40,B
1,Delyth Jones,F,,1982,42,Wales,,Raw,Masters 1,67.85,69,,,,,72.5,-77.5,77.5,77.5,,,,,77.5,B
1,Sharvari Inamdar,F,,1983,41,India,,Raw,Masters 1,56.85,57,,,,,70,75,77.5,77.5,,,,,77.5,B
4,Gauri A Ghodekar,F,,1983,41,India,,Raw,Masters 1,79.35,84,,,,,67.5,70,-72.5,70,,,,,70,B
1,Kate Clarke,F,,1983,41,England,,Raw,Masters 1,52,52,,,,,45,55,60,60,,,,,60,B
4,Ranjeeta Ranjeeta,F,,1984,40,India,,Raw,Open,55.15,57,,,,,-37.5,37.5,40,40,,,,,40,B
2,Claire Tocher,F,,1984,40,Scotland,,Raw,Masters 1,93.8,84+,,,,,95,100,105,105,,,,,105,B
3,Holly Judge,F,,1989,35,Scotland,,Raw,Open,55.4,57,,,,,65,70,72.5,72.5,,,,,72.5,B
1,Sybil Sohail,F,,1991,33,Pakistan,,Raw,Open,46.7,47,,,,,27.5,30,32.5,32.5,,,,,32.5,B
3,Talia Firth,F,,1992,32,England,,Raw,Open,99.3,84+,,,,,95,100,-102.5,100,,,,,100,B
5,Bhavana Sharma,F,,1992,32,India,,Raw,Open,85,84+,,,,,60,67.5,-72.5,67.5,,,,,67.5,B
1,Bell Catriona,F,,1993,31,Scotland,,Raw,Open,95.5,84+,,,,,97.5,-102.5,102.5,102.5,,,,,102.5,B
6,Laura Gilgunn,F,,1993,31,N.Ireland,,Raw,Open,95.9,84+,,,,,60,62.5,65,65,,,,,65,B
1,Katie Baker #1,F,,1994,30,England,,Raw,Open,81.85,84,,,,,87.5,95,97.5,97.5,,,,,97.5,B
3,Laura Edwards,F,,1994,30,N.Ireland,,Raw,Open,74.95,76,,,,,50,55,60,60,,,,,60,B
2,Lisa Blum,F,,1994,30,Scotland,,Raw,Open,72.1,76,,,,,72.5,77.5,82.5,82.5,,,,,82.5,B
4,Annabel Moloney,F,,1995,29,England,,Raw,Open,132.4,84+,,,,,85,90,95,95,,,,,95,B
2,Twinkle Sohail,F,,1996,28,Pakistan,,Raw,Open,76.55,84,,,,,45,50,52.5,52.5,,,,,52.5,B
1,Megan-Li Smith,F,,1996,28,New Zealand,,Raw,Open,52.45,57,,,,,92.5,97.5,100,100,,,,,100,B
3,Kayleigh Olsen,F,,1996,28,Scotland,,Raw,Open,49,52,,,,,55,57.5,-62.5,57.5,,,,,57.5,B
1,Ellen Roberts,F,,1997,27,England,,Raw,Open,66.2,69,,,,,90,97.5,102.5,102.5,,,,,102.5,B
3,Higginson Nicole,F,,1997,27,Scotland,,Raw,Open,66.85,69,,,,,70,75,-80,75,,,,,75,B
1,Emily Westray,F,,1997,27,England,,Raw,Open,50.95,52,,,,,62.5,67.5,70,70,,,,,70,B
2,Sheina Kaye,F,,1997,27,England,,Raw,Open,54.95,57,,,,,85,90,92.5,92.5,,,,,92.5,B
2,Mairi Scobie,F,,1997,27,Scotland,,Raw,Open,120.1,84+,,,,,92.5,97.5,102.5,102.5,,,,,102.5,B
2,Ceileidh Mercer,F,,1998,26,Scotland,,Raw,Open,51.9,52,,,,,62.5,67.5,70,70,,,,,70,B
1,Charlotte Mackie,F,,1998,26,England,,Raw,Open,61.35,63,,,,,87.5,95,100,100,,,,,100,B
2,Alexandra Henry,F,,1999,25,England,,Raw,Open,68.2,69,,,,,92.5,-100,100,100,,,,,100,B
1,Chloe Neill,F,,1999,25,Scotland,,Raw,Open,73.5,76,,,,,75,80,85,85,,,,,85,B
1,Megan Davenport,F,,2001,23,England,,Raw,Juniors,48.45,52,,,,,62.5,67.5,72.5,72.5,,,,,72.5,B
1,Abbie Windebank,F,,2001,23,England,,Raw,Juniors,68,69,,,,,80,-85,-87.5,80,,,,,80,B
2,Estelle Varley,F,,2001,23,England,,Raw,Juniors,71.2,76,,,,,57.5,-62.5,-62.5,57.5,,,,,57.5,B
1,Karmen Harvey,F,,2001,23,England,,Raw,Juniors,113.1,84+,,,,,70,80,,80,,,,,80,B
2,Pandurang Supekar Supriya,F,,2001,23,India,,Raw,Juniors,50.4,52,,,,,42.5,47.5,50,50,,,,,50,B
2,Lucy Gill,F,,2002,22,England,,Raw,Juniors,81.6,84,,,,,60,67.5,-72.5,67.5,,,,,67.5,B
1,Eilin Alsop,F,,2002,22,Scotland,,Raw,Juniors,73.95,76,,,,,75,80,82,82,,,,,82,B
3,Veronika Sohail,F,,2002,22,Pakistan,,Raw,Juniors,48.1,52,,,,,25,30,32.5,32.5,,,,,32.5,B
1,Fiona MacDonald #1,F,,2002,22,Scotland,,Raw,Juniors,76.1,84,,,,,75,80,82.5,82.5,,,,,82.5,B
1,Vanshika Patidar,F,,2003,21,India,,Raw,Juniors,56,57,,,,,50,52.5,-57.5,52.5,,,,,52.5,B
1,Princess Kunadu,F,,2006,18,England,,Raw,Sub-Juniors,75.55,76,,,,,75,80,85,85,,,,,85,B
1,Teagan Lindsay,F,,2006,18,Isle of Man,,Raw,Sub-Juniors,48.35,52,,,,,32.5,37.5,40,40,,,,,40,B
1,Katie Tatum,F,,2006,18,England,,Raw,Sub-Juniors,81.7,84,,,,,50,60,65,65,,,,,65,B
1,Violet Clarke,F,,2007,17,England,,Raw,Sub-Juniors,54.95,57,,,,,35,40,45,45,,,,,45,B
1,Jana Fox,F,,2007,17,South Africa,,Raw,Sub-Juniors,61.65,63,,,,,52.5,55,57.5,57.5,,,,,57.5,B
1,Freya Weldon,F,,2008,16,Isle of Man,,Raw,Sub-Juniors,104.5,84+,,,,,30,35,40,40,,,,,40,B
1,Raj Kumar Khatana,M,,1959,65,India,,Single-ply,Masters 3,93.6,105,,,,,95,105,-107.5,105,,,,,105,B
1,Andy Rigby,M,,1963,61,England,,Single-ply,Masters 3,110.8,120,,,,,170,220,232.5,232.5,,,,,232.5,B
1,David Hrynkow,M,,1964,60,Canada,,Single-ply,Masters 3,65.4,66,,,,,82.5,-90,-90,82.5,,,,,82.5,B
1,John Crain,M,,1969,55,South Africa,,Single-ply,Masters 2,127.6,120+,,,,,160,-225,-237.5,160,,,,,160,B
2,Hermanus de Beer,M,,1970,54,South Africa,,Single-ply,Masters 2,112.15,120,,,,,152.5,165,-170,165,,,,,165,B
1,Darren Ball,M,,1970,54,England,,Single-ply,Masters 2,119.65,120,,,,,-255,255,-260,255,,,,,255,B
1,Girish Dattaraya Binjwe,M,,1971,53,India,,Single-ply,Masters 2,101.6,105,,,,,90,110,120,120,,,,,120,B
1,Simon Breetzke,M,,1978,46,South Africa,,Single-ply,Masters 1,155.3,120+,,,,,-250,250,285,285,,,,,285,B
2,Andrew Priddle,M,,1978,46,England,,Single-ply,Masters 1,162.95,120+,,,,,145,-152.5,152.5,152.5,,,,,152.5,B
1,Santosh Shetty,M,,1979,45,India,,Single-ply,Masters 1,71.05,74,,,,,130,140,-150,140,,,,,140,B
3,Craig Masson,M,,1981,43,South Africa,,Single-ply,Open,119.2,120,,,,,230,-237.5,-237.5,230,,,,,230,B
2,Josh Bell #1,M,,1985,39,N.Ireland,,Single-ply,Open,96.8,105,,,,,120,127.5,-132.5,127.5,,,,,127.5,B
2,Craig Coggle,M,,1986,38,England,,Single-ply,Open,152.4,120+,,,,,-250,250,262.5,262.5,,,,,262.5,B
1,Pradeep Kumar,M,,1988,36,India,,Single-ply,Open,83.6,93,,,,,225,232.5,237.5,237.5,,,,,237.5,B
2,Arshad Ulla,M,,1988,36,India,,Single-ply,Open,117.65,120,,,,,230,-237.5,-237.5,230,,,,,230,B
1,Garrett Cartwright-Bentley,M,,1988,36,Canada,,Single-ply,Open,139.75,120+,,,,,385.5,-401.5,-401.5,385.5,,,,,385.5,B
3,Ryan Kelly #1,M,,1990,34,N.Ireland,,Single-ply,Open,150.5,120+,,,,,175,187.5,-200,187.5,,,,,187.5,B
4,Ruben Marcelino,M,,1992,32,N.Ireland,,Single-ply,Open,92.2,93,,,,,-160,160,-165,160,,,,,160,B
4,Andy Williams #1,M,,1994,30,Wales,,Single-ply,Open,115.95,120,,,,,-190,190,215,215,,,,,215,B
2,Kundan Kumar,M,,1994,30,India,,Single-ply,Open,58.15,59,,,,,-135,-135,135,135,,,,,135,B
1,Adrian Smith #2,M,,1995,29,England,,Single-ply,Open,102.6,105,,,,,220,227.5,232.5,232.5,,,,,232.5,B
2,Thomas Morgan #1,M,,1996,28,Wales,,Single-ply,Open,91.5,93,,,,,222.5,230,-240,230,,,,,230,B
1,Pranjal Rathore,M,,1998,26,India,,Single-ply,Open,57.85,59,,,,,140,142.5,147.5,147.5,,,,,147.5,B
3,James Taylor #10,M,,1998,26,England,,Single-ply,Open,91.45,93,,,,,205,-215,-215,205,,,,,205,B
1,Joseph Shaw,M,,1998,26,England,,Single-ply,Open,116.3,120,,,,,-255,-255,255,255,,,,,255,B
1,Divyanshu Anand,M,,2001,23,India,,Single-ply,Juniors,138.4,120+,,,,,-200,200,230,230,,,,,230,B
1,Adam McAlpine,M,,2001,23,N.Ireland,,Single-ply,Juniors,87.05,93,,,,,230,-242.5,-242.5,230,,,,,230,B
1,Ferde Botha,M,,2006,18,South Africa,,Single-ply,Sub-Juniors,64.4,66,,,,,95,100,105,105,,,,,105,B
1,Ashley Priddle,M,,2007,17,England,,Single-ply,Sub-Juniors,91.75,93,,,,,87.5,95,-110,95,,,,,95,B
1,Janine Wheeler,F,,1960,64,Canada,,Single-ply,Masters 3,75.5,76,,,,,62.5,67.5,-72.5,67.5,,,,,67.5,B
1,Jackie Blasbery,F,,1963,61,England,,Single-ply,Masters 3,97.95,84+,,,,,80,90,100,100,,,,,100,B
1,Heather Leighton,F,,1964,60,South Africa,,Single-ply,Masters 3,68.7,69,,,,,70,72.5,-75,72.5,,,,,72.5,B
1,Rachel Spragg,F,,1970,54,England,,Single-ply,Masters 2,62.55,63,,,,,77.5,82.5,-90,82.5,,,,,82.5,B
DQ,Joanne Laird,F,,1972,52,England,,Single-ply,Masters 2,135.4,84+,,,,,-155,-155,-157.5,-155,,,,,,B
1,Joanne Parkin,F,,1975,49,Scotland,,Single-ply,Masters 1,121.2,84+,,,,,120,130,-137.5,130,,,,,130,B
1,Jyoti Bhadekar,F,,1977,47,India,,Single-ply,Masters 1,82.5,84,,,,,60,62.5,65,65,,,,,65,B
1,Priti Chaudhari,F,,1979,45,India,,Single-ply,Masters 1,45.85,47,,,,,40,-42.5,42.5,42.5,,,,,42.5,B
1,Poonam Kokane,F,,1980,44,India,,Single-ply,Masters 1,68.45,69,,,,,57.5,-62.5,-62.5,57.5,,,,,57.5,B
1,Sharvari Inamdar,F,,1983,41,India,,Single-ply,Masters 1,56.5,57,,,,,92.5,97.5,-100,97.5,,,,,97.5,B
1,Ranjeeta Ranjeeta,F,,1984,40,India,,Single-ply,Open,55.5,57,,,,,40,47.5,52.5,52.5,,,,,52.5,B
4,Lottie Hall #1,F,,1987,37,England,,Single-ply,Open,75.55,76,,,,,70,75,77.5,77.5,,,,,77.5,B
1,Mansi Tripathi,F,,1989,35,India,,Single-ply,Open,81.75,84,,,,,55,65,-70,65,,,,,65,B
3,Elena Bell,F,,1990,34,N.Ireland,,Single-ply,Open,72.4,76,,,,,72.5,-77.5,80,80,,,,,80,B
1,Sybil Sohail,F,,1991,33,Pakistan,,Single-ply,Open,46.6,47,,,,,30,35,-40,35,,,,,35,B
1,Bhavana Sharma,F,,1992,32,India,,Single-ply,Open,85.9,84+,,,,,75,-85,85,85,,,,,85,B
2,Tejavath Sukanya,F,,1995,29,India,,Single-ply,Open,74.9,76,,,,,-85,85,-107.5,85,,,,,85,B
2,Twinkle Sohail,F,,1996,28,Pakistan,,Single-ply,Open,76.15,84,,,,,50,52.5,-55,52.5,,,,,52.5,B
1,Vaishali B M,F,,1997,27,India,,Single-ply,Open,73.95,76,,,,,-105,105,-112.5,105,,,,,105,B
1,Shalan Pinto,F,,2001,23,India,,Single-ply,Juniors,46.5,47,,,,,65,-72.5,-75,65,,,,,65,B
1,Veronika Sohail,F,,2002,22,Pakistan,,Single-ply,Juniors,48.45,52,,,,,30,32.5,-35,32.5,,,,,32.5,B
1,Dhisha Mohan,F,,2006,18,India,,Single-ply,Sub-Juniors,56.3,57,,,,,-72.5,72.5,78,78,,,,,78,B
1,Chanté Mulder,F,,2006,18,South Africa,,Single-ply,Sub-Juniors,67.9,69,,,,,90,95,-97.5,95,,,,,95,B
1,Katie Tatum,F,,2006,18,England,,Single-ply,Sub-Juniors,81.95,84,,,,,50,55,60,60,,,,,60,B
1,Raj Kumar Khatana,M,,1959,65,India,,Raw,Masters 3,93.8,105,,,,,95,105,-112.5,105,,,,,105,B
1,Dinesh Pawar,M,,1980,44,India,,Raw,Masters 1,71.7,74,,,,,115,-135,-135,115,,,,,115,B
1,Dan Oppenheim,M,,1945,79,South Africa,,Raw,Masters 4,79.25,83,,,,,85,92.5,95,95,,,,,95,B
1,Stephen Vineburg,M,,1956,68,England,,Raw,Masters 3,82.15,83,,,,,95,100,105,105,,,,,105,B
1,Andy Rigby,M,,1962,62,England,,Raw,Masters 3,110.75,120,,,,,190,204.5,208.5,208.5,,,,,208.5,B
2,JC Bruce,M,,1963,61,South Africa,,Raw,Masters 3,65.45,66,,,,,-80,80,-82.5,80,,,,,80,B
1,Baiba Kumar Tandi,M,,1963,61,India,,Raw,Masters 3,70.25,74,,,,,105,112.5,117.5,117.5,,,,,117.5,B
1,Robert Rodney,M,,1964,60,England,,Raw,Masters 3,85.35,93,,,,,90,95,100,100,,,,,100,B
1,David Hrynkow,M,,1964,60,Canada,,Raw,Masters 3,65.05,66,,,,,82.5,87.5,-90,87.5,,,,,87.5,B
1,Stephen Farrar,M,,1965,59,England,,Raw,Masters 2,90.75,93,,,,,100,107.5,115,115,,,,,115,B
1,David Glendower,M,,1968,56,Wales,,Raw,Masters 2,95.5,105,,,,,72.5,77.5,80,80,,,,,80,B
1,John Crain,M,,1969,55,South Africa,,Raw,Masters 2,127.9,120+,,,,,170,177.5,-182.5,177.5,,,,,177.5,B
2,Hermanus de Beer,M,,1970,54,South Africa,,Raw,Masters 2,112.15,120,,,,,130,140,150,150,,,,,150,B
1,Andy Liddle,M,,1970,54,England,,Raw,Masters 2,59,59,,,,,60,65,70,70,,,,,70,B
1,Darren Ball,M,,1970,54,England,,Raw,Masters 2,118.2,120,,,,,160,-165,-165,160,,,,,160,B
1,David Litchfield,M,,1975,49,Scotland,,Raw,Masters 1,99.15,105,,,,,162.5,172.5,180,180,,,,,180,B
1,Werner Koekemoer,M,,1976,48,South Africa,,Raw,Masters 1,187.45,120+,,,,,150,160,-165,160,,,,,160,B
2,Ross Carlyle,M,,1978,46,England,,Raw,Masters 1,104.6,105,,,,,155,165,170,170,,,,,170,B
1,Steven Coleman,M,,1979,45,South Africa,,Raw,Masters 1,65.65,66,,,,,117.5,122.5,125,125,,,,,125,B
4,Edward Boraas,M,,1979,45,Canada,,Raw,Masters 1,79.7,83,,,,,112.5,117.5,-120,117.5,,,,,117.5,B
2,Mark Anderson,M,,1980,44,Canada,,Raw,Masters 1,81.15,83,,,,,140,147.5,-150,147.5,,,,,147.5,B
2,Rajesh Babu,M,,1980,44,New Zealand,,Raw,Masters 1,61.85,66,,,,,112.5,117.5,122.5,122.5,,,,,122.5,B
1,Ricardo Fitzpatrick,M,,1980,44,South Africa,,Raw,Masters 1,80.8,83,,,,,-150,-150,150,150,,,,,150,B
3,Ben Richens,M,,1981,43,England,,Raw,Masters 1,82.3,83,,,,,135,142.5,-150,142.5,,,,,142.5,B
1,David Jacobsz,M,,1981,43,South Africa,,Raw,Masters 1,91.45,93,,,,,160,170,-177.5,170,,,,,170,B
1,Craig Masson,M,,1981,43,South Africa,,Raw,Masters 1,118.3,120,,,,,140,160,,160,,,,,160,B
1,Wesley McGuinness,M,,1989,35,England,,Raw,Open,106.85,120,,,,,182.5,187.5,192.5,192.5,,,,,192.5,B
2,Jared Leask,M,,1991,33,South Africa,,Raw,Open,187.9,120+,,,,,200,212.5,220,220,,,,,220,B
2,Oliver Webster,M,,1991,33,England,,Raw,Open,73.7,74,,,,,115,120,-125,120,,,,,120,B
1,Ryan Phillips-Martin,M,,1992,32,England,,Raw,Open,146.25,120+,,,,,210,217.5,222.5,222.5,,,,,222.5,B
2,Emmerson Lefevre,M,,1993,31,England,,Raw,Open,116.05,120,,,,,165,180,-190,180,,,,,180,B
1,Ashley Watson #2,M,,1993,31,England,,Raw,Open,104.35,105,,,,,195,200,-205,200,,,,,200,B
2,Tovio Karaitiana,M,,1996,28,New Zealand,,Raw,Open,85.95,93,,,,,162.5,167.5,170,170,,,,,170,B
1,Anujan Srikantha,M,,1996,28,England,,Raw,Open,81.9,83,,,,,175,187.5,192.5,192.5,,,,,192.5,B
1,Demetri Chan,M,,1997,27,Guyana,,Raw,Open,73.55,74,,,,,132.5,142.5,-147.5,142.5,,,,,142.5,B
1,Kail de los Reyes,M,,1997,27,Isle of Man,,Raw,Open,64.4,66,,,,,70,80,-90,80,,,,,80,B
1,Pranjal Rathore,M,,1998,26,India,,Raw,Open,58,59,,,,,110,117.5,-127.5,117.5,,,,,117.5,B
3,Ben Rant,M,,1998,26,England,,Raw,Open,145.95,120+,,,,,187.5,200,205,205,,,,,205,B
2,Charlie Thomas #1,M,,1999,25,England,,Raw,Open,81.6,83,,,,,135,142.5,-150,142.5,,,,,142.5,B
2,Fabio Yslie,M,,1999,25,South Africa,,Raw,Open,102.1,105,,,,,175,185,195,195,,,,,195,B
3,Daniel Allen,M,,1999,25,N.Ireland,,Raw,Open,81.15,83,,,,,115,122.5,125,125,,,,,125,B
1,Maahir Martin,M,,2000,24,South Africa,,Raw,Open,89.7,93,,,,,190,-200,-205,190,,,,,190,B
3,Fraser Borthwick,M,,2000,24,Scotland,,Raw,Open,103.6,105,,,,,155,165,170,170,,,,,170,B
3,Louie Warren #1,M,,2000,24,Wales,,Raw,Open,86.65,93,,,,,125,130,-132.5,130,,,,,130,B
1,Connor Mills,M,,2001,23,England,,Raw,Juniors,84.2,93,,,,,165,172.5,177.5,177.5,,,,,177.5,B
1,Bryce Sillitoe,M,,2001,23,South Africa,,Raw,Special Olympics,139.95,120+,,,,,90,95,100,100,,,,,100,B
2,Jacob Harding,M,,2002,22,England,,Raw,Juniors,102.5,105,,,,,142.5,152.5,-160,152.5,,,,,152.5,B
1,Ruaridh Glyn-Jones,M,,2002,22,Scotland,,Raw,Juniors,102.5,105,,,,,157.5,167.5,-172.5,167.5,,,,,167.5,B
1,Hayden Simmons,M,,2002,22,England,,Raw,Juniors,78.9,83,,,,,125,132.5,137.5,137.5,,,,,137.5,B
3,Lewis Runge,M,,2003,21,Isle of Man,,Raw,Juniors,90.15,93,,,,,70,90,100,100,,,,,100,B
2,Marcus Handley,M,,2003,21,England,,Raw,Juniors,89.15,93,,,,,147.5,155,-160,155,,,,,155,B
1,Samuel Harris,M,,2006,18,Isle of Man,,Raw,Sub-Juniors,77.45,83,,,,,90,100,110,110,,,,,110,B
2,Bobby Wilson #5,M,,2006,18,N.Ireland,,Raw,Sub-Juniors,72.35,74,,,,,117.5,122.5,-127.5,122.5,,,,,122.5,B
1,Arne Botes,M,,2006,18,South Africa,,Raw,Sub-Juniors,101.4,105,,,,,110,122.5,130,130,,,,,130,B
2,Mackenzie Neilson,M,,2006,18,Scotland,,Raw,Sub-Juniors,116.9,120,,,,,132.5,137.5,140,140,,,,,140,B
1,Prithviraj Shinde,M,,2006,18,India,,Raw,Sub-Juniors,116.95,120,,,,,125,135,142.5,142.5,,,,,142.5,B
1,Blaine Coleman,M,,2007,17,South Africa,,Raw,Sub-Juniors,72.6,74,,,,,117.5,125,-127.5,125,,,,,125,B
1,Josh Parker #1,M,,2007,17,Scotland,,Raw,Sub-Juniors,89.7,93,,,,,130,137.5,142.5,142.5,,,,,142.5,B
1,Ferde Botha,M,,2008,16,South Africa,,Raw,Sub-Juniors,65.5,66,,,,,85,90,-95,90,,,,,90,B
3,Alex Collocott,M,,2008,16,South Africa,,Raw,Sub-Juniors,70.55,74,,,,,100,-112.5,-112.5,100,,,,,100,B
2,Harry Morgan,M,,2009,15,Isle of Man,,Raw,Sub-Juniors,63.1,66,,,,,30,32.5,35,35,,,,,35,B
2,Adam Gault,M,,2009,15,N.Ireland,,Raw,Sub-Juniors,90.65,93,,,,,120,125,130,130,,,,,130,B
1,Jackie Blasbery,F,,1963,61,England,,Single-ply,Masters 3,98.5,84+,110,120,130,130,100,112.5,122.5,122.5,55,-75,-75,55,307.5,SBD
2,Heather Leighton,F,,1964,60,South Africa,,Single-ply,Masters 3,68.4,69,85,92.5,-97.5,92.5,65,67.5,-70,67.5,90,100,107.5,107.5,267.5,SBD
1,Maureen Gordon,F,,1964,60,Scotland,,Single-ply,Masters 3,67.75,69,125,-130,132.5,132.5,115,120,-125.5,120,140,147.5,152.5,152.5,405,SBD
1,Rita Shergold,F,,1965,59,England,,Single-ply,Masters 2,62.05,63,132.5,-142.5,142.5,142.5,87.5,95,100,100,125,135,140,140,382.5,SBD
3,Yvonne Treharne,F,,1966,58,England,,Single-ply,Masters 2,62.25,63,112.5,-120,120,120,62.5,67.5,72.5,72.5,95,105,110,110,302.5,SBD
1,Allison Rodney,F,,1966,58,England,,Single-ply,Masters 2,56.75,57,100,110,-120,110,-70,70,77.5,77.5,110,120,130,130,317.5,SBD
1,Carol Anthony,F,,1966,58,South Africa,,Single-ply,Masters 2,51.5,52,95,105,110,110,47.5,-52.5,52.5,52.5,110,120,-125,120,282.5,SBD
2,Marieke van Linge,F,,1972,52,South Africa,,Single-ply,Masters 2,61.5,63,105,117.5,-122.5,117.5,55,57.5,60,60,120,127.5,135,135,312.5,SBD
1,Joanne Parkin,F,,1975,49,Scotland,,Single-ply,Masters 1,122,84+,125,140,-150,140,75,85,-95,85,165,175,187.5,187.5,412.5,SBD
1,Danielle Hussey,F,,1976,48,Canada,,Single-ply,Masters 1,56.1,57,145,-152.5,152.5,152.5,77.5,82.5,-85,82.5,132.5,142.5,-147.5,142.5,377.5,SBD
1,Amber Hinchelwood,F,,1978,46,England,,Single-ply,Masters 1,60.25,63,110,115,125,125,55,60,67.5,67.5,107.5,120,125,125,317.5,SBD
1,Stef Kean,F,,1986,38,Canada,,Single-ply,Open,51.55,52,125,135,142.5,142.5,70,77.5,80,80,175,195.5,-196,195.5,418,SBD
1,Lottie Hall #1,F,,1987,37,England,,Single-ply,Open,75.35,76,155,176,-180.5,176,52.5,67.5,72.5,72.5,130,142.5,147.5,147.5,396,SBD
1,Sybil Sohail,F,,1991,33,Pakistan,,Single-ply,Open,46.65,47,60,-70,70,70,30,35,-40,35,70,-80,-80,70,175,SBD
1,Twinkle Sohail,F,,1996,28,Pakistan,,Single-ply,Open,76.9,84,90,100,107.5,107.5,45,50,55,55,90,105,110,110,272.5,SBD
1,Janel Daffue,F,,1999,25,South Africa,,Single-ply,Open,62,63,135,145,152.5,152.5,80,82.5,85,85,140,147.5,152.5,152.5,390,SBD
2,Nicole Hasell,F,,2001,23,South Africa,,Single-ply,Juniors,56.25,57,-140,150,-157.5,150,87.5,92.5,95,95,-140,140,-160,140,385,SBD
1,Rajeswari Vinayagamoorthy,F,,2002,22,India,,Single-ply,Juniors,68.05,69,-172.5,180,-185,180,-70,70,75,75,180,185,-206,185,440,SBD
1,Veronika Sohail,F,,2002,22,Pakistan,,Single-ply,Juniors,49.1,52,60,75,-90,75,27.5,30,32.5,32.5,75,85,95,95,202.5,SBD
1,Vidhi Vidhi,F,,2002,22,India,,Single-ply,Juniors,41.45,43,90,-105,-105,90,40,42.5,52.5,52.5,90,107.5,-121.5,107.5,250,SBD
1,Shaik Sadiya Almas,F,,2002,22,India,,Single-ply,Juniors,56,57,170,180,185,185,95,-100,-100,95,165,172.5,180,180,460,SBD
1,Mahesh Vaishnavi,F,,2003,21,India,,Single-ply,Juniors,81.2,84,175,190,210,210,100,-107.5,-107.5,100,150,-170,170,170,480,SBD
2,Kajal Kajal,F,,2003,21,India,,Single-ply,Juniors,67.1,69,145,-160,-160,145,75,77.5,85,85,145,155,162.5,162.5,392.5,SBD
1,Ameya V,F,,2005,19,India,,Single-ply,Juniors,102.6,84+,180,-210,210,210,60,125,-130,125,150,165,170,170,505,SBD
1,Anushiya K,F,,2005,19,India,,Single-ply,Juniors,74.85,76,150,165,180,180,70,85,92.5,92.5,140,165,177.5,177.5,450,SBD
1,Mijuane de Wet,F,,2006,18,South Africa,,Single-ply,Sub-Juniors,62.9,63,190,-202.5,-202.5,190,97.5,102.5,108,108,160,180,190,190,488,SBD
1,Devika Ashwin Desai,F,,2006,18,India,,Single-ply,Sub-Juniors,115.85,84+,132.5,145,155,155,52.5,60,70,70,135,-137.5,-160,135,360,SBD
1,Anika Maree,F,,2006,18,South Africa,,Single-ply,Sub-Juniors,74.75,76,120,130,140,140,-70,70,77.5,77.5,120,125,130,130,347.5,SBD
1,Chanté Mulder,F,,2006,18,South Africa,,Single-ply,Sub-Juniors,68.1,69,140,147.5,-150,147.5,-87.5,87.5,-95.5,87.5,-130,140,-150,140,375,SBD
1,Katie Tatum,F,,2006,18,England,,Single-ply,Sub-Juniors,82.25,84,152.5,162.5,-167.5,162.5,50,100,105.5,105.5,115,130,135,135,403,SBD
2,Kadambari Raut,F,,2007,17,India,,Single-ply,Sub-Juniors,68.45,69,130,150,-170,150,55,65,75,75,100,125,-160,125,350,SBD
1,Dan Oppenheim,M,,1945,79,South Africa,,Single-ply,Masters 4,79.75,83,140,155,165,165,90,105,110,110,-150,150,,150,425,SBD
1,Abbas Pordel,M,,1961,63,Australia,,Single-ply,Masters 3,117.1,120,165,180,190,190,205,222.5,232.5,232.5,185,210,220,220,642.5,SBD
1,Paulas Rohan Camillo,M,,1962,62,Sri Lanka,,Single-ply,Masters 3,91.65,93,-100,100,-120,100,70,-85,-85,70,120,135,160,160,330,SBD
1,Tommie de Nysschen,M,,1963,61,South Africa,,Single-ply,Masters 3,82.65,83,140,155,167.5,167.5,150,-162.5,162.5,162.5,152.5,162.5,172.5,172.5,502.5,SBD
1,Paul Gidney,M,,1963,61,Canada,,Single-ply,Masters 3,103.35,105,230,235,-240,235,-165,165,170,170,276.5,280.5,-285.5,280.5,685.5,SBD
1,David Hrynkow,M,,1964,60,Canada,,Single-ply,Masters 3,65.2,66,137.5,145,150,150,82.5,-92.5,-92.5,82.5,180,-190,-190,180,412.5,SBD
1,Hermanus de Beer,M,,1970,54,South Africa,,Single-ply,Masters 2,114,120,185,200,215,215,155,165,170,170,245,260,265,265,650,SBD
1,Jeff Butt,M,,1970,54,Canada,,Single-ply,Masters 2,92.25,93,260,270,277.5,277.5,167.5,175,180,180,270,277.5,280,280,737.5,SBD
1,Haider Ali,M,,1974,50,Pakistan,,Single-ply,Masters 2,120.25,120+,90,100,110,110,80,90,100,100,90,100,-110,100,310,SBD
2,Chandana Thilakarathna,M,,1975,49,Sri Lanka,,Single-ply,Masters 1,82.05,83,190,-200,200,200,105,-110,,105,220,230,235,235,540,SBD
1,Patrick Rodrigue,M,,1978,46,Canada,,Single-ply,Masters 1,81.95,83,222.5,-237.5,242.5,242.5,145,150,155,155,240,255,-265,255,652.5,SBD
1,Nash Hunter,M,,1979,45,England,,Single-ply,Masters 1,72.75,74,195,207.5,-210,207.5,115,125,-127.5,125,235,-245,-245,235,567.5,SBD
1,John MacDonald #1,M,,1983,41,Canada,,Single-ply,Masters 1,132.2,120+,240,305,325,325,260,275,280,280,225,250,277.5,277.5,882.5,SBD
2,Muhammad Abdul Jabar Adnan,M,,1983,41,Pakistan,,Single-ply,Masters 1,145.7,120+,120,-145,150,150,70,100,-110,100,120,130,140,140,390,SBD
1,Haroun Pietersen,M,,1987,37,South Africa,,Single-ply,Open,104.8,105,285,302.5,-312.5,302.5,197.5,207.5,212.5,212.5,260,270,285,285,800,SBD
2,Matthew Martynyszyn,M,,1990,34,England,,Single-ply,Open,126.6,120+,275,-295,295,295,175,185,-200,185,255,272.5,285,285,765,SBD
2,Uvindu Jayasinghe,M,,1996,28,Sri Lanka,,Single-ply,Open,103.7,105,275,290,-305,290,160,170,177.5,177.5,275,290,302.5,302.5,770,SBD
1,Muhammad Nooh Dastgir Butt,M,,1998,26,Pakistan,,Single-ply,Open,184,120+,340,-360,,340,200,210,-215,210,290,300,,300,850,SBD
1,James Taylor #10,M,,1998,26,England,,Single-ply,Open,93,93,165,-177.5,-227.5,165,200,210,215,215,220,232.5,-240,232.5,612.5,SBD
1,Joseph Shaw,M,,1998,26,England,,Single-ply,Open,115.65,120,265,280,292.5,292.5,250,260,-270,260,225,240,247.5,247.5,800,SBD
3,Thomas Shaw,M,,2000,24,England,,Single-ply,Open,96.5,105,275,290,305,305,190,205,215,215,230,247.5,-255,247.5,767.5,SBD
1,Sheik Abdulla S,M,,2001,23,India,,Single-ply,Juniors,57.7,59,185,210,-238,210,107.5,115,125,125,170,200,205,205,540,SBD
2,Justin Furman,M,,2001,23,South Africa,,Single-ply,Juniors,118.35,120,310,330,340,340,-175,175,,175,290,305,-326,305,820,SBD
1,Syed Khaja Vali,M,,2002,22,India,,Single-ply,Juniors,92.8,93,220,260,275,275,175,-190,-190,175,275,-297.5,-297.5,275,725,SBD
1,R S Shyaam Sundar,M,,2002,22,India,,Single-ply,Juniors,118.85,120,-305,305,335,335,215,230,-243,230,285,305,-326,305,870,SBD
1,Shashank Joshi,M,,2002,22,India,,Single-ply,Juniors,101.55,105,280,-297.5,305,305,175,185,190,190,250,270,277.5,277.5,772.5,SBD
1,Modem Vamsi,M,,2003,21,India,,Single-ply,Juniors,65.6,66,270,280,290,290,125,135,140,140,230,242.5,247.5,247.5,677.5,SBD
2,Sean Britz,M,,2003,21,South Africa,,Single-ply,Juniors,104.35,105,220,260,270,270,145,155,162.5,162.5,235,255,-275,255,687.5,SBD
1,Balamurugan N,M,,2004,20,India,,Single-ply,Juniors,136.95,120+,-325,325,-330,325,175,180,185,185,260,272.5,-300,272.5,782.5,SBD
1,Jayamaruthy Moorthy,M,,2004,20,India,,Single-ply,Juniors,82.95,83,-302.5,302.5,-310,302.5,-177.5,177.5,185,185,265,275,295.5,295.5,783,SBD
2,Mohammed Azlan W,M,,2005,19,India,,Single-ply,Juniors,120.85,120+,260,290,305,305,160,170,180,180,240,265,-280,265,750,SBD
1,Kunal Kunal,M,,2006,18,India,,Single-ply,Sub-Juniors,118.65,120,235,240,-245,240,125,-127.5,127.5,127.5,205,215,-222.5,215,582.5,SBD
1,Tanish Garg,M,,2009,15,India,,Single-ply,Sub-Juniors,127.3,120+,-255,-255,255,255,175,185,195,195,185,197.5,207.5,207.5,657.5,SBD
1,Beulah Toews,F,,1944,80,Australia,,Raw,Masters 4,50.6,52,45,50,55,55,27.5,32.5,-35,32.5,70,77.5,-80,77.5,165,SBD
1,Cherry Wilson,F,,1950,74,New Zealand,,Raw,Masters 4,56.2,57,75,-80,-80,75,40,42.5,-45,42.5,95,102.5,-107.5,102.5,220,SBD
1,Josie Lee,F,,1953,71,Wales,,Raw,Masters 4,67.75,69,62.5,67.5,70.5,70.5,25,26.5,28,28,112.5,118,121.5,121.5,220,SBD
1,Vicki Stamoulis,F,,1954,70,Australia,,Raw,Masters 4,93.45,84+,45,57.5,-62.5,57.5,45,50,52.5,52.5,125.5,135.5,140.5,140.5,250.5,SBD
1,Trish Muldrock,F,,1954,70,New Zealand,,Raw,Masters 4,45.8,47,75,-77.5,-77.5,75,58,61,62,62,120,126,131,131,268,SBD
6,Helen Southwell,F,,1957,67,Australia,,Raw,Masters 3,61.45,63,82.5,-90,90,90,42.5,45,47.5,47.5,117.5,125,132.5,132.5,270,SBD
5,Arlene van Diepen,F,,1957,67,Canada,,Raw,Masters 3,61.7,63,80,82.5,85,85,47.5,50,-55,50,122.5,130,137.5,137.5,272.5,SBD
1,Peta Day,F,,1959,65,Australia,,Raw,Masters 3,94.1,84+,130,137.5,142,142,70,72.5,75,75,157.5,167.5,175.5,175.5,392.5,SBD
4,Susan Bonneau,F,,1960,64,Canada,,Raw,Masters 3,96.1,84+,90,97.5,-102.5,97.5,50,55,-57.5,55,102.5,105,112.5,112.5,265,SBD
1,Gail-Ann Breese,F,,1960,64,Canada,,Raw,Masters 3,64.55,69,102.5,107.5,112.5,112.5,60,62.5,-65,62.5,145,152.5,-165,152.5,327.5,SBD
1,Tracy Chipping,F,,1961,63,New Zealand,,Raw,Masters 3,83.95,84,117.5,122.5,125,125,67.5,72.5,77.5,77.5,140,150,152.5,152.5,355,SBD
4,Kelly Wharton,F,,1962,62,Canada,,Raw,Masters 3,60.75,63,97.5,105,110,110,52.5,55,-57.5,55,-115,115,122.5,122.5,287.5,SBD
2,Sue Moar,F,,1962,62,New Zealand,,Raw,Masters 3,54.7,57,77.5,87.5,-90,87.5,42.5,45,-47.5,45,107.5,117.5,122.5,122.5,255,SBD
1,Clair Angel,F,,1963,61,Australia,,Raw,Masters 3,56.8,57,90,97.5,-100,97.5,47.5,52.5,55,55,120,127.5,-135,127.5,280,SBD
3,Annette Taylor,F,,1963,61,Australia,,Raw,Masters 3,61.75,63,110,-117.5,-117.5,110,55,60,-62.5,60,137.5,145,-150,145,315,SBD
2,Jackie Blasbery,F,,1963,61,England,,Raw,Masters 3,97.7,84+,110,120,127.5,127.5,75,85,90,90,155,165,-175.5,165,382.5,SBD
1,Deborah Tiernan,F,,1963,61,England,,Raw,Masters 3,60.15,63,115,120,-122.5,120,65,70,-72.5,70,135,145,152.5,152.5,342.5,SBD
2,Karen Humphreys,F,,1963,61,New Zealand,,Raw,Masters 3,62.45,63,112.5,117.5,120.5,120.5,60,65,67.5,67.5,142.5,150,-155,150,338,SBD
2,Catherine Davies,F,,1963,61,England,,Raw,Masters 3,82.1,84,117.5,122.5,127.5,127.5,55,62.5,-65,62.5,135,142.5,150,150,340,SBD
4,Rita Shergold,F,,1965,59,England,,Raw,Masters 2,62.45,63,90,97.5,102.5,102.5,62.5,65,67.5,67.5,115,122.5,125,125,295,SBD
1,Linda Jensen,F,,1965,59,Australia,,Raw,Masters 2,56.35,57,100,-105,105,105,62.5,67.5,-70,67.5,147.5,155,160,160,332.5,SBD
8,Fiona Wallace,F,,1966,58,Australia,,Raw,Masters 2,73.8,76,105,110,112.5,112.5,62.5,65,67.5,67.5,130,137.5,-142.5,137.5,317.5,SBD
2,Christine Nguyen,F,,1966,58,Canada,,Raw,Masters 2,61.9,63,117.5,122.5,127.5,127.5,52.5,55,57.5,57.5,127.5,132.5,135,135,320,SBD
5,Joanne Holden,F,,1966,58,England,,Raw,Masters 2,56.65,57,82.5,90,-92.5,90,42.5,45,-47.5,45,95,100,-105,100,235,SBD
4,Hope Powers,F,,1967,57,Australia,,Raw,Masters 2,121.05,84+,120,142.5,150,150,70,-77.5,77.5,77.5,130,150,-162.5,150,377.5,SBD
2,Sue Sweeney,F,,1967,57,Australia,,Raw,Masters 2,67.45,69,97.5,105,110,110,47.5,52.5,-55,52.5,125,135,-142.5,135,297.5,SBD
10,Ruthie Norton,F,,1969,55,N.Ireland,,Raw,Masters 2,74.2,76,72.5,77.5,82.5,82.5,45,47.5,50,50,105,112.5,117.5,117.5,250,SBD
2,Elaine Jackson #2,F,,1969,55,England,,Raw,Masters 2,115.6,84+,140,145,152.5,152.5,80,85,-87.5,85,165,175,185,185,422.5,SBD
6,Corinna Fahey,F,,1970,54,Canada,,Raw,Masters 2,75.75,76,120,125,127.5,127.5,52.5,57.5,60,60,132.5,140,145,145,332.5,SBD
3,Kylie Dwyer,F,,1970,54,Australia,,Raw,Masters 2,73.25,76,-115,115,120,120,65,70,72.5,72.5,155,162.5,172.5,172.5,365,SBD
4,Paulina Tanoto,F,,1970,54,Singapore,,Raw,Masters 2,53.4,57,97.5,102.5,-105,102.5,45,47.5,50,50,112.5,120,-125,120,272.5,SBD
5,Bobby-Jo Williamson,F,,1971,53,New Zealand,,Raw,Masters 2,74.65,76,115,120,125,125,80,85.5,86.5,86.5,137.5,145,-150,145,356.5,SBD
5,Pauline Watson,F,,1971,53,England,,Raw,Masters 2,81.35,84,115,-120,120,120,52.5,57.5,-60,57.5,170,180,-187.5,180,357.5,SBD
3,Ali Cosner,F,,1971,53,New Zealand,,Raw,Masters 2,83.05,84,122.5,130,137.5,137.5,82.5,87.5,90,90,172.5,185,-192.5,185,412.5,SBD
3,Tiffany Hodkinson,F,,1971,53,England,,Raw,Masters 2,56.35,57,90,-95,95,95,50,55,57.5,57.5,135,145,-155,145,297.5,SBD
2,Toni Vernelli,F,,1971,53,England,,Raw,Masters 2,51.6,52,87.5,92.5,-95,92.5,57.5,60,-62.5,60,97.5,102.5,105,105,257.5,SBD
2,Suellen Lugg,F,,1971,53,New Zealand,,Raw,Masters 2,82.6,84,162.5,-170,170,170,75,77.5,80,80,162.5,172.5,-180,172.5,422.5,SBD
9,Elizabeth Windle,F,,1972,52,England,,Raw,Masters 2,73.95,76,85,92.5,100,100,52.5,57.5,-60,57.5,112.5,120,125,125,282.5,SBD
1,Sharon Holmes #1,F,,1972,52,England,,Raw,Masters 2,62.05,63,120,127.5,130,130,65,70,72.5,72.5,130,135,140,140,342.5,SBD
1,Ime Telea,F,,1972,52,New Zealand,,Raw,Masters 2,115.2,84+,155,165,-170,165,102.5,110,115,115,192.5,207.5,212.5,212.5,492.5,SBD
6,Jillian Sproul,F,,1972,52,Canada,,Raw,Masters 2,76.1,84,-125,-125,125,125,70,-75,-75,70,130,140,147.5,147.5,342.5,SBD
5,Kerry Lindsay,F,,1973,51,Isle of Man,,Raw,Masters 2,62.35,63,100,107.5,110,110,47.5,50,52.5,52.5,115,122.5,130,130,292.5,SBD
2,Theresa Kwan,F,,1973,51,Canada,,Raw,Masters 2,56.55,57,95,100,105,105,55,57.5,60,60,140,147.5,-152.5,147.5,312.5,SBD
1,Nadina Taharally,F,,1973,51,Guyana,,Raw,Masters 2,74.75,76,142.5,147.5,150,150,75,77.5,-80,77.5,170,175,182.5,182.5,410,SBD
3,Elizabeth Hall,F,,1974,50,New Zealand,,Raw,Masters 2,85.9,84+,145,-160,-162.5,145,70,75,77.5,77.5,145,160,-167.5,160,382.5,SBD
4,Christina Fordyce,F,,1974,50,New Zealand,,Raw,Masters 2,73.65,76,100,110,115,115,75,80,82.5,82.5,145,157.5,167.5,167.5,365,SBD
7,Lisa Bell,F,,1974,50,N.Ireland,,Raw,Masters 2,145.5,84+,-115,115,127.5,127.5,75,80,-82.5,80,125,135,-140,135,342.5,SBD
2,Amelie Mayo,F,,1974,50,Canada,,Raw,Masters 2,74.15,76,100,107.5,115,115,60,65,67.5,67.5,175,187.5,192.5,192.5,375,SBD
4,Jaqui Broesky,F,,1975,49,Canada,,Raw,Masters 1,90.7,84+,140,150,155,155,90,95,100,100,145,155,162.5,162.5,417.5,SBD
6,Helen Carrington,F,,1976,48,Wales,,Raw,Masters 1,83.15,84,115,122.5,130,130,80,85,-87.5,85,145,155,-170,155,370,SBD
4,Danielle Hussey,F,,1976,48,Canada,,Raw,Masters 1,56.45,57,117.5,-122.5,127.5,127.5,60,62.5,65,65,115,122.5,127.5,127.5,320,SBD
1,Emmannuelle Archambault,F,,1976,48,Canada,,Raw,Masters 1,67.3,69,130,137.5,142.5,142.5,87.5,92.5,95,95,172.5,182.5,187.5,187.5,425,SBD
6,Sarah Wheal,F,,1977,47,Australia,,Raw,Masters 1,75.35,76,120,127.5,132.5,132.5,85,90,92,92,147.5,155,162.5,162.5,387,SBD
5,Lisa Grant #2,F,,1977,47,Isle of Man,,Raw,Masters 1,75.6,76,130,135,137.5,137.5,70,-72.5,72.5,72.5,177.5,185,-192.5,185,395,SBD
2,Anita Broczek,F,,1977,47,New Zealand,,Raw,Masters 1,67.4,69,120,125,130,130,77.5,82.5,85,85,145,155,157.5,157.5,372.5,SBD
3,Carole O'Neil,F,,1977,47,England,,Raw,Masters 1,73.15,76,127.5,132.5,140,140,85,90,92.5,92.5,165,175,180,180,412.5,SBD
2,Cat Shamel,F,,1977,47,England,,Raw,Masters 1,56.75,57,125,-130,-130,125,77.5,80,82.5,82.5,145,152.5,-157.5,152.5,360,SBD
3,Helen Frank,F,,1978,46,Australia,,Raw,Masters 1,56.35,57,117.5,125,-127.5,125,67.5,72.5,75,75,122.5,132.5,137.5,137.5,337.5,SBD
3,Tracy O'Callaghan,F,,1978,46,Wales,,Raw,Masters 1,99,84+,150,162.5,172.5,172.5,65,72.5,77.5,77.5,160,170,177.5,177.5,427.5,SBD
3,Tarryn Valle,F,,1978,46,South Africa,,Raw,Masters 1,51.3,52,85,90,-92.5,90,50,55,-57.5,55,132.5,140,-142.5,140,285,SBD
4,Pia Marangoni,F,,1978,46,South Africa,,Raw,Masters 1,75.35,76,145,152.5,-155,152.5,70,75,77.5,77.5,160,170,180,180,410,SBD
3,Meaghan Trovato,F,,1979,45,Australia,,Raw,Masters 1,62,63,125,-130,130,130,77.5,82.5,85,85,152.5,157.5,-165,157.5,372.5,SBD
5,Morgan Haupt,F,,1979,45,Canada,,Raw,Masters 1,83.6,84,122.5,127.5,132.5,132.5,75,-80,80,80,155,165,-170,165,377.5,SBD
1,Emma Drackford,F,,1979,45,England,,Raw,Masters 1,56.35,57,135,140.5,,140.5,60,62.5,65,65,140,147.5,157.5,157.5,363,SBD
5,Jeri Munro,F,,1979,45,Canada,,Raw,Masters 1,67.35,69,117.5,122.5,-125,122.5,65,-70,-70,65,145,155,160,160,347.5,SBD
2,Angela Vitanza,F,,1980,44,Australia,,Raw,Masters 1,83.95,84,135,145,150,150,92.5,95,97.5,97.5,170,177.5,182.5,182.5,430,SBD
4,Abbi Bosward-Fielding,F,,1981,43,Australia,,Raw,Masters 1,82.05,84,-147.5,-147.5,147.5,147.5,80,85,-90,85,162.5,177.5,-195,177.5,410,SBD
5,Letitia Lau,F,,1981,43,England,,Raw,Masters 1,62.1,63,105,112.5,-117.5,112.5,60,65,-70,65,130,140,147.5,147.5,325,SBD
5,Yunie Yang,F,,1981,43,Singapore,,Raw,Masters 1,87.9,84+,115,125,132.5,132.5,80,85,-90,85,147.5,160,-170,160,377.5,SBD
1,Melissa Stone,F,,1981,43,Canada,,Raw,Masters 1,75,76,172.5,177.5,182.5,182.5,87.5,92.5,95,95,192.5,200,-205,200,477.5,SBD
1,Katie Paskin,F,,1981,43,England,,Raw,Masters 1,45.95,47,87.5,92.5,97.5,97.5,47.5,52.5,55,55,117.5,127.5,132.5,132.5,285,SBD
1,Natalie Bartolo,F,,1981,43,Australia,,Raw,Masters 1,51.7,52,-110,110,-117.5,110,67.5,72.5,-75,72.5,130,140,142.5,142.5,325,SBD
2,Naomi Mynott,F,,1982,42,Australia,,Raw,Masters 1,74.2,76,145,155,-160,155,77.5,82.5,-85,82.5,170,-182.5,182.5,182.5,420,SBD
7,Alyson Egan,F,,1982,42,Isle of Man,,Raw,Masters 1,80.25,84,-130,130,140,140,60,65,-70,65,122.5,130,142.5,142.5,347.5,SBD
3,Michelle Kramarczuk,F,,1982,42,Australia,,Raw,Masters 1,68.65,69,120,127.5,135,135,77.5,82.5,-85,82.5,137.5,147.5,155,155,372.5,SBD
7,Kerry Kelly,F,,1982,42,Isle of Man,,Raw,Masters 1,94.05,84+,95,105,-110,105,45,47.5,-50,47.5,135,147.5,-150,147.5,300,SBD
8,Fronia Durnford,F,,1982,42,Canada,,Raw,Masters 1,81.25,84,-110,110,115,115,57.5,62.5,65,65,125,137.5,150,150,330,SBD
2,Morayo Akinsanya,F,,1982,42,Canada,,Raw,Masters 1,61.7,63,127.5,132.5,137.5,137.5,72.5,77.5,82.5,82.5,167.5,180,187.5,187.5,407.5,SBD
1,Hannah Yardy,F,,1982,42,England,,Raw,Masters 1,62.6,63,142.5,150,-155,150,87.5,92.5,97.5,97.5,-175,185,197.5,197.5,445,SBD
8,Alison Goldsworthy,F,,1983,41,Wales,,Raw,Masters 1,74.35,76,130,135,140,140,65,-70,-70,65,160,170,175,175,380,SBD
3,Victoria Radcliffe,F,,1983,41,England,,Raw,Masters 1,81.7,84,125,135,142.5,142.5,72.5,77.5,80,80,180,192.5,-207.5,192.5,415,SBD
2,Kate Clarke,F,,1983,41,England,,Raw,Masters 1,51.85,52,110,120,127.5,127.5,65,70,-75,70,120,127.5,-132.5,127.5,325,SBD
9,Jenny Wilson #2,F,,1984,40,N.Ireland,,Raw,Masters 1,74.05,76,112.5,120,125,125,52.5,55,-57.5,55,142.5,152.5,-160,152.5,332.5,SBD
4,Vleen Serge,F,,1986,38,South Africa,,Raw,Open,75.2,76,-135,135,-140,135,65,-70,-70,65,155,-167.5,167.5,167.5,367.5,SBD
3,Martina Pisano,F,,1986,38,England,,Raw,Open,46.65,47,105,112.5,117.5,117.5,52.5,57.5,62.5,62.5,132.5,137.5,-142.5,137.5,317.5,SBD
DQ,Ruth Moore,F,,1988,36,N.Ireland,,Raw,Open,61.75,63,-145,145,-150,145,-72.5,-72.5,-72.5,-72.5,162.5,-170,170,170,,SBD
7,Melissa Kasper,F,,1988,36,Canada,,Raw,Open,81.95,84,-157.5,157.5,167.5,167.5,77.5,82.5,87.5,87.5,167.5,175,-180,175,430,SBD
3,Christina Kio-Bennett,F,,1988,36,Wales,,Raw,Open,66,69,140,150,157.5,157.5,90,95,-97.5,95,175,185,-195,185,437.5,SBD
4,Catriona Smyth,F,,1989,35,N.Ireland,,Raw,Open,55.5,57,70,77.5,80,80,-55,57.5,60,60,100,110,120,120,260,SBD
1,Riria Ropata,F,,1989,35,New Zealand,,Raw,Open,132.5,84+,220,230,-235,230,122.5,130,-132.5,130,232.5,243,-253,243,603,SBD
2,Leoni Tatman,F,,1990,34,England,,Raw,Open,51.05,52,117.5,125,-132.5,125,85,90,92.5,92.5,135,140,-142.5,140,357.5,SBD
6,Hannah McKee,F,,1990,34,N.Ireland,,Raw,Open,127.35,84+,140,150,155,155,95,100,-102.5,100,150,162.5,175,175,430,SBD
1,Morgan Gladden,F,,1990,34,Scotland,,Raw,Open,74.75,76,160,165,170,170,90,95,100,100,165,177.5,187.5,187.5,457.5,SBD
4,Nicola Beatty,F,,1990,34,N.Ireland,,Raw,Open,103.6,84+,150,157.5,-165,157.5,70,75,80,80,180,192.5,-195,192.5,430,SBD
3,Talia Firth,F,,1992,32,England,,Raw,Open,99.5,84+,165,-175,177.5,177.5,95,100,102.5,102.5,165,-175,-175,165,445,SBD
1,Catherine Jennings,F,,1992,32,New Zealand,,Raw,Open,56.65,57,145,152.5,-157.5,152.5,82.5,85,-87.5,85,170,177.5,-182.5,177.5,415,SBD
2,Natasha Eaton,F,,1992,32,Wales,,Raw,Open,75.15,76,157.5,170,-175,170,80,87.5,92.5,92.5,167.5,180,-197.5,180,442.5,SBD
7,Meghan Norris,F,,1993,31,Wales,,Raw,Open,51.55,52,95,-100,-102.5,95,52.5,55,-57.5,55,135,142.5,-150,142.5,292.5,SBD
2,Claire Nunan,F,,1993,31,New Zealand,,Raw,Open,84,84,177.5,-187.5,187.5,187.5,115,120,123,123,202.5,217.5,226,226,536.5,SBD
4,Karen Lai,F,,1994,30,New Zealand,,Raw,Open,68.5,69,160,167.5,-170,167.5,97.5,100,-103,100,-167.5,170,-180,170,437.5,SBD
4,Kayley Phillips,F,,1994,30,Wales,,Raw,Open,50.8,52,110,120,-125,120,55,-60,60,60,150,-157.5,-165,150,330,SBD
3,Marie Warren,F,,1994,30,Wales,,Raw,Open,73.7,76,155,162.5,-167.5,162.5,72.5,77.5,80,80,162.5,172.5,180,180,422.5,SBD
1,Domiziana Turcatti,F,,1995,29,England,,Raw,Open,66.45,69,147.5,155,160,160,80,85,87.5,87.5,187.5,197.5,200,200,447.5,SBD
5,Hannah Altman,F,,1995,29,Australia,,Raw,Open,68.8,69,-150,150,155,155,102,-106,106,106,165,175,-185,175,436,SBD
10,Dana Suitor,F,,1996,28,N.Ireland,,Raw,Open,65.8,69,120,125,130,130,80,85,87.5,87.5,160,170,175,175,392.5,SBD
1,Megan-Li Smith,F,,1996,28,New Zealand,,Raw,Open,51.45,52,165,171,-176,171,97.5,100,102.5,102.5,177.5,187.5,192.5,192.5,466,SBD
2,Anna Clay,F,,1996,28,England,,Raw,Open,55.3,57,140,145,147.5,147.5,67.5,72.5,-75,72.5,160,165,-170,165,385,SBD
6,Laura Martin,F,,1997,27,N.Ireland,,Raw,Open,50.45,52,90,97.5,102.5,102.5,52.5,57.5,60,60,130,142.5,147.5,147.5,310,SBD
2,Zahra Padia,F,,1997,27,Trinidad and Tobago,,Raw,Open,108.15,84+,200,210,220,220,105,110,115,115,190,205,215,215,550,SBD
2,Nikola Murray,F,,1997,27,Scotland,,Raw,Open,43.65,47,115,120,-125,120,52.5,55,57.5,57.5,135,142.5,145,145,322.5,SBD
5,Jodi Beynon,F,,1998,26,Wales,,Raw,Open,83.45,84,172.5,182.5,-187.5,182.5,92.5,97.5,-100,97.5,195,-207.5,-207.5,195,475,SBD
5,Jayde Watson,F,,1998,26,Canada,,Raw,Open,116.05,84+,157.5,165,172.5,172.5,67.5,72.5,-77.5,72.5,185,-192.5,-195,185,430,SBD
2,Claudia Nicolson,F,,1998,26,England,,Raw,Open,61.35,63,137.5,147.5,152.5,152.5,87.5,92.5,95,95,162.5,175,180,180,427.5,SBD
1,Ursula Pereira,F,,1998,26,Australia,,Raw,Open,46.8,47,117.5,125,130,130,60,62.5,65,65,137.5,142.5,147.5,147.5,342.5,SBD
6,Chloe Cheevers,F,,1998,26,N.Ireland,,Raw,Open,60.95,63,130,135,-140,135,60,-62.5,62.5,62.5,145,-152.5,-152.5,145,342.5,SBD
3,Sian Arterton,F,,1998,26,England,,Raw,Open,83.8,84,170,185,192.5,192.5,105,110,112.5,112.5,170,182.5,-187.5,182.5,487.5,SBD
7,Ashley Nearing,F,,1998,26,Canada,,Raw,Open,67.1,69,150,157.5,162.5,162.5,75,80,85,85,170,180,-192.5,180,427.5,SBD
6,Lauren Williamson,F,,1999,25,Scotland,,Raw,Open,83.6,84,165,175,180,180,90,95,-97.5,95,175,187.5,-195,187.5,462.5,SBD
1,Hannah Clayton,F,,2000,24,England,,Raw,Open,60.95,63,142.5,-150,152.5,152.5,77.5,82.5,87.5,87.5,172.5,182.5,187.5,187.5,427.5,SBD
5,Daniella McCourt,F,,2000,24,N.Ireland,,Raw,Open,72.95,76,117.5,127.5,-135,127.5,55,60,62.5,62.5,152.5,167.5,-175,167.5,357.5,SBD
8,Amy Martin #1,F,,2000,24,Wales,,Raw,Open,68.1,69,132.5,140,145,145,77.5,82.5,85,85,170,180,190,190,420,SBD
4,Riva Kessel,F,,2001,23,Canada,,Raw,Open,82,84,170,177.5,182.5,182.5,80,85,-90,85,187.5,197.5,207.5,207.5,475,SBD
1,Megan Davenport,F,,2001,23,England,,Raw,Juniors,48.9,52,90,97.5,102.5,102.5,65,70,72.5,72.5,112.5,120,127.5,127.5,302.5,SBD
6,Kimberley Dodge,F,,2001,23,England,,Raw,Juniors,68.6,69,130,137.5,-142.5,137.5,70,75,-77.5,75,155,167.5,-177.5,167.5,380,SBD
3,Sienna De Carolis,F,,2001,23,Canada,,Raw,Juniors,68.1,69,150,160.5,168,168,72.5,77.5,80,80,175,-185,185,185,433,SBD
9,Emily May,F,,2001,23,Wales,,Raw,Juniors,59,63,107.5,115,120,120,40,45,-47.5,45,117.5,125,132.5,132.5,297.5,SBD
6,Lara Storey,F,,2001,23,N.Ireland,,Raw,Juniors,74.8,76,155,-165,-165,155,72.5,77.5,-80,77.5,-177.5,187.5,-192.5,187.5,420,SBD
4,Vicky Barlow,F,,2001,23,Wales,,Raw,Juniors,55.85,57,115,-122.5,-122.5,115,65,70,-72.5,70,135,145,-150,145,330,SBD
3,Nicole Davies #1,F,,2001,23,Wales,,Raw,Juniors,55.45,57,120,127.5,-135,127.5,55,60,62.5,62.5,135,-145,150,150,340,SBD
1,Francine Ma-ao,F,,2001,23,Canada,,Raw,Juniors,56.25,57,137.5,145,-147.5,145,87.5,-92.5,-92.5,87.5,-160,-160,160,160,392.5,SBD
1,Judith Lavigueur,F,,2001,23,Canada,,Raw,Juniors,60.7,63,152.5,161,163,163,92.5,97.5,101.5,101.5,162.5,172.5,180,180,444.5,SBD
1,Karmen Harvey,F,,2001,23,England,,Raw,Juniors,111.7,84+,175,187.5,192.5,192.5,92.5,100,-105,100,170,185,,185,477.5,SBD
4,Jess Drake,F,,2001,23,New Zealand,,Raw,Juniors,68.8,69,150,-156,157.5,157.5,87.5,90,92.5,92.5,155,165,175,175,425,SBD
3,Carla Swanepoel,F,,2001,23,Canada,,Raw,Juniors,75.3,76,155,165,167.5,167.5,82.5,90,92.5,92.5,170,180,-185,180,440,SBD
4,Grace Labdon,F,,2001,23,Wales,,Raw,Juniors,76.55,84,112.5,122.5,130,130,60,65,70,70,147.5,160,170,170,370,SBD
4,Charleigh Lacey,F,,2001,23,England,,Raw,Juniors,74.45,76,145,152.5,-157.5,152.5,90,-97.5,-97.5,90,175,185,-190,185,427.5,SBD
5,Alice Lane,F,,2001,23,England,,Raw,Juniors,56.25,57,95,100,-110,100,50,52.5,55,55,135,145,155,155,310,SBD
8,Megan Shardlow,F,,2002,22,N.Ireland,,Raw,Juniors,61.8,63,117.5,125,130,130,55,60,62.5,62.5,127.5,135,-140,135,327.5,SBD
5,Lucy Gill,F,,2002,22,England,,Raw,Juniors,81.75,84,130,140,147.5,147.5,65,70,-72.5,70,135,142.5,150,150,367.5,SBD
2,Ashleigh Riekert,F,,2002,22,New Zealand,,Raw,Juniors,82.65,84,155,162.5,170,170,87.5,92.5,-97.5,92.5,165,175,185,185,447.5,SBD
2,Nicole Cameron,F,,2002,22,England,,Raw,Juniors,57,57,125,132.5,-137.5,132.5,-55,55,60,60,145,152.5,157.5,157.5,350,SBD
1,Fiona MacDonald #1,F,,2002,22,Scotland,,Raw,Juniors,76.05,84,160,170,180,180,85,90,95,95,160,172.5,182.5,182.5,457.5,SBD
7,Samih Adair,F,,2003,21,N.Ireland,,Raw,Juniors,68.55,69,122.5,130,132.5,132.5,52.5,57.5,-60,57.5,130,140,147.5,147.5,337.5,SBD
7,Izzy Fakkel,F,,2003,21,England,,Raw,Juniors,72.6,76,130,137.5,147.5,147.5,75,80,82.5,82.5,175,187.5,-200,187.5,417.5,SBD
5,Alice Baker,F,,2003,21,Wales,,Raw,Juniors,68.05,69,115,125,132.5,132.5,77.5,85,90,90,137.5,147.5,157.5,157.5,380,SBD
2,Anne Marie Campeau,F,,2003,21,Canada,,Raw,Juniors,68.95,69,150,160,163,163,90,94.5,-97.5,94.5,170,180,-183.5,180,437.5,SBD
9,Leah Shore,F,,2003,21,Canada,,Raw,Juniors,73.9,76,110,120,122.5,122.5,75,80,-82.5,80,135,145,150,150,352.5,SBD
3,Serena Blundell,F,,2004,20,England,,Raw,Juniors,62.05,63,135,145,152.5,152.5,65,72.5,75,75,160,172.5,177.5,177.5,405,SBD
8,Holly Mainwaring,F,,2004,20,Wales,,Raw,Juniors,73.9,76,125,135,142.5,142.5,65,72.5,75,75,142.5,152.5,160,160,377.5,SBD
5,Hannah Maguire,F,,2004,20,N.Ireland,,Raw,Juniors,62.85,63,130,135,137.5,137.5,72.5,77.5,82.5,82.5,132.5,-140,140,140,360,SBD
2,Reanna Sell,F,,2004,20,Wales,,Raw,Juniors,50.9,52,80,85,-90,85,35,37.5,40,40,97.5,102.5,107.5,107.5,232.5,SBD
5,Libby Rubin,F,,2004,20,Wales,,Raw,Juniors,74.7,76,162.5,-170,-170,162.5,80,85,-90,85,167.5,175,180,180,427.5,SBD
3,Nagam Gnana Divya,F,,2005,19,India,,Raw,Juniors,102.5,84+,145,150,160,160,50,55,-67.5,55,140,157.5,-162.5,157.5,372.5,SBD
3,Minnie Dihmis,F,,2005,19,N.Ireland,,Raw,Juniors,78.3,84,137.5,150,-155,150,55,62.5,67.5,67.5,152.5,165,-170,165,382.5,SBD
2,Roechelle Van der Merwe,F,,2006,18,South Africa,,Raw,Sub-Juniors,74.2,76,127.5,137.5,145,145,62.5,70,75,75,155,165,-177.5,165,385,SBD
3,Aarya Bhagwat,F,,2006,18,India,,Raw,Sub-Juniors,66.65,69,125,130,135,135,57.5,62.5,65,65,142.5,152.5,-155,152.5,352.5,SBD
1,Chloe Cornwell,F,,2006,18,England,,Raw,Sub-Juniors,51.3,52,105,-110,-110,105,55,60,-65,60,130,138,-140.5,138,303,SBD
1,Katie Woods,F,,2006,18,N.Ireland,,Raw,Sub-Juniors,55.55,57,110,115,-120,115,70,75.5,78,78,110,117.5,122.5,122.5,315.5,SBD
1,Poppy McMulkin,F,,2006,18,England,,Raw,Sub-Juniors,66.75,69,127.5,140,145,145,75,80,-85.5,80,165,180,185,185,410,SBD
1,Devika Ashwin Desai,F,,2006,18,India,,Raw,Sub-Juniors,114.35,84+,132.5,140,-147.5,140,52.5,57.5,62.5,62.5,135,145,155,155,357.5,SBD
2,Teagan Lindsay,F,,2006,18,Isle of Man,,Raw,Sub-Juniors,48.35,52,77.5,82.5,85,85,42.5,45,-47.5,45,90,100,-110,100,230,SBD
1,Moitrayee Borah,F,,2006,18,India,,Raw,Sub-Juniors,45.5,47,75,80,87.5,87.5,35,40,42.5,42.5,95,-100,100,100,230,SBD
1,Katie Tatum,F,,2006,18,England,,Raw,Sub-Juniors,82.3,84,115,122.5,-127.5,122.5,70,75,-77.5,75,125,132.5,137.5,137.5,335,SBD
2,Grace Roberts,F,,2006,18,South Africa,,Raw,Sub-Juniors,56.35,57,87.5,92.5,97.5,97.5,50,55,57.5,57.5,112.5,122.5,125,125,280,SBD
2,Simone van der Merwe,F,,2007,17,South Africa,,Raw,Sub-Juniors,91,84+,120,130,-132.5,130,50,57.5,60,60,130,140,150,150,340,SBD
1,Lisa Stander,F,,2007,17,South Africa,,Raw,Sub-Juniors,74.15,76,127.5,135,140,140,67.5,72.5,-75,72.5,162.5,177.5,190,190,402.5,SBD
1,Charley Routledge,F,,2007,17,N.Ireland,,Raw,Sub-Juniors,61.4,63,85,-90,90,90,55,60,62.5,62.5,120,-130,-130,120,272.5,SBD
3,Freya Weldon,F,,2008,16,Isle of Man,,Raw,Sub-Juniors,104.3,84+,70,-75,-75,70,40,42.5,45,45,95,102.5,-110,102.5,217.5,SBD
2,Yin Chen,F,,2008,16,N.Ireland,,Raw,Sub-Juniors,66.8,69,115,122.5,130,130,70,75,-77.5,75,145,150,155,155,360,SBD
2,Ava Bezuidenhout,F,,2009,15,South Africa,,Raw,Sub-Juniors,83.85,84,-110,110,125,125,50,55,57.5,57.5,122.5,127.5,-130,127.5,310,SBD
2,Marina Cornwall,F,,1954,70,England,,Raw,Masters 4,44.4,47,50,55,60,60,35,-37.5,37.5,37.5,90,97.5,102.5,102.5,200,SBD
3,Joanne Tolland,F,,1963,61,Scotland,,Raw,Masters 3,94.3,84+,95,102.5,110,110,50,52.5,57.5,57.5,132.5,140,145,145,312.5,SBD
3,Lynda Banks,F,,1965,59,Scotland,,Raw,Masters 2,68.35,69,105,110,115,115,52.5,55,57.5,57.5,112.5,117.5,122.5,122.5,295,SBD
6,Linda McHaffie,F,,1968,56,Scotland,,Raw,Masters 2,95.75,84+,130,135,-145,135,-62.5,62.5,67.5,67.5,130,140,147.5,147.5,350,SBD
1,Angelina Lane,F,,1969,55,Wales,,Raw,Masters 2,51.75,52,95,100,-105,100,50,55,57.5,57.5,110,120,-127.5,120,277.5,SBD
7,Bonita Bloem,F,,1969,55,South Africa,,Raw,Masters 2,73.85,76,112.5,120,125,125,-57.5,57.5,62.5,62.5,120,130,137.5,137.5,325,SBD
4,Angela Lauder,F,,1970,54,Scotland,,Raw,Masters 2,83.85,84,115,120,125,125,75,80,82.5,82.5,145,157.5,-167.5,157.5,365,SBD
1,Lisa Herrington,F,,1971,53,Scotland,,Raw,Masters 2,82.15,84,142.5,150,157.5,157.5,77.5,82.5,-85,82.5,182.5,195,-200,195,435,SBD
5,Senga Dent,F,,1972,52,Scotland,,Raw,Masters 2,112,84+,127.5,137.5,147.5,147.5,62.5,70,-80,70,125,140,-160,140,357.5,SBD
1,Pam Sainsbury,F,,1973,51,Scotland,,Raw,Masters 2,65.05,69,107.5,112.5,-117.5,112.5,60,62.5,65,65,140,150,-157.5,150,327.5,SBD
1,Elisabeth Barry,F,,1973,51,South Africa,,Raw,Masters 2,46.9,47,65,75,82.5,82.5,32.5,35,37.5,37.5,80,95,105,105,225,SBD
6,Elizabeth Hill,F,,1973,51,Scotland,,Raw,Masters 2,60.9,63,87.5,95,100,100,50,55,57.5,57.5,100,110,-115,110,267.5,SBD
3,Karen Fender,F,,1974,50,Scotland,,Raw,Masters 2,61.25,63,90,100,110,110,40,45,-47.5,45,135,142.5,145,145,300,SBD
2,Joanne Parkin,F,,1975,49,Scotland,,Raw,Masters 1,120.15,84+,185,190,-195,190,102.5,107.5,-110,107.5,197.5,-202.5,-207.5,197.5,495,SBD
6,Michele Townsend,F,,1976,48,South Africa,,Raw,Masters 1,126.3,84+,110,120,122.5,122.5,55,60,62.5,62.5,140,160,-165,160,345,SBD
DQ,Lauren Jones,F,,1977,47,South Africa,,Raw,Masters 1,120.4,84+,-177.5,-177.5,-177.5,-177.5,77.5,87.5,-90,87.5,175,185,-192.5,185,,SBD
5,Arlene Middler,F,,1979,45,Scotland,,Raw,Masters 1,55.1,57,97.5,107.5,112.5,112.5,57.5,62.5,65,65,130,137.5,140,140,317.5,SBD
4,Nicola McArthur,F,,1981,43,Scotland,,Raw,Masters 1,62.35,63,125,130,135,135,57.5,62.5,-65,62.5,152.5,157.5,167.5,167.5,365,SBD
1,Helen Ferguson-Ford,F,,1981,43,Scotland,,Raw,Masters 1,138.4,84+,195,205,210,210,97.5,102.5,105,105,190,200,207.5,207.5,522.5,SBD
7,Claire Sim,F,,1982,42,Scotland,,Raw,Masters 1,72.5,76,-135,-140,140,140,70,72.5,75,75,150,157.5,165,165,380,SBD
1,Wendy MacFarlane,F,,1982,42,Scotland,,Raw,Masters 1,83.55,84,172.5,180,-185,180,82.5,90,92.5,92.5,182.5,-190,-190,182.5,455,SBD
4,Emma Kesterton,F,,1983,41,Scotland,,Raw,Masters 1,68.55,69,117.5,125,127.5,127.5,57.5,60,62.5,62.5,152.5,160,162.5,162.5,352.5,SBD
7,Danielle Waldeck,F,,1985,39,South Africa,,Raw,Open,89.05,84+,187.5,200,212.5,212.5,25,,,25,70,-72.5,-125,70,307.5,SBD
3,Giulia Muto,F,,1987,37,South Africa,,Raw,Open,50.75,52,125,-130,130,130,70,72.5,75,75,125,132.5,137.5,137.5,342.5,SBD
1,Nicole Coopoosamy,F,,1993,31,South Africa,,Raw,Open,84,84,180,190,197.5,197.5,95,102.5,107.5,107.5,205,215,233,233,538,SBD
3,Chevonne Roos,F,,1994,30,South Africa,,Raw,Open,56.75,57,135,142.5,-150,142.5,72.5,77.5,-80,77.5,135,-145,-150,135,355,SBD
4,Jessica Conti,F,,1994,30,Scotland,,Raw,Open,61.8,63,135,145,150,150,82.5,87.5,90,90,142.5,155,165,165,405,SBD
DQ,Rashitha de Silva,F,,1995,29,Sri Lanka,,Raw,Open,46.6,47,-110,-115,-115,-110,50,-55,,50,140,145,147.5,147.5,,SBD
2,Sasha Payne,F,,1995,29,South Africa,,Raw,Open,67.25,69,140,150,160,160,95,100,102.5,102.5,165,175,185,185,447.5,SBD
9,Faye McKie,F,,1995,29,Scotland,,Raw,Open,68.25,69,132.5,142.5,147.5,147.5,90,-95,95,95,150,160,-167.5,160,402.5,SBD
3,Daniella da Silva,F,,1997,27,South Africa,,Raw,Open,62.95,63,145,152.5,155,155,60,70,75,75,162.5,175,177.5,177.5,407.5,SBD
5,Ceileidh Mercer,F,,1998,26,Scotland,,Raw,Open,51.35,52,120,-127.5,127.5,127.5,62.5,65,67.5,67.5,135,-142.5,-147.5,135,330,SBD
5,Aimee Jarvie,F,,1999,25,Scotland,,Raw,Open,61.5,63,142.5,150,-155,150,70,75,-77.5,75,160,-170,-170,160,385,SBD
6,Amy Craig,F,,2000,24,Scotland,,Raw,Open,67.95,69,-140,152.5,160,160,80,85,90,90,152.5,167.5,180,180,430,SBD
2,Robyn Gorman,F,,2001,23,Scotland,,Raw,Juniors,76,76,160,170,-172.5,170,72.5,77.5,80,80,180,195,202.5,202.5,452.5,SBD
4,Samantha Smith #1,F,,2002,22,Scotland,,Raw,Juniors,60.6,63,125,132.5,137.5,137.5,65,70,75,75,152.5,165,172.5,172.5,385,SBD
2,Miranda Stitt,F,,2002,22,Scotland,,Raw,Juniors,61.1,63,142.5,150,155,155,92.5,97.5,101,101,150,160,165,165,421,SBD
1,Aimee Guthrie,F,,2002,22,Scotland,,Raw,Juniors,74.45,76,152.5,162.5,170,170,103,108,111,111,162.5,177.5,185,185,466,SBD
6,Gaia Mottalini,F,,2004,20,South Africa,,Raw,Juniors,62.8,63,115,122.5,127.5,127.5,70,75,-80,75,117.5,132.5,147.5,147.5,350,SBD
2,Gemma Miller,F,,2004,20,Scotland,,Raw,Juniors,92.9,84+,147.5,157.5,167.5,167.5,80,85,87.5,87.5,147.5,160,167.5,167.5,422.5,SBD
6,Kate Wilkin,F,,2004,20,South Africa,,Raw,Juniors,56.6,57,82.5,87.5,92.5,92.5,47.5,52.5,55,55,107.5,112.5,117.5,117.5,265,SBD
1,Charnleigh Kotzé,F,,2004,20,South Africa,,Raw,Juniors,66.6,69,-147.5,152.5,161,161,85,95,-96.5,95,165,175,182.5,182.5,438.5,SBD
7,Megan Stringer,F,,2005,19,South Africa,,Raw,Juniors,63,63,125,130,-135,130,62.5,67.5,-70,67.5,125,140,-145,140,337.5,SBD
4,Joanna Ridgard,F,,2007,17,South Africa,,Raw,Sub-Juniors,56.8,57,60,67.5,72.5,72.5,45,-50,50,50,85,97.5,105,105,227.5,SBD
3,Hannah Wardell,F,,2007,17,Scotland,,Raw,Sub-Juniors,55.75,57,77.5,85,-92.5,85,52.5,57.5,60,60,100,110,115,115,260,SBD
2,Claude St-Hilaire,M,,,,Canada,,Raw,Masters 3,80.6,83,155,-162.5,-162.5,155,110,115,-117.5,115,172.5,185,190,190,460,SBD
1,Paul Walker #1,M,,1979,45,Scotland,,Raw,Masters 1,138.15,120+,260,-270,-270,260,167.5,177.5,182.5,182.5,260,277.5,-285,277.5,720,SBD
1,Barry Patchett,M,,1945,79,New Zealand,,Raw,Masters 4,73.25,74,-110,110,-112.5,110,80,85,90,90,130,135,-140,135,335,SBD
1,Dan Oppenheim,M,,1945,79,South Africa,,Raw,Masters 4,79.3,83,125,135,140,140,85,90,95,95,160,170,,170,405,SBD
1,Paul Kerin,M,,1952,72,Australia,,Raw,Masters 4,108.9,120,65,77.5,-90,77.5,60,70,75,75,140,170,-192.5,170,322.5,SBD
1,Kevin Strachan,M,,1954,70,New Zealand,,Raw,Masters 4,65.5,66,122.5,125,127.5,127.5,67.5,72.5,75,75,-145,150,-165,150,352.5,SBD
3,Charles Ley,M,,1958,66,Canada,,Raw,Masters 3,76.2,83,137.5,142.5,147.5,147.5,77.5,-82.5,-82.5,77.5,160,167.5,175,175,400,SBD
DQ,Norman Tepa Sr,M,,1960,64,New Zealand,,Raw,Masters 3,89.05,93,-195,-195,-195,-195,115,120,125,125,202.5,212.5,217.5,217.5,,SBD
2,Steve Giles,M,,1961,63,England,,Raw,Masters 3,101,105,160,172.5,177.5,177.5,95,100,-105,100,170,185,195,195,472.5,SBD
2,Geoffrey Holmes,M,,1961,63,New Zealand,,Raw,Masters 3,139.05,120+,205,-215,215,215,105,110,115,115,205,220,230,230,560,SBD
1,Andy Want,M,,1962,62,England,,Raw,Masters 3,72.35,74,100,107.5,112.5,112.5,92.5,97.5,100,100,-135,135,150,150,362.5,SBD
4,Wade Lowther,M,,1962,62,England,,Raw,Masters 3,97.95,105,145,165,-175,165,100,110,115,115,-172.5,172.5,185,185,465,SBD
2,Tommie de Nysschen,M,,1963,61,South Africa,,Raw,Masters 3,84,93,145,155,167.5,167.5,137.5,142.5,148,148,155,165,175,175,490.5,SBD
2,Mark Magnuson,M,,1964,60,Canada,,Raw,Masters 3,115.25,120,155,167.5,175,175,117.5,122.5,127.5,127.5,202.5,212.5,-220,212.5,515,SBD
1,Robert Rodney,M,,1964,60,England,,Raw,Masters 3,86.6,93,155,165,,165,125,132.5,-135,132.5,240,270,-290,270,567.5,SBD
1,David Hrynkow,M,,1964,60,Canada,,Raw,Masters 3,65.35,66,115,120,,120,82.5,87.5,90,90,170,182.5,-187.5,182.5,392.5,SBD
7,Andrew Robertson,M,,1965,59,Singapore,,Raw,Masters 2,91.55,93,152.5,-162.5,170,170,115,-120,120,120,190,205,210,210,500,SBD
4,Denis Bensch,M,,1965,59,South Africa,,Raw,Masters 2,118,120,-220,220,245,245,135,-145,-145,135,220,240,-250,240,620,SBD
5,Alan Ridgard,M,,1966,58,South Africa,,Raw,Masters 2,92.1,93,185,197.5,202.5,202.5,105,112.5,120,120,200,220,230,230,552.5,SBD
6,Chad Anderson,M,,1966,58,New Zealand,,Raw,Masters 2,91.8,93,180,185,190,190,112.5,117.5,-122.5,117.5,207.5,217.5,-227.5,217.5,525,SBD
2,Derek Hayden,M,,1968,56,South Africa,,Raw,Masters 2,103.1,105,150,170,180,180,110,117.5,-122.5,117.5,160,182.5,202.5,202.5,500,SBD
2,Roger Rogers,M,,1969,55,Guyana,,Raw,Masters 2,116.4,120,245,-260,260,260,157.5,162.5,-175,162.5,225,240,-260,240,662.5,SBD
1,Les Laban,M,,1969,55,New Zealand,,Raw,Masters 2,104.5,105,210,222.5,-227.5,222.5,132.5,137.5,140,140,245,260,-265,260,622.5,SBD
3,Sean McCarthy #1,M,,1969,55,Wales,,Raw,Masters 2,93.95,105,170,180,190,190,100,107.5,110,110,170,185,-200,185,485,SBD
2,John Crain,M,,1969,55,South Africa,,Raw,Masters 2,127.3,120+,205,,,205,170,177.5,-180,177.5,225,252.5,260,260,642.5,SBD
7,Mark du Plessis,M,,1970,54,Singapore,,Raw,Masters 2,82.95,83,-172.5,172.5,187.5,187.5,92.5,97.5,102.5,102.5,-200,-205,205,205,495,SBD
3,Hermanus de Beer,M,,1970,54,South Africa,,Raw,Masters 2,114,120,185,200,215,215,145,150,152.5,152.5,245,265,-280,265,632.5,SBD
1,Tetsuo Koike,M,,1970,54,Singapore,,Raw,Masters 2,72.65,74,165,-175,-175,165,122.5,127.5,132.5,132.5,200,215,-225,215,512.5,SBD
2,Jeff Butt,M,,1970,54,Canada,,Raw,Masters 2,92.35,93,235,245,252.5,252.5,135,-137.5,-137.5,135,260,275,-287.5,275,662.5,SBD
1,Jonathan Pye,M,,1970,54,New Zealand,,Raw,Masters 2,142.45,120+,-252.5,-252.5,252.5,252.5,147.5,155,-160,155,240,255,262.5,262.5,670,SBD
4,Danny Horth,M,,1970,54,Canada,,Raw,Masters 2,90.7,93,215,-225,-225,215,142.5,152.5,-160,152.5,235,242.5,-245,242.5,610,SBD
1,Kevin Steiger,M,,1972,52,Canada,,Raw,Masters 2,80.8,83,185,195,202.5,202.5,112.5,117.5,120,120,235,250,-272.5,250,572.5,SBD
1,Scott Simon #1,M,,1974,50,Scotland,,Raw,Masters 2,114.5,120,280,297.5,307.5,307.5,207.5,-212.5,212.5,212.5,280,300,-307.5,300,820,SBD
3,Yaniv Lacob,M,,1974,50,South Africa,,Raw,Masters 2,72.95,74,-115,115,-145,115,100,107,-122.5,107,125,150,170,170,392,SBD
3,Shaifulizzam Rouse,M,,1975,49,Singapore,,Raw,Masters 1,127.3,120+,192.5,202.5,-210,202.5,135,-140,-140,135,210,245,257.5,257.5,595,SBD
3,Marlon Daniels,M,,1975,49,South Africa,,Raw,Masters 1,81.6,83,240,250,-255,250,145,-152.5,-152.5,145,240,-250,-250,240,635,SBD
1,Tom Snow,M,,1978,46,New Zealand,,Raw,Masters 1,81.85,83,207.5,217.5,225,225,162.5,170,175,175,237.5,252.5,260,260,660,SBD
2,Ron Kane,M,,1978,46,Scotland,,Raw,Masters 1,140.65,120+,230,240,245,245,-165,165,175,175,250,270,287.5,287.5,707.5,SBD
5,Patrick Rodrigue,M,,1978,46,Canada,,Raw,Masters 1,81.5,83,200,-210,215,215,117.5,122.5,-127.5,122.5,227.5,235,245,245,582.5,SBD
3,Joseph Chamberlain,M,,1979,45,Canada,,Raw,Masters 1,104.55,105,227.5,235,240,240,147.5,-155,-155,147.5,220,-222.5,-222.5,220,607.5,SBD
6,Edward Boraas,M,,1979,45,Canada,,Raw,Masters 1,80.45,83,155,165,170,170,110,115,117.5,117.5,195,205,220,220,507.5,SBD
4,Braam Van Huyssteen,M,,1980,44,South Africa,,Raw,Masters 1,110.3,120,200,215,-230,215,110,115,-117.5,115,220,230,-235,230,560,SBD
5,Husnain Raza,M,,1980,44,Pakistan,,Raw,Masters 1,89.75,93,-220,220,-240,220,120,-135,-135,120,220,235,-255,235,575,SBD
1,Rajesh Babu,M,,1980,44,New Zealand,,Raw,Masters 1,58.8,59,125,130,137.5,137.5,112.5,118,121,121,200.5,210.5,220.5,220.5,479,SBD
2,Mark Fulton,M,,1981,43,Scotland,,Raw,Masters 1,82.6,83,220,230,-235,230,140,145,-147.5,145,265,280,-287.5,280,655,SBD
2,Newton Mudau,M,,1981,43,South Africa,,Raw,Masters 1,119.45,120,255,265,272.5,272.5,175,-185,-185,175,227.5,237.5,242.5,242.5,690,SBD
1,Reon Juskowiak,M,,1981,43,Scotland,,Raw,Masters 1,91.85,93,245,255,260,260,130,135,137.5,137.5,260,270,-280,270,667.5,SBD
4,Jon-paul Pritchard,M,,1981,43,Singapore,,Raw,Masters 1,103.55,105,170,182.5,192.5,192.5,92.5,97.5,102.5,102.5,-212.5,212.5,227.5,227.5,522.5,SBD
1,Christopher Smith #2,M,,1982,42,Australia,,Raw,Masters 1,73.2,74,170,180,-187.5,180,115,122.5,-127.5,122.5,180,195,210,210,512.5,SBD
6,Adam John Horsewood,M,,1982,42,Singapore,,Raw,Masters 1,91.55,93,160,172.5,-180,172.5,90,100,105,105,205,220,230,230,507.5,SBD
1,Andrew Stewart #1,M,,1983,41,Canada,,Raw,Masters 1,117.95,120,262.5,275,282.5,282.5,170,-182.5,182.5,182.5,267.5,-287.5,-300,267.5,732.5,SBD
4,Bandula Mahesh,M,,1983,41,Sri Lanka,,Raw,Masters 1,81.65,83,235,242.5,247.5,247.5,115,125,132.5,132.5,235,245,-257.5,245,625,SBD
DQ,Susitha Sudam Suraweera Mv,M,,1983,41,Sri Lanka,,Raw,Masters 1,82.55,83,-240,-245,-245,-240,125,132.5,-137.5,132.5,225,-245,-252.5,225,,SBD
2,Dino Camire,M,,1983,41,Canada,,Raw,Masters 1,91.05,93,-207.5,207.5,215,215,150,155,160,160,250,260,270,270,645,SBD
DQ,Edlyn Serge,M,,1984,40,South Africa,,Raw,Masters 1,103.8,105,215,220,-230,220,-150,-150,-150,-150,-255,262.5,272.5,272.5,,SBD
3,Deon Smedley,M,,1984,40,South Africa,,Raw,Masters 1,92.1,93,230,237.5,-245,237.5,132.5,137.5,140,140,240,255,-267.5,255,632.5,SBD
8,Sibusiso Sishi,M,,1985,39,South Africa,,Raw,Open,101.05,105,250,260,-270,260,160,170,172.5,172.5,260,-280,-295,260,692.5,SBD
7,Bjorn Williams,M,,1985,39,Guyana,,Raw,Open,103.75,105,220,240,245,245,147.5,157.5,162.5,162.5,275,-300,307.5,307.5,715,SBD
2,Michael Bruce,M,,1986,38,N.Ireland,,Raw,Open,115.5,120,320,340,-351.5,340,165,172.5,-177.5,172.5,310,325,337.5,337.5,850,SBD
2,Krystan Hosein,M,,1987,37,Trinidad and Tobago,,Raw,Open,72.3,74,215,230,240,240,130,140,142.5,142.5,255,270,285,285,667.5,SBD
11,Jonathan Ferguson #1,M,,1988,36,N.Ireland,,Raw,Open,92.2,93,225,235,240,240,130,137.5,-140,137.5,235,-245,245,245,622.5,SBD
1,Rajapaksha Channa,M,,1990,34,Sri Lanka,,Raw,Open,64.75,66,185,-192.5,-192.5,185,100,105,107.5,107.5,220,227.5,-232.5,227.5,520,SBD
10,Bandile Khuzwayo,M,,1990,34,South Africa,,Raw,Open,91.2,93,-240,240,260,260,120,125,-127.5,125,250,270,-300,270,655,SBD
1,Kenneth Kaden Yu Wai Chin,M,,1990,34,Malaysia,,Raw,Open,58.2,59,175,190,195,195,105,112.5,115,115,210,222.5,235,235,545,SBD
3,Christopher Soo #1,M,,1991,33,Canada,,Raw,Open,119,120,260,-280,285,285,170,180,-185,180,310,325,347.5,347.5,812.5,SBD
4,Joseph Walton #1,M,,1991,33,Wales,,Raw,Open,119.3,120,290,307.5,317.5,317.5,160,170,175,175,290,310,320,320,812.5,SBD
2,Geordie Goliath,M,,1993,31,South Africa,,Raw,Open,58.25,59,177.5,192.5,200,200,-102.5,102.5,107.5,107.5,200,-215,-215,200,507.5,SBD
9,Andy Williams #1,M,,1994,30,Wales,,Raw,Open,116.3,120,260,-280,-280,260,140,150,155,155,270,285,-292.5,285,700,SBD
2,Pushanthan Satkunarajha,M,,1995,29,Sri Lanka,,Raw,Open,148.15,120+,-325,325,-340,325,180,187.5,192.5,192.5,280,297.5,310,310,827.5,SBD
3,Daniel Heintz,M,,1996,28,Canada,,Raw,Open,82.65,83,265,282.5,287.5,287.5,150,152.5,155,155,265,277.5,-285,277.5,720,SBD
2,Uvindu Jayasinghe,M,,1996,28,Sri Lanka,,Raw,Open,104.3,105,285,295,-305,295,165,172.5,175,175,287.5,297.5,-305,297.5,767.5,SBD
8,Ieuan Francis,M,,1996,28,Wales,,Raw,Open,82.25,83,197.5,212.5,220,220,125,132.5,137.5,137.5,250,265,-280,265,622.5,SBD
6,Ridma Yasakith,M,,1996,28,New Zealand,,Raw,Open,118.5,120,287.5,297.5,307.5,307.5,155,-162.5,167.5,167.5,280,287.5,295,295,770,SBD
1,Zachary Reimer,M,,1996,28,Canada,,Raw,Open,92.25,93,285,300,-305.5,300,165,172.5,-177.5,172.5,290,302.5,-312.5,302.5,775,SBD
5,Aaron Moran #1,M,,1996,28,Scotland,,Raw,Open,82.45,83,220,230,240,240,150,155,160,160,260,270,275,275,675,SBD
7,Ryan Edwards,M,,1997,27,Wales,,Raw,Open,82.75,83,207.5,215,-217.5,215,132.5,140,-145,140,245,260,270,270,625,SBD
6,Demetri Chan,M,,1997,27,Guyana,,Raw,Open,73.9,74,187.5,195,200,200,137.5,-145,-145,137.5,240,-255,-255,240,577.5,SBD
3,Kail de los Reyes,M,,1997,27,Isle of Man,,Raw,Open,64.85,66,130,-145,145,145,90,-97.5,-97.5,90,190,200,-202.5,200,435,SBD
5,George Sandoe,M,,1997,27,England,,Raw,Open,73,74,-220,220,230,230,132.5,140,145,145,220,240,-260,240,615,SBD
6,Nkosinathi Ntuli,M,,1997,27,South Africa,,Raw,Open,93,93,240,260,-262.5,260,145,150,-155,150,280,300,-312.5,300,710,SBD
8,Callum Odenthal,M,,1997,27,Scotland,,Raw,Open,118.3,120,260,270,285,285,140,145,-152.5,145,265,282.5,-300,282.5,712.5,SBD
3,Ben Warren,M,,1998,26,Wales,,Raw,Open,158.45,120+,310,-325,332.5,332.5,165,175,182.5,182.5,-300,302.5,-315,302.5,817.5,SBD
7,Rhys Boswell,M,,1998,26,Wales,,Raw,Open,92.9,93,235,245,250,250,150,-157.5,157.5,157.5,270,285,-290,285,692.5,SBD
4,William Smith #2,M,,1998,26,Scotland,,Raw,Open,92.3,93,260,275,280,280,165,170,175,175,265,275,-285,275,730,SBD
9,Taylor Becker,M,,1998,26,Canada,,Raw,Open,92,93,247.5,-257.5,257.5,257.5,145,155,-160,155,250,262.5,-272.5,262.5,675,SBD
1,Manalo Jastin,M,,1998,26,Canada,,Raw,Open,72.6,74,220,-235,235,235,130,137.5,140,140,275,287.5,295,295,670,SBD
3,Ruben van der Linde,M,,1998,26,South Africa,,Raw,Open,72.9,74,220,230,-237.5,230,130,137.5,-142.5,137.5,250,262.5,267.5,267.5,635,SBD
2,Cyrus Khine,M,,1999,25,England,,Raw,Open,91.95,93,267.5,285,295,295,142.5,152.5,157.5,157.5,287.5,300,307.5,307.5,760,SBD
10,Grant O'Donoghue,M,,1999,25,South Africa,,Raw,Open,82.2,83,222.5,230,-235,230,125,-132.5,-132.5,125,242.5,250,-257.5,250,605,SBD
8,Lewis Davies,M,,1999,25,Wales,,Raw,Open,92.8,93,255,270,280,280,137.5,-147.5,-150,137.5,255,270,-282.5,270,687.5,SBD
3,Patrick Anderson #3,M,,1999,25,New Zealand,,Raw,Open,92.8,93,242.5,255,262.5,262.5,145,150,155,155,305,322.5,332.5,332.5,750,SBD
1,James Laidlaw,M,,2000,24,Scotland,,Raw,Open,104.2,105,265,280,-292.5,280,162.5,170,175,175,310,330,350,350,805,SBD
9,Jay Rogers,M,,2000,24,Wales,,Raw,Open,104.05,105,237.5,252.5,-262.5,252.5,142.5,150,152.5,152.5,240,252.5,-260,252.5,657.5,SBD
6,Jordan Murray #1,M,,2000,24,Scotland,,Raw,Open,82.2,83,210,225,235,235,132.5,140,145,145,242.5,262.5,275,275,655,SBD
7,Alex Marriott,M,,2000,24,Canada,,Raw,Open,118.65,120,265,280,290,290,160,170,175,175,280,295,-305,295,760,SBD
4,Mendis Jenosha,M,,2000,24,Sri Lanka,,Raw,Open,73.65,74,240,252.5,260,260,115,120,-125,120,-240,255,-265,255,635,SBD
1,Lewis Kelly,M,,2000,24,Scotland,,Raw,Open,119.1,120,285,302.5,310,310,187.5,197.5,202.5,202.5,310,327.5,340,340,852.5,SBD
4,Timothy Zelensky,M,,2000,24,Canada,,Raw,Open,82.1,83,220,232.5,242.5,242.5,165,170,-172.5,170,262.5,272.5,277.5,277.5,690,SBD
2,Rhys Limbert,M,,2001,23,Scotland,,Raw,Juniors,103.7,105,250,265,272.5,272.5,172.5,180,185,185,260,272.5,280,280,737.5,SBD
1,Alasdair Wilson,M,,2001,23,Scotland,,Raw,Juniors,119.6,120,300,322.5,-340,322.5,152.5,160,162.5,162.5,287.5,305,307.5,307.5,792.5,SBD
1,Scott Pornss,M,,2001,23,South Africa,,Raw,Juniors,72.95,74,212.5,225,-230,225,160,-165,-165,160,280,-300,-300,280,665,SBD
4,Max Heyburn,M,,2001,23,Wales,,Raw,Juniors,119.15,120,250,265,-270,265,152.5,160,-162.5,160,270,285,-300,285,710,SBD
2,Sanju Peiris T. Raveen,M,,2001,23,Sri Lanka,,Raw,Juniors,65.95,66,150,-165,165,165,95,100,105,105,210,220,-227.5,220,490,SBD
5,Tafa Banya,M,,2001,23,New Zealand,,Raw,Juniors,82.25,83,217.5,-225,-225,217.5,140,147.5,-152.5,147.5,255,267.5,277.5,277.5,642.5,SBD
5,Ankish Chawla,M,,2001,23,Canada,,Raw,Juniors,73,74,180,192.5,-207.5,192.5,140,150,-157.5,150,207.5,220,227.5,227.5,570,SBD
1,Bryce Sillitoe,M,,2001,23,South Africa,,Raw,Special Olympics,142.4,120+,95,105,115,115,92.5,105,107.5,107.5,105,120,130,130,352.5,SBD
DQ,Divyanshu Anand,M,,2001,23,India,,Raw,Juniors,138.65,120+,-230,-230,-230,-230,142.5,-152.5,155,155,200,215,225,225,,SBD
2,Danny Wei,M,,2001,23,Canada,,Raw,Juniors,82.35,83,210,225,235,235,172.5,180,185,185,260,280,-300,280,700,SBD
1,Matthew Genge,M,,2001,23,Canada,,Raw,Juniors,104.4,105,290,307.5,317.5,317.5,170,177.5,182.5,182.5,260,277.5,287.5,287.5,787.5,SBD
6,Ciar White,M,,2001,23,Scotland,,Raw,Juniors,89.15,93,237.5,250,-257.5,250,147.5,155,160,160,265,287.5,-300,287.5,697.5,SBD
3,Nicholas Snyman,M,,2001,23,South Africa,,Raw,Juniors,71.5,74,205,220,-225,220,125,135,140,140,225,250,-272.5,250,610,SBD
10,Callum Gibson,M,,2001,23,N.Ireland,,Raw,Juniors,79.7,83,185,195,200,200,115,122.5,125,125,215,227.5,-237.5,227.5,552.5,SBD
3,Yashvardhan Singh,M,,2001,23,India,,Raw,Juniors,117,120,275,280,-285,280,170,180,182.5,182.5,245,255,260,260,722.5,SBD
3,Jack Burrell,M,,2001,23,New Zealand,,Raw,Juniors,92,93,245,-260,260,260,155,162.5,167.5,167.5,280,300,-307.5,300,727.5,SBD
2,Zi Chen,M,,2002,22,Canada,,Raw,Juniors,90.8,93,255,270,282.5,282.5,170,180,-184,180,270,-285,-285,270,732.5,SBD
7,Daniel Shemilt,M,,2002,22,Wales,,Raw,Juniors,82.45,83,222.5,232.5,237.5,237.5,122.5,127.5,-132.5,127.5,230,245,-250,245,610,SBD
11,Mark McCourt,M,,2002,22,N.Ireland,,Raw,Juniors,78.55,83,140,152.5,-160,152.5,80,85,-90,85,165,175,182.5,182.5,420,SBD
5,Simon Curtain,M,,2002,22,South Africa,,Raw,Juniors,116.15,120,195,205,215,215,132.5,140,-145,140,270,290,-295,290,645,SBD
12,Simon Thomas,M,,2002,22,South Africa,,Raw,Juniors,92.2,93,200,210,215,215,130,137.5,142.5,142.5,225,240,-250,240,597.5,SBD
6,Ruaridh Glyn-Jones,M,,2002,22,Scotland,,Raw,Open,104.25,105,255,265,-275,265,160,-170,170,170,270,287.5,-300,287.5,722.5,SBD
2,Mohamad Fazil,M,,2002,22,India,,Raw,Juniors,132,120+,250,262.5,275,275,150,162.5,175,175,260,275,-285,275,725,SBD
4,Oliver James #2,M,,2002,22,Wales,,Raw,Juniors,91.3,93,245,260,270,270,157.5,165,-167.5,165,260,280,-292.5,280,715,SBD
7,Thomas Scott,M,,2002,22,Scotland,,Raw,Juniors,93,93,237.5,250,-255,250,155,160,167.5,167.5,252.5,272.5,-285,272.5,690,SBD
1,Matthew Topping,M,,2002,22,N.Ireland,,Raw,Juniors,57.75,59,120,130,137.5,137.5,77.5,85,-92.5,85,165,177.5,-187.5,177.5,400,SBD
8,Ahmed Farid,M,,2002,22,New Zealand,,Raw,Juniors,91.8,93,220,230,-235,230,150,155,157.5,157.5,262.5,275,282.5,282.5,670,SBD
6,Ilhan Omar Nur Azam,M,,2002,22,Scotland,,Raw,Juniors,103.7,105,250,267.5,277.5,277.5,130,140,145,145,275,290,-302.5,290,712.5,SBD
13,Joshua Morgan,M,,2003,21,Wales,,Raw,Juniors,92.1,93,200,210,-212.5,210,120,125,127.5,127.5,235,250,257.5,257.5,595,SBD
2,Raymond Orourke,M,,2003,21,New Zealand,,Raw,Juniors,73.95,74,212.5,222.5,230,230,137.5,145,150,150,225,242.5,252.5,252.5,632.5,SBD
2,Ethan Akerman,M,,2003,21,Canada,,Raw,Juniors,118.85,120,270,280,-287.5,280,170,180,187.5,187.5,280,292.5,305,305,772.5,SBD
8,Will Hughes,M,,2003,21,Wales,,Raw,Juniors,103.5,105,217.5,232.5,245,245,120,125,-127.5,125,240,255,267.5,267.5,637.5,SBD
6,Sebastian Rann,M,,2003,21,Wales,,Raw,Juniors,106,120,170,185,195,195,110,117.5,-125,117.5,215,230,242.5,242.5,555,SBD
4,Daniel Cotton,M,,2003,21,South Africa,,Raw,Juniors,103.7,105,232.5,245,255,255,137.5,145,150,150,282.5,300,312.5,312.5,717.5,SBD
9,Matthew Palmer,M,,2003,21,South Africa,,Raw,Juniors,82.15,83,200,212.5,-220,212.5,125,130,135,135,-240,-240,240,240,587.5,SBD
5,Claude-Alexandre Guimont,M,,2003,21,Canada,,Raw,Juniors,84.8,93,245,262.5,270,270,122.5,130,135,135,265,290,300,300,705,SBD
8,Emeric St-Pierre,M,,2003,21,Canada,,Raw,Juniors,76.65,83,210,217.5,-220,217.5,125,127.5,130,130,245,255,-260,255,602.5,SBD
7,Michael Colyn,M,,2003,21,N.Ireland,,Raw,Juniors,73,74,190,205,210,210,92.5,100,105,105,215,230,-240,230,545,SBD
7,Joshua Preuss,M,,2003,21,N.Ireland,,Raw,Juniors,94.3,105,235,242.5,-252.5,242.5,150,157.5,160,160,250,262.5,-270,262.5,665,SBD
9,Corey Boundford,M,,2004,20,Wales,,Raw,Juniors,94.25,105,207.5,220,-227.5,220,122.5,130,135,135,250,270,-280,270,625,SBD
3,Ieuan Hood,M,,2004,20,Wales,,Raw,Juniors,126.45,120+,220,230,240,240,145,-152.5,152.5,152.5,240,255,270,270,662.5,SBD
11,Daniel Flannigan,M,,2005,19,N.Ireland,,Raw,Juniors,89.75,93,195,207.5,212.5,212.5,135,147.5,-152.5,147.5,215,230,240,240,600,SBD
10,Aidan Connealy,M,,2005,19,N.Ireland,,Raw,Juniors,92.1,93,202.5,215,220,220,130,137.5,140,140,235,250,-260,250,610,SBD
1,Lucas Williams,M,,2005,19,Wales,,Raw,Juniors,82.3,83,242.5,252.5,-257.5,252.5,-162.5,-162.5,162.5,162.5,285,302.5,313.5,313.5,728.5,SBD
8,Luke Henry,M,,2005,19,N.Ireland,,Raw,Juniors,72.1,74,-182.5,190,-202.5,190,97.5,105,110,110,202.5,-217.5,220,220,520,SBD
4,Edward Bradley,M,,2006,18,England,,Raw,Sub-Juniors,73.9,74,180,192.5,197.5,197.5,110,117.5,122.5,122.5,-185,185,202.5,202.5,522.5,SBD
7,Owen Minihan,M,,2006,18,Canada,,Raw,Sub-Juniors,81.1,83,-180,180,192.5,192.5,120,127.5,132.5,132.5,200,210,217.5,217.5,542.5,SBD
DQ,Rohit Patro,M,,2006,18,India,,Raw,Sub-Juniors,137.1,120+,-245,-245,-245,-245,140,-147.5,-147.5,140,-235,245,250,250,,SBD
3,Stephen Gittos,M,,2006,18,New Zealand,,Raw,Sub-Juniors,81.2,83,180,200,207.5,207.5,132.5,140,-145,140,210,227.5,237.5,237.5,585,SBD
7,Ethan Anderson,M,,2006,18,N.Ireland,,Raw,Sub-Juniors,72.3,74,160,172.5,180,180,90,95,100,100,195,207.5,-217.5,207.5,487.5,SBD
8,Oliver Daccus,M,,2006,18,England,,Raw,Sub-Juniors,80.3,83,180,-190,-190,180,107.5,112.5,-117.5,112.5,242.5,-260,-260,242.5,535,SBD
2,Logan Nash,M,,2006,18,Wales,,Raw,Sub-Juniors,72.1,74,190,200,205,205,105,112.5,117.5,117.5,190,205,215,215,537.5,SBD
4,Reece Evans,M,,2006,18,N.Ireland,,Raw,Sub-Juniors,79.2,83,180,192.5,200,200,117.5,125,-130,125,220,237.5,250,250,575,SBD
5,Matthew Flannigan,M,,2006,18,N.Ireland,,Raw,Sub-Juniors,73.05,74,180,187.5,-192.5,187.5,120,125,127.5,127.5,187.5,202.5,-205,202.5,517.5,SBD
3,Prithviraj Shinde,M,,2006,18,India,,Raw,Sub-Juniors,116.4,120,230,245,255,255,125,140,145,145,230,245,260,260,660,SBD
2,Walter Chancellor,M,,2006,18,Australia,,Raw,Sub-Juniors,118.95,120,227.5,245,-255,245,137.5,-150,-150,137.5,237.5,250,280,280,662.5,SBD
3,John Evens,M,,2006,18,South Africa,,Raw,Sub-Juniors,73.9,74,180,187.5,192.5,192.5,-117.5,117.5,-127.5,117.5,210,217.5,225,225,535,SBD
DQ,Pawan Prajapati,M,,2006,18,India,,Raw,Sub-Juniors,93,93,-205,-210,-210,-205,110,-125,-125,110,,,,,,SBD
2,Owen Visser,M,,2007,17,England,,Raw,Sub-Juniors,91.25,93,190,205,215,215,135,142.5,-147.5,142.5,240,257.5,-267.5,257.5,615,SBD
2,Jaden Madhav,M,,2007,17,South Africa,,Raw,Sub-Juniors,63.5,66,160,172.5,177.5,177.5,70,85,90,90,180,195,-210,195,462.5,SBD
6,Ryan Sutton #3,M,,2007,17,South Africa,,Raw,Sub-Juniors,80.35,83,215,-225,-225,215,115,125,-130,125,210,220,-225,220,560,SBD
2,Zack Graham,M,,2007,17,N.Ireland,,Raw,Sub-Juniors,151.4,120+,220,240,250,250,112.5,125,-127.5,125,215,230,-237.5,230,605,SBD
5,Thomas Patton,M,,2007,17,N.Ireland,,Raw,Sub-Juniors,82.05,83,200,210,215,215,110,117.5,-122.5,117.5,230,-242.5,-245,230,562.5,SBD
5,Szethyn Fulop,M,,2007,17,South Africa,,Raw,Sub-Juniors,88.8,93,190,205,-207.5,205,120,-130,130,130,200,220,-240,220,555,SBD
6,Thomas Jago,M,,2007,17,Wales,,Raw,Sub-Juniors,72.3,74,172.5,182.5,190,190,-100,100,107.5,107.5,-210,210,217.5,217.5,515,SBD
4,Josh Parker #1,M,,2007,17,Scotland,,Raw,Sub-Juniors,88.45,93,190,200,-210,200,120,130,137.5,137.5,202.5,215,225,225,562.5,SBD
1,Christopher Williams,M,,2007,17,South Africa,,Raw,Sub-Juniors,80.55,83,200,210,-212.5,210,120,125,130,130,250,260,267.5,267.5,607.5,SBD
1,Fletcher Soligo,M,,2007,17,New Zealand,,Raw,Sub-Juniors,64.75,66,165,-180,180,180,97.5,105,107.5,107.5,155,172.5,190,190,477.5,SBD
3,Harvey Chester,M,,2008,16,England,,Raw,Sub-Juniors,62.95,66,115,125,130,130,75,80,85,85,-170,172.5,185,185,400,SBD
4,Joshua Graham,M,,2008,16,N.Ireland,,Raw,Sub-Juniors,64.15,66,130,-132.5,,130,75,85,87.5,87.5,65,,,65,282.5,SBD
2,Jacob Rushton,M,,2009,15,Canada,,Raw,Sub-Juniors,97.15,105,202.5,210,215,215,122.5,127.5,-130,127.5,200,215,-220,215,557.5,SBD
1,Adam Gault,M,,2009,15,N.Ireland,,Raw,Sub-Juniors,90.45,93,200,215,-222.5,215,130,135,142.5,142.5,240,255,265,265,622.5,SBD
1,Lorenzo Poletto,M,,1952,72,Australia,,Raw,Masters 4,103.45,105,115,122.5,132.5,132.5,95,100,105,105,150,-162.5,167.5,167.5,405,SBD
1,Rick Lewis #1,M,,1960,64,Australia,,Raw,Masters 3,134.5,120+,255,270,-275,270,140,147.5,150,150,265,280,292.5,292.5,712.5,SBD
1,Abbas Pordel,M,,1961,63,Australia,,Raw,Masters 3,117.05,120,165,172.5,180,180,165,176,-180,176,185,205,-222.5,205,561,SBD
1,Stephen Varady,M,,1962,62,Australia,,Raw,Masters 3,82.5,83,-170,170,177.5,177.5,145,151,-152,151,205,-220,-220,205,533.5,SBD
3,John Fitzgerald,M,,1963,61,Australia,,Raw,Masters 3,102,105,145,-155,155,155,117.5,122.5,125,125,172.5,185,192.5,192.5,472.5,SBD
1,Eric Dumas,M,,1964,60,Australia,,Raw,Masters 3,96,105,232.5,245,252.5,252.5,125,130,132.5,132.5,232.5,242.5,255,255,640,SBD
2,Ajoy Sarker,M,,1967,57,England,,Raw,Masters 2,71.35,74,147.5,155,160,160,110,115,-120,115,162.5,172.5,180,180,455,SBD
1,Andy Liddle,M,,1970,54,England,,Raw,Masters 2,58.9,59,110,120,122.5,122.5,77.5,82.5,-85,82.5,145,157.5,-165,157.5,362.5,SBD
3,Sean Minto,M,,1971,53,Australia,,Raw,Masters 2,91.7,93,210,220,-230,220,-137.5,142.5,-147.5,142.5,245,265,280,280,642.5,SBD
2,Alexander Le,M,,1971,53,Australia,,Raw,Masters 2,82.5,83,175,187.5,-192.5,187.5,110,117.5,122.5,122.5,210,227.5,245,245,555,SBD
4,Jim Rossborough,M,,1972,52,N.Ireland,,Raw,Masters 2,81.75,83,190,-205,-205,190,135,140,-142.5,140,202.5,220,-230,220,550,SBD
3,Adrian Murphy,M,,1972,52,England,,Raw,Masters 2,80.55,83,190,200,-210,200,112.5,120,122.5,122.5,220,230,-235,230,552.5,SBD
6,Dave Brockway,M,,1972,52,England,,Raw,Masters 2,82.3,83,177.5,-185,-185,177.5,105,110,-115,110,195,210,215,215,502.5,SBD
1,Claudio Pereira,M,,1974,50,Australia,,Raw,Masters 2,91.15,93,242.5,257.5,265,265,125,130,135,135,245,265,272.5,272.5,672.5,SBD
5,Andrew de Lepervanche,M,,1974,50,Australia,,Raw,Masters 2,81.7,83,160,175,182.5,182.5,115,120,122.5,122.5,210,220,-230,220,525,SBD
3,David Henry,M,,1977,47,N.Ireland,,Raw,Masters 1,116.45,120,215,225,-227.5,225,135,137.5,142.5,142.5,245,260,-270,260,627.5,SBD
1,Ross Carlyle,M,,1978,46,England,,Raw,Masters 1,104.1,105,215,230,235,235,160,167.5,172.5,172.5,245,262.5,275,275,682.5,SBD
4,Richard Piper,M,,1979,45,England,,Raw,Masters 1,73.15,74,162.5,170,-175,170,97.5,-100,100,100,175,187.5,-200,187.5,457.5,SBD
3,Nash Hunter,M,,1979,45,England,,Raw,Masters 1,73.2,74,125,152.5,160,160,87.5,100,105,105,195,205,217.5,217.5,482.5,SBD
2,Jason Raby,M,,1982,42,Australia,,Raw,Masters 1,100.95,105,197.5,210,220,220,167.5,175,180,180,235,247.5,250,250,650,SBD
1,Michael Nash,M,,1983,41,England,,Raw,Masters 1,64.05,66,125,132.5,140,140,87.5,-95,-95,87.5,175,185,-200,185,412.5,SBD
2,Timothy Halim,M,,1984,40,Australia,,Raw,Masters 1,72.15,74,167.5,175,180,180,92.5,97.5,-100,97.5,200,215,-235,215,492.5,SBD
4,Patrick Furphy,M,1984-08-14,,,England,,Raw,Masters 1,92.4,93,202.5,-212.5,215,215,125,130,135,135,217.5,232.5,237.5,237.5,587.5,SBD
1,Jack Carroll,M,,1991,33,Australia,,Raw,Special Olympics,69.7,74,97.5,107.5,115,115,77.5,-85,-85,77.5,125,140,150,150,342.5,SBD
9,Adam Johnson,M,,1993,31,N.Ireland,,Raw,Open,81.75,83,225,-235,235,235,125,130,135,135,225,237.5,-242.5,237.5,607.5,SBD
5,Louis Keightley-Smith,M,,1994,30,England,,Raw,Open,119.25,120,275,295,-302.5,295,187.5,-195,-195,187.5,285,300,-302.5,300,782.5,SBD
10,Cye Maddocks,M,,1995,29,Isle of Man,,Raw,Open,101.05,105,200,215,225,225,120,127.5,130,130,210,225,230,230,585,SBD
2,Corey Jamison,M,,1995,29,N.Ireland,,Raw,Open,65.15,66,170,180,187.5,187.5,100,102.5,-107.5,102.5,175,185,195,195,485,SBD
1,Muhammad Nooh Dastgir Butt,M,,1998,26,Pakistan,,Raw,Open,182.05,120+,370,-380,-400,370,205,210,-215,210,280,-302.5,-317.5,280,860,SBD
12,Daniel Gibson,M,,1998,26,N.Ireland,,Raw,Open,92.2,93,220,230,-232.5,230,120,-127.5,-127.5,120,230,-240,-240,230,580,SBD
5,Joe Feeney,M,,1998,26,England,,Raw,Open,102.55,105,260,272.5,280,280,160,167.5,175,175,257.5,-267.5,267.5,267.5,722.5,SBD
2,Lucas Stolle,M,,1999,25,England,,Raw,Open,81.1,83,230,-245,250,250,180,187.5,195,195,-275,280,-295,280,725,SBD
5,Thomas Knapp #1,M,,1999,25,England,,Raw,Open,92.6,93,247.5,260,265,265,180,-190,-190,180,265,277.5,-295,277.5,722.5,SBD
3,Jack Gilchrist,M,,1999,25,N.Ireland,,Raw,Open,101.8,105,255,275,285,285,155,160,162.5,162.5,-275,295,302.5,302.5,750,SBD
4,Ben Savage,M,,1999,25,N.Ireland,,Raw,Open,102.5,105,262.5,272.5,-285,272.5,182.5,190,195,195,245,265,-277.5,265,732.5,SBD
1,Antoine Darmon,M,,2000,24,England,,Raw,Open,82.9,83,245,260,272.5,272.5,150,160,167.5,167.5,270,287.5,302.5,302.5,742.5,SBD
11,Nathan Ball,M,,2000,24,N.Ireland,,Raw,Open,81.1,83,185,195,200,200,135,140,142.5,142.5,235,250,-257.5,250,592.5,SBD
4,Anthony Moszuti,M,,2001,23,England,,Raw,Juniors,73.5,74,205,217.5,-225,217.5,115,122.5,127.5,127.5,220,235,247.5,247.5,592.5,SBD
3,Ben Rhodes,M,,2001,23,England,,Raw,Juniors,103,105,-245,-245,245,245,167.5,175,-180,175,277.5,292.5,305,305,725,SBD
6,Adam Hussain,M,,2001,23,Australia,,Raw,Juniors,82.25,83,-210,210,225,225,120,-135,135,135,260,280,-300,280,640,SBD
4,James Spencer #1,M,,2001,23,England,,Raw,Juniors,82.3,83,200,215,220,220,135,145,150,150,250,270,277.5,277.5,647.5,SBD
6,Tanner Constantine,M,,2001,23,Canada,,Raw,Juniors,73.75,74,-205,210,-217.5,210,122.5,127.5,-130,127.5,200,212.5,-220,212.5,550,SBD
1,Archie Cleverley,M,,2001,23,England,,Raw,Juniors,188.95,120+,262.5,285,300,300,165,175,-177.5,175,250,270,-280,270,745,SBD
3,Jacob Henry,M,,2002,22,Australia,,Raw,Juniors,82.6,83,207.5,220,225,225,137.5,-145,145,145,250,270,290,290,660,SBD
9,Nathan Isaak,M,,2002,22,England,,Raw,Juniors,91.7,93,230,242.5,-252.5,242.5,132.5,142.5,147.5,147.5,230,247.5,-260,247.5,637.5,SBD
5,Dawud Uddin,M,,2002,22,England,,Raw,Juniors,104.2,105,245,257.5,265,265,137.5,145,152.5,152.5,265,277.5,297.5,297.5,715,SBD
1,Vishal Thirunavakarasu,M,,2002,22,India,,Raw,Special Olympics,58.9,59,100,110,125,125,75,80,-87.5,80,130,150,160,160,365,SBD
1,Chintamani Balasaheb Raut,M,,2002,22,India,,Raw,Special Olympics,91.2,93,140,150,-165,150,-70,70,-80,70,140,160,180,180,400,SBD
1,Aaron Chacko,M,,2003,21,England,,Raw,Juniors,65.7,66,152.5,160,167.5,167.5,107.5,115,120,120,210,220,225,225,512.5,SBD
1,Theo Goff,M,,2003,21,England,,Raw,Juniors,92.25,93,235,250,255,255,167.5,175,185.5,185.5,265,285,292.5,292.5,733,SBD
14,Lewis Runge,M,,2003,21,Isle of Man,,Raw,Juniors,91.1,93,217.5,227.5,235,235,115,122.5,-125,122.5,212.5,225,235,235,592.5,SBD
1,Will Anders,M,,2006,18,England,,Raw,Sub-Juniors,132.8,120+,202.5,220,232.5,232.5,137.5,145,150,150,212.5,227.5,240,240,622.5,SBD
9,Samuel Harris,M,,2006,18,Isle of Man,,Raw,Sub-Juniors,76.45,83,145,-155,155,155,110,117.5,-125,117.5,185,200,210,210,482.5,SBD
1,Thomas Barney,M,,2006,18,Australia,,Raw,Sub-Juniors,103.9,105,195,-207.5,207.5,207.5,112.5,120,127.5,127.5,240,265,-282.5,265,600,SBD
1,Jack Frisby,M,,2006,18,England,,Raw,Sub-Juniors,117.4,120,235,242.5,252.5,252.5,150,157.5,160,160,250,265,282.5,282.5,695,SBD
3,Cooper Ison,M,,2006,18,Australia,,Raw,Sub-Juniors,92.6,93,-195,195,210,210,120,130,-137.5,130,225,250,272.5,272.5,612.5,SBD
1,Prithui Samvat Sengupta,M,,2006,18,India,,Raw,Special Olympics,61.55,66,85,95,100,100,50,60,62.5,62.5,90,100,102.5,102.5,265,SBD
2,Obi Uchegbu,M,,2006,18,England,,Raw,Sub-Juniors,81.7,83,217.5,227.5,237.5,237.5,112.5,117.5,122.5,122.5,215,227.5,232.5,232.5,592.5,SBD
1,Morgan Caulkin,M,,2007,17,England,,Raw,Sub-Juniors,71.6,74,182.5,195,202.5,202.5,120,127.5,-132.5,127.5,192.5,205,210,210,540,SBD
1,Dakota Bessent,M,,2008,16,England,,Raw,Sub-Juniors,57.95,59,125,140,-150,140,92.5,100,105,105,160,172.5,182.5,182.5,427.5,SBD
5,Harry Morgan,M,,2009,15,Isle of Man,,Raw,Sub-Juniors,63.2,66,80,87.5,95,95,37.5,42.5,-45,42.5,100,110,-115,110,247.5,SBD
