﻿Place,Sex,Name,BodyweightKg,Squat1Kg,Squat2Kg,Squat3Kg,Best3SquatKg,Squat4Kg,Bench1Kg,Bench2Kg,Bench3Kg,Best3BenchKg,Bench4Kg,Deadlift1Kg,Deadlift2Kg,Deadlift3Kg,Best3DeadliftKg,Deadlift4Kg,TotalKg,WeightClassKg,Event,Equipment,Tested,Division,Age,BirthDate
1,M,Tamazi Kutchava,86.7,,,,,,,,,,,,,,,,205,90,B,Unlimited,,Open,,1988-03-03
1,M,Dawid Deptuch,91.5,,,,,,,,,,,,,,,,300,100,B,Unlimited,,Open,,1986-11-28
2,M,Károly,95.6,,,,,,,,,,,,,,,,270,100,B,Unlimited,,Open,,1987-03-16
1,M,Batmagnai Gansukh,114.5,,,,,,,,,,,,,,,,405,125,B,Unlimited,,Open,,1988-06-19
1,M,Ferenc Busznyák,107.4,,,,,,,,,,,,,,,,215,110,B,Unlimited,,J17-19,,2005-05-30
1,M,Daniel Vaz,99.2,,,,,,,,,,,,,,,,285,100,B,Unlimited,,M40-49,,1981-06-29
DQ,M,Daniel Kowalczyk,98.2,,,,,,,,,,,,,,,,,100,B,Unlimited,,M40-49,,1977-12-24
1,M,Sven Lorenz,106.8,,,,,,,,,,,,,,,,245,110,B,Unlimited,,M40-49,,1979-05-07
1,M,Paul Morgan,108.7,,,,,,,,,,,,,,,,280,110,B,Unlimited,,M50-59,,1973-05-21
DQ,M,Daniel Kowalczyk,98.2,,,,,,,,,,,,,,,,,100,B,Unlimited,,Open,,1977-12-24
1,M,Dmitry Zhelyabovskiy,81.5,,,,,,,,,,,,,,,,220,82.5,B,Unlimited,,M40-49,,1978-10-02
1,M,Andrii Honcharov,108,,,,,,,,,,,,,,,,280,110,B,Unlimited,,M40-49,,1981-01-31
1,M,Alexander Gagolin,80.7,,,,,,,,,,,,,,,,265,82.5,B,Unlimited,,Open,,1987-07-01
2,M,Agshin İsmayilov,81.7,,,,,,,,,,,,,,,,260,82.5,B,Unlimited,,Open,,1978-03-30
1,M,Balázs Hadházi,88.7,,,,,,,,,,,,,,,,222.5,90,B,Unlimited,,Open,,1989-10-18
1,M,Károly,95.6,,,,,,,,,,,,,,,,222.5,100,B,Unlimited,,Open,,1987-03-16
2,M,Arturo Martin,99.1,,,,,,,,,,,,,,,,200,100,B,Unlimited,,Open,,1990-09-03
3,M,Łukasz Kantor,98.3,,,,,,,,,,,,,,,,167.5,100,B,Unlimited,,Open,,1985-02-21
1,M,Batkuu Tuvshunzaya,105,,,,,,,,,,,,,,,,250,110,B,Unlimited,,M40-49,,1984-03-13
1,M,Ciprian Florin,73.4,,,,,,,,,,,,,,,,185,75,B,Unlimited,,Open,,1984-11-18
2,M,Krzysztof Wolszczak,73.65,,,,,,,,,,,,,,,,170,75,B,Unlimited,,Open,,1985-06-02
1,M,Marco Francia,81,,,,,,,,,,,,,,,,190,82.5,B,Unlimited,,Open,,1989-07-06
2,M,Humberto Borja,82.5,,,,,,,,,,,,,,,,137.5,82.5,B,Unlimited,,Open,,1997-11-23
1,M,Jose Angel,129.1,,,,,,,,,,,,,,,,155,140,B,Unlimited,,Open,,1995-03-29
1,F,Joana Teixeira,61.8,,,,,,,,,,,,,,,,392.5,67.5,SBD,Unlimited,,Open,,1988-03-29
DQ,M,Marcus Griffiths,119.88,,,,,,,,,,,,,,,,,125,SBD,Unlimited,,M50-59,,1973-07-19
1,M,Josef Capouch,120.54,,,,,,,,,,,,,,,,1000,125,SBD,Unlimited,,Open,,1996-11-16
2,M,Tobias Blankenhorn,122.78,,,,,,,,,,,,,,,,750,125,SBD,Unlimited,,Open,,1989-05-30
DQ,M,Imran Khan,121.2,,,,,,,,,,,,,,,,,125,SBD,Unlimited,,M40-49,,1984-03-16
1,M,Vasile Buceac,85.32,,,,,,,,,,,,,,,,577.5,90,SBD,Unlimited,,Open,,1991-11-13
1,M,Dan Eccles,102.78,,,,,,,,,,,,,,,,685,110,SBD,Unlimited,,Open,,1992-07-01
1,M,Bakhtiyar Guliyev,101.3,,,,,,,,,,,,,,,,280,110,D,Multi-ply,,M40-49,,1975-12-17
1,M,Adam Loughnane,96,,,,,,,,,,,,,,,,280,100,D,Multi-ply,,Open,,1997-08-07
1,M,Ramil Ahmadov,103.5,,,,,,,,,,,,,,,,325,110,D,Multi-ply,,Open,,1988-05-06
1,F,Anna Zhelyabovskaya,72.76,,,,,,,,,,,,,,,,70,75,B,Raw,,M40-49,,1978-06-16
1,F,Eunice Fernandes,79.6,,,,,,,,,,,,,,,,120,82.5,B,Raw,,M40-49,,1976-08-06
1,F,Bella Dzhambulatova,66.04,,,,,,,,,,,,,,,,77.5,67.5,B,Raw,,M50-59,,1974-03-12
2,F,Geni Devonish,63.02,,,,,,,,,,,,,,,,65,67.5,B,Raw,,M50-59,,1974-08-09
1,F,Marina Nasretdinova,70.62,,,,,,,,,,,,,,,,102.5,75,B,Raw,,M50-59,,1971-06-07
1,F,Evelyn Eisensehr,82.5,,,,,,,,,,,,,,,,130,82.5,B,Raw,,M50-59,,1973-11-16
1,F,Christina Ullman,89.1,,,,,,,,,,,,,,,,82.5,90,B,Raw,,M50-59,,1971-05-01
1,F,Laura García #1,54,,,,,,,,,,,,,,,,37.5,56,B,Raw,,Open,,1993-06-21
1,F,Justė Tuskaitė,66.3,,,,,,,,,,,,,,,,75,67.5,B,Raw,,Open,,1992-02-25
2,F,Catrin Kelly,66.54,,,,,,,,,,,,,,,,72.5,67.5,B,Raw,,Open,,2000-08-27
1,F,Anna Zhelyabovskaya,72.76,,,,,,,,,,,,,,,,70,75,B,Raw,,Open,,1978-06-16
1,F,Evelyn Eisensehr,82.5,,,,,,,,,,,,,,,,130,82.5,B,Raw,,Open,,1973-11-16
1,F,Małgorzata Kopiec,86.68,,,,,,,,,,,,,,,,175,90,B,Raw,,Open,,1985-11-29
1,F,Leticia Erdociain,45.46,,,,,,,,,,,,,,,,40,48,B,Raw,,Open,,1989-07-27
1,F,Nerea González,58.74,,,,,,,,,,,,,,,,65,60,B,Raw,,J20-23,,2003-10-17
1,M,Dmitry Zhelyabovskiy,81.5,,,,,,,,,,,,,,,,167.5,82.5,B,Raw,,M40-49,,1978-10-02
2,M,Manuel Palomar,80.5,,,,,,,,,,,,,,,,147.5,82.5,B,Raw,,M40-49,,1979-08-30
3,M,Giorgio Barone Adesi,77.6,,,,,,,,,,,,,,,,145,82.5,B,Raw,,M40-49,,1982-12-04
1,M,Joao Carlos,91.8,,,,,,,,,,,,,,,,175,100,B,Raw,,M40-49,,1981-08-18
2,M,Christophe Mendes,93,,,,,,,,,,,,,,,,95,100,B,Raw,,M40-49,,1982-11-24
1,M,Krzysztof Zakrzewski,103.9,,,,,,,,,,,,,,,,210,110,B,Raw,,M40-49,,1977-12-09
2,M,Ivars Ozols,106.2,,,,,,,,,,,,,,,,200,110,B,Raw,,M40-49,,1978-04-23
3,M,Batkuu Tuvshunzaya,105,,,,,,,,,,,,,,,,190,110,B,Raw,,M40-49,,1984-03-13
4,M,Maris Kipurs,104.5,,,,,,,,,,,,,,,,170,110,B,Raw,,M40-49,,1978-09-29
1,M,Georgi Beroshvili,110.2,,,,,,,,,,,,,,,,240,125,B,Raw,,M40-49,,1984-04-27
2,M,Christian Raidel,121.85,,,,,,,,,,,,,,,,220,125,B,Raw,,M40-49,,1982-03-21
3,M,Jaak Ruusma,122.4,,,,,,,,,,,,,,,,192.5,125,B,Raw,,M40-49,,1978-05-07
1,M,Ireneusz Aletorowicz,135.8,,,,,,,,,,,,,,,,190,140,B,Raw,,M40-49,,1974-12-20
2,M,Adriano Maggioli,125.86,,,,,,,,,,,,,,,,170,140,B,Raw,,M40-49,,1980-11-13
1,M,Matthew Chapman,66.48,,,,,,,,,,,,,,,,115,67.5,B,Raw,,M50-59,,1968-04-24
1,M,István Bara,74.1,,,,,,,,,,,,,,,,122.5,75,B,Raw,,M50-59,,1968-12-05
1,M,Pāvels Grigorjevs,81.5,,,,,,,,,,,,,,,,152.5,82.5,B,Raw,,M50-59,,1974-07-28
2,M,José Luis,76,,,,,,,,,,,,,,,,137.5,82.5,B,Raw,,M50-59,,1965-04-11
1,M,Juliusz Zbierski,89.7,,,,,,,,,,,,,,,,155,90,B,Raw,,M50-59,,1974-04-02
2,M,Jose Alejandro,85.5,,,,,,,,,,,,,,,,125,90,B,Raw,,M50-59,,1974-10-01
3,M,Antonio Gordo,88,,,,,,,,,,,,,,,,100,90,B,Raw,,M50-59,,1965-08-14
1,M,František Sajko,96.9,,,,,,,,,,,,,,,,170,100,B,Raw,,M50-59,,1971-05-08
2,M,Edmunds Freimanis,91,,,,,,,,,,,,,,,,150,100,B,Raw,,M50-59,,1974-09-05
1,M,Wojciech Kaliciak,107.1,,,,,,,,,,,,,,,,150,110,B,Raw,,M50-59,,1971-12-15
1,M,Ruben Horacio,120.5,,,,,,,,,,,,,,,,190.5,125,B,Raw,,M50-59,,1965-12-02
2,M,John Cotton,110.7,,,,,,,,,,,,,,,,185,125,B,Raw,,M50-59,,1968-08-05
1,M,László Mészáros,138,,,,,,,,,,,,,,,,260,140,B,Raw,,M50-59,,1968-12-30
1,M,Zsolt Tóth,142,,,,,,,,,,,,,,,,205,140+,B,Raw,,M50-59,,1970-02-11
1,M,Bela Lendvai,82.5,,,,,,,,,,,,,,,,102.5,82.5,B,Raw,,M60-69,,1954-10-16
1,M,Douglas Delainey,87.02,,,,,,,,,,,,,,,,72.5,90,B,Raw,,M60-69,,1960-04-28
1,M,Julio Avelino,143.7,,,,,,,,,,,,,,,,190,140+,B,Raw,,M60-69,,1964-10-12
1,M,Kalin Krasimirov,66.7,,,,,,,,,,,,,,,,170,67.5,B,Raw,,Open,,1992-02-19
2,M,Benjámin Áder,66.9,,,,,,,,,,,,,,,,160,67.5,B,Raw,,Open,,1998-11-15
3,M,Alex Saretsky,67.18,,,,,,,,,,,,,,,,130,67.5,B,Raw,,Open,,1989-08-26
1,M,Roman Eremashvili,70.4,,,,,,,,,,,,,,,,238,75,B,Raw,,Open,,1981-05-27
2,M,Johann Champ,74.3,,,,,,,,,,,,,,,,172.5,75,B,Raw,,Open,,1986-11-17
3,M,Ondrej Oláh,70.6,,,,,,,,,,,,,,,,162.5,75,B,Raw,,Open,,1991-01-14
DQ,M,José María,73.2,,,,,,,,,,,,,,,,,75,B,Raw,,Open,,2000-09-20
1,M,Alexander Gagolin,80.7,,,,,,,,,,,,,,,,200,82.5,B,Raw,,Open,,1987-07-01
2,M,Daniel Maroñas,81.1,,,,,,,,,,,,,,,,192.5,82.5,B,Raw,,Open,,1988-04-24
3,M,Dmitry Zhelyabovskiy,81.5,,,,,,,,,,,,,,,,167.5,82.5,B,Raw,,Open,,1978-10-02
4,M,Dayan Lombardi,82.2,,,,,,,,,,,,,,,,150,82.5,B,Raw,,Open,,1997-12-12
5,M,Kostiantyn Chernov,78.5,,,,,,,,,,,,,,,,135,82.5,B,Raw,,Open,,1984-11-24
6,M,Fernando José,81.1,,,,,,,,,,,,,,,,115,82.5,B,Raw,,Open,,1999-03-17
1,M,Andrey Sapozhonkov,89.95,,,,,,,,,,,,,,,,260,90,B,Raw,,Open,,1987-06-26
2,M,Andrius Naglius,90,,,,,,,,,,,,,,,,182.5,90,B,Raw,,Open,,1985-08-07
3,M,Roman Behma,90,,,,,,,,,,,,,,,,160,90,B,Raw,,Open,,1999-03-01
4,M,Luca de,85.9,,,,,,,,,,,,,,,,150,90,B,Raw,,Open,,1993-04-13
5,M,David Quintero,88,,,,,,,,,,,,,,,,135,90,B,Raw,,Open,,1988-02-27
DQ,M,Konrad Helman,88.7,,,,,,,,,,,,,,,,,90,B,Raw,,Open,,1993-06-27
1,M,Paweł Przybyłowicz,100,,,,,,,,,,,,,,,,227.5,100,B,Raw,,Open,,1990-02-18
2,M,Evgenii Taran,99,,,,,,,,,,,,,,,,200,100,B,Raw,,Open,,1986-06-13
3,M,Riccardo Mainolfi,97.7,,,,,,,,,,,,,,,,185,100,B,Raw,,Open,,1999-12-22
4,M,Vadims Kondratjevs,97.7,,,,,,,,,,,,,,,,185,100,B,Raw,,Open,,1993-09-16
5,M,Valentyn Poliskyi,99.3,,,,,,,,,,,,,,,,170,100,B,Raw,,Open,,1999-05-21
6,M,Jack Waterman,94.4,,,,,,,,,,,,,,,,157.5,100,B,Raw,,Open,,1998-03-13
7,M,Adam Loughnane,96,,,,,,,,,,,,,,,,157.5,100,B,Raw,,Open,,1997-08-07
1,M,Yevhen Tokariev,108.6,,,,,,,,,,,,,,,,250,110,B,Raw,,Open,,1999-04-01
2,M,Diego Jose,109.4,,,,,,,,,,,,,,,,152.5,110,B,Raw,,Open,,1999-03-09
1,M,Ardo Lilleorg,122.6,,,,,,,,,,,,,,,,242.5,125,B,Raw,,Open,,1990-04-13
2,M,Batmagnai Gansukh,114.5,,,,,,,,,,,,,,,,220,125,B,Raw,,Open,,1988-06-19
3,M,Clément Gomez,116.3,,,,,,,,,,,,,,,,200,125,B,Raw,,Open,,2000-01-05
4,M,John Cotton,110.7,,,,,,,,,,,,,,,,185,125,B,Raw,,Open,,1968-08-05
5,M,José Costa,119.1,,,,,,,,,,,,,,,,130,125,B,Raw,,Open,,1997-01-04
1,M,László Mészáros,138,,,,,,,,,,,,,,,,260,140,B,Raw,,Open,,1968-12-30
2,M,Adam Łaskawski,136.5,,,,,,,,,,,,,,,,255,140,B,Raw,,Open,,1985-01-09
3,M,Abdulla Salmeen,132,,,,,,,,,,,,,,,,230,140,B,Raw,,Open,,1989-11-02
4,M,Giorgi Talakhadze,138.74,,,,,,,,,,,,,,,,180,140,B,Raw,,Open,,1990-09-13
1,M,Zsolt Tóth,142,,,,,,,,,,,,,,,,205,140+,B,Raw,,Open,,1970-02-11
1,M,Adam Kondej,91.5,,,,,,,,,,,,,,,,125,100,B,Raw,,J20-23,,2004-09-05
1,M,Ilkin Namazov,140,,,,,,,,,,,,,,,,180,140,B,Raw,,J20-23,,2003-10-17
1,M,Elsun Aliev,173.9,,,,,,,,,,,,,,,,207.5,140+,B,Raw,,J20-23,,2002-08-28
1,M,Miron Honcharov,65.6,,,,,,,,,,,,,,,,122.5,67.5,B,Raw,,J14-16,,2008-07-26
1,M,Ozjan Babazada,59.5,,,,,,,,,,,,,,,,105,60,B,Raw,,J17-19,,2007-06-16
DQ,F,Anna Gibiino,59.64,,,,,,,,,,,,,,,,,60,SBD,Wraps,,M40-49,,1975-04-07
1,F,Line Jin,63.36,,,,,,,,,,,,,,,,380,67.5,SBD,Wraps,,M40-49,,1977-02-18
DQ,F,Lu Willdig,66.16,,,,,,,,,,,,,,,,,67.5,SBD,Wraps,,M40-49,,1980-11-09
1,F,Maria Yultsova,68.1,,,,,,,,,,,,,,,,332.5,75,SBD,Wraps,,M40-49,,1982-09-13
1,F,Yolandi Byrne,66.72,,,,,,,,,,,,,,,,310,67.5,SBD,Wraps,,M50-59,,1972-12-16
2,F,Geni Devonish,63.02,,,,,,,,,,,,,,,,300,67.5,SBD,Wraps,,M50-59,,1974-08-09
1,F,Irene Estévez,63.86,,,,,,,,,,,,,,,,455,67.5,SBD,Wraps,,Open,,1996-02-25
2,F,Justė Tuskaitė,66.3,,,,,,,,,,,,,,,,445,67.5,SBD,Wraps,,Open,,1992-02-25
3,F,Line Jin,63.36,,,,,,,,,,,,,,,,380,67.5,SBD,Wraps,,Open,,1977-02-18
4,F,Aneira Celeste,67,,,,,,,,,,,,,,,,295,67.5,SBD,Wraps,,Open,,1997-08-22
DQ,F,Lu Willdig,66.16,,,,,,,,,,,,,,,,,67.5,SBD,Wraps,,Open,,1980-11-09
1,F,Claudia Calle,71.66,,,,,,,,,,,,,,,,420,75,SBD,Wraps,,Open,,1997-06-16
1,F,Jillian Heil,77.06,,,,,,,,,,,,,,,,300,82.5,SBD,Wraps,,Open,,1996-11-20
DQ,F,Natalia Cosio,78.68,,,,,,,,,,,,,,,,,82.5,SBD,Wraps,,Open,,1995-03-10
DQ,F,Lucy Moore,107.54,,,,,,,,,,,,,,,,,90+,SBD,Wraps,,Open,,1992-11-13
1,F,Marina Jimenez,65.68,,,,,,,,,,,,,,,,212.5,67.5,SBD,Wraps,,J17-19,,2004-11-06
1,M,Ravi Chauhan,109,,,,,,,,,,,,,,,,480,110,SBD,Wraps,,M40-49,,1983-08-10
1,M,Alessandro Ursi,111.7,,,,,,,,,,,,,,,,737.5,125,SBD,Wraps,,M40-49,,1976-07-05
1,M,Ahmad Al,141.84,,,,,,,,,,,,,,,,695,140+,SBD,Wraps,,M40-49,,1978-04-04
1,M,Matthew Chapman,66.48,,,,,,,,,,,,,,,,400,67.5,SBD,Wraps,,M50-59,,1968-04-24
1,M,Jason Roberts,82.5,,,,,,,,,,,,,,,,462.5,82.5,SBD,Wraps,,M50-59,,1969-10-10
DQ,M,Jose Ramon,90,,,,,,,,,,,,,,,,,90,SBD,Wraps,,M50-59,,1966-12-20
1,M,Douglas Delainey,87.02,,,,,,,,,,,,,,,,430,90,SBD,Wraps,,M60-69,,1960-04-28
1,M,Ruben Carnicer,57,,,,,,,,,,,,,,,,325,60,SBD,Wraps,,Open,,1999-06-10
1,M,Paco Soler,67.06,,,,,,,,,,,,,,,,515,67.5,SBD,Wraps,,Open,,1993-05-06
2,M,Alex Saretsky,67.18,,,,,,,,,,,,,,,,490,67.5,SBD,Wraps,,Open,,1989-08-26
3,M,Francisco Jesus,65.75,,,,,,,,,,,,,,,,457.5,67.5,SBD,Wraps,,Open,,1996-01-08
1,M,Antonio Ruiz,70.86,,,,,,,,,,,,,,,,612.5,75,SBD,Wraps,,Open,,1989-10-24
2,M,Imantas Petrošius,74.3,,,,,,,,,,,,,,,,572.5,75,SBD,Wraps,,Open,,1991-04-05
3,M,Valentin Toulmé,74.32,,,,,,,,,,,,,,,,537.5,75,SBD,Wraps,,Open,,1997-10-30
4,M,Daniel Mauricio,72.2,,,,,,,,,,,,,,,,515,75,SBD,Wraps,,Open,,1997-12-26
5,M,Antonio Rodriguez,74.3,,,,,,,,,,,,,,,,485,75,SBD,Wraps,,Open,,1991-03-28
DQ,M,Anthony Nadal,74.52,,,,,,,,,,,,,,,,,75,SBD,Wraps,,Open,,1991-05-10
1,M,Miguel Angel,80.4,,,,,,,,,,,,,,,,647.5,82.5,SBD,Wraps,,Open,,1992-10-04
2,M,Mark Korotun,82.2,,,,,,,,,,,,,,,,630,82.5,SBD,Wraps,,Open,,1998-10-20
3,M,João Pires,78.22,,,,,,,,,,,,,,,,595,82.5,SBD,Sleeves,,Open,,2000-08-21
4,M,Antonio Privitera,81,,,,,,,,,,,,,,,,590,82.5,SBD,Wraps,,Open,,2000-05-01
5,M,Ryan Aissaoui,79.32,,,,,,,,,,,,,,,,525,82.5,SBD,Wraps,,Open,,2000-08-19
6,M,Manuel Sanchez,80.42,,,,,,,,,,,,,,,,407.5,82.5,SBD,Wraps,,Open,,2000-06-26
1,M,Benjamin Donin,89.04,,,,,,,,,,,,,,,,822.5,90,SBD,Wraps,,Open,,1998-09-29
2,M,Andrius Naglius,90,,,,,,,,,,,,,,,,775,90,SBD,Wraps,,Open,,1985-08-07
3,M,Svetlozar Markov,89.82,,,,,,,,,,,,,,,,740,90,SBD,Wraps,,Open,,1995-05-31
4,M,Mohammad Bosakhar,88.46,,,,,,,,,,,,,,,,682.5,90,SBD,Wraps,,Open,,1997-11-07
5,M,Jose Blasco,88.4,,,,,,,,,,,,,,,,680,90,SBD,Wraps,,Open,,1996-11-07
6,M,Louis Jacquet,84.56,,,,,,,,,,,,,,,,650,90,SBD,Wraps,,Open,,1994-03-19
7,M,Giedrius Plytninkas,86.9,,,,,,,,,,,,,,,,650,90,SBD,Wraps,,Open,,1996-03-27
8,M,Kacper Cecko,88.4,,,,,,,,,,,,,,,,620,90,SBD,Wraps,,Open,,1997-11-27
9,M,Javier Vallano,86.4,,,,,,,,,,,,,,,,460,90,SBD,Wraps,,Open,,2000-05-16
10,M,Angel Cano,83.78,,,,,,,,,,,,,,,,450,90,SBD,Wraps,,Open,,1999-11-07
DQ,M,Kamran Lazimov,89.96,,,,,,,,,,,,,,,,,90,SBD,Wraps,,Open,,1990-10-12
1,M,Pablo Herrero,98.92,,,,,,,,,,,,,,,,785,100,SBD,Wraps,,Open,,1999-06-29
2,M,Carlos Cordon,97.68,,,,,,,,,,,,,,,,765,100,SBD,Wraps,,Open,,1997-06-08
3,M,Audrius Vitartas,99.2,,,,,,,,,,,,,,,,725,100,SBD,Wraps,,Open,,1992-07-15
4,M,Dario Santiago,95.4,,,,,,,,,,,,,,,,700,100,SBD,Wraps,,Open,,1993-11-27
5,M,Yassine Ibn,99.28,,,,,,,,,,,,,,,,685,100,SBD,Wraps,,Open,,1997-08-23
6,M,Ludovic Trussart,96.96,,,,,,,,,,,,,,,,650,100,SBD,Wraps,,Open,,1996-10-08
7,M,Alejandro Ortega,96.36,,,,,,,,,,,,,,,,612.5,100,SBD,Wraps,,Open,,1999-10-18
8,M,Francisco Javier,96.82,,,,,,,,,,,,,,,,610,100,SBD,Wraps,,Open,,1991-10-06
9,M,Alejandro Bautista,99.7,,,,,,,,,,,,,,,,485,100,SBD,Wraps,,Open,,1992-08-04
DQ,M,Valentyn Yakymovych,99.48,,,,,,,,,,,,,,,,,100,SBD,Wraps,,Open,,1992-07-25
1,M,Bruno Martínez,102.5,,,,,,,,,,,,,,,,812.5,110,SBD,Wraps,,Open,,1992-10-20
2,M,Ramil Ahmadov,103.5,,,,,,,,,,,,,,,,797.5,110,SBD,Wraps,,Open,,1988-05-06
3,M,Marcos Pinto,103.4,,,,,,,,,,,,,,,,790,110,SBD,Wraps,,Open,,1991-07-27
4,M,Modestas Kasperavičius,106.6,,,,,,,,,,,,,,,,755,110,SBD,Wraps,,Open,,1998-06-22
5,M,Mathis Albessard,107.54,,,,,,,,,,,,,,,,735,110,SBD,Wraps,,Open,,2000-04-08
DQ,M,Clay Rattenbury,108.76,,,,,,,,,,,,,,,,,110,SBD,Wraps,,Open,,1989-08-15
1,M,Julien Dufour,115.04,,,,,,,,,,,,,,,,817.5,125,SBD,Wraps,,Open,,1996-05-18
2,M,Raúl Pulido,123.66,,,,,,,,,,,,,,,,807.5,125,SBD,Wraps,,Open,,1997-08-01
3,M,Marvin Marechal,121.22,,,,,,,,,,,,,,,,597.5,125,SBD,Wraps,,Open,,1998-09-12
4,M,Francisco Julian,122,,,,,,,,,,,,,,,,360,125,SBD,Wraps,,Open,,1992-03-09
1,M,Aurimas Grabinskas,133,,,,,,,,,,,,,,,,770,140,SBD,Wraps,,Open,,1987-08-16
2,M,Mohammed Alajmi,127.7,,,,,,,,,,,,,,,,632.5,140,SBD,Wraps,,Open,,1995-05-20
1,M,Mohammed Alyahyouh,141.8,,,,,,,,,,,,,,,,650,140+,SBD,Wraps,,Open,,1991-07-14
1,M,Andréa Bonetto,67.4,,,,,,,,,,,,,,,,655,67.5,SBD,Wraps,,J20-23,,2000-10-13
DQ,M,Arthur Hauet,66.5,,,,,,,,,,,,,,,,,67.5,SBD,Wraps,,J20-23,,2001-05-09
1,M,Justin Joseph,81.36,,,,,,,,,,,,,,,,567.5,82.5,SBD,Wraps,,J20-23,,2000-10-15
2,M,Hugo Madrigal,80.5,,,,,,,,,,,,,,,,560,82.5,SBD,Wraps,,J20-23,,2002-04-20
1,M,Abdulaziz Alsuwaidan,99.99,,,,,,,,,,,,,,,,682.5,100,SBD,Wraps,,J20-23,,2001-12-30
DQ,M,Joao Marques,98.3,,,,,,,,,,,,,,,,,100,SBD,Wraps,,J20-23,,2002-09-23
1,M,Niko Marchenko,107.02,,,,,,,,,,,,,,,,745,110,SBD,Wraps,,J20-23,,2001-01-12
1,M,Matéo Constant,115.7,-290,320,325,325,,190,200,210,210,,290,335,-350,335,,870,125,SBD,Raw,,J20-23,,2001-08-16
DQ,M,Adrians Upenieks,115.2,,,,,,,,,,,,,,,,,125,SBD,Wraps,,J20-23,,2003-03-31
1,M,Ilkin Namazov,140,,,,,,,,,,,,,,,,660,140,SBD,Wraps,,J20-23,,2003-10-17
1,M,Jorens Beiers,65,,,,,,,,,,,,,,,,297.5,67.5,SBD,Wraps,,J14-16,,2009-10-19
1,M,Kevin Adrian,74.3,,,,,,,,,,,,,,,,437.5,75,SBD,Wraps,,J14-16,,2008-08-14
1,M,Shaurya Dutta,54.18,,,,,,,,,,,,,,,,355,56,SBD,Wraps,,J17-19,,2007-04-08
1,M,Pablo Garcia,60.94,,,,,,,,,,,,,,,,477.5,67.5,SBD,Wraps,,J17-19,,2004-12-04
2,M,Jeet Gope,63.98,,,,,,,,,,,,,,,,330,67.5,SBD,Wraps,,J17-19,,2007-04-15
1,M,Taras Karpenko,82.1,,,,,,,,,,,,,,,,502.5,82.5,SBD,Wraps,,J17-19,,2004-12-06
2,M,David Cret,81.7,,,,,,,,,,,,,,,,500,82.5,SBD,Wraps,,J17-19,,2006-01-25
DQ,M,Alvaro Jose,79.26,,,,,,,,,,,,,,,,,82.5,SBD,Wraps,,J17-19,,2007-04-10
1,M,Harsh Vyas,88.14,,,,,,,,,,,,,,,,355,90,SBD,Wraps,,J17-19,,2005-05-15
DQ,M,Charlie Simon,122.08,,,,,,,,,,,,,,,,,125,SBD,Wraps,,J17-19,,2006-05-23
1,F,Kristīne Morskova,55.34,,,,,,,,,,,,,,,,307.5,56,SBD,Wraps,,M40-49,,1980-09-02
1,F,Aija Mikulicha,63.38,,,,,,,,,,,,,,,,327.5,67.5,SBD,Wraps,,M40-49,,1978-03-27
1,F,Tamara Bitskeviych,43.3,,,,,,,,,,,,,,,,280,44,SBD,Wraps,,M40-49,,1982-03-15
DQ,F,Bella Dzhambulatova,66.04,,,,,,,,,,,,,,,,,67.5,SBD,Wraps,,M50-59,,1974-03-12
DQ,F,Lady Petra,80.28,,,,,,,,,,,,,,,,,82.5,SBD,Wraps,,M50-59,,1970-07-10
1,F,Christina Ullman,89.1,,,,,,,,,,,,,,,,407.5,90,SBD,Wraps,,M50-59,,1971-05-01
1,F,Katarína Zajková,80.08,,,,,,,,,,,,,,,,410,82.5,SBD,Wraps,,M60-69,,1961-07-18
1,F,Mónica Burgos,59.8,,,,,,,,,,,,,,,,512.5,60,SBD,Wraps,,Open,,1988-05-26
1,F,Petre Emeline,73.12,,,,,,,,,,,,,,,,330,75,SBD,Wraps,,Open,,1999-06-19
1,F,Darja Larina,80.74,,,,,,,,,,,,,,,,390,82.5,SBD,Wraps,,Open,,1987-12-08
1,F,Karina Bagažkova,83.5,,,,,,,,,,,,,,,,390,90,SBD,Wraps,,Open,,1986-06-20
1,F,Tamara Bitskeviych,43.3,,,,,,,,,,,,,,,,280,44,SBD,Wraps,,Open,,1982-03-15
1,M,Ivars Ozols,106.2,,,,,,,,,,,,,,,,725,110,SBD,Wraps,,M40-49,,1978-04-23
1,M,Adriano Maggioli,125.86,,,,,,,,,,,,,,,,700,140,SBD,Wraps,,M40-49,,1980-11-13
DQ,M,Jose Manuel,85.02,,,,,,,,,,,,,,,,,90,SBD,Wraps,,M50-59,,1965-01-05
1,M,Ismael Barrio,72.84,,,,,,,,,,,,,,,,382.5,75,SBD,Wraps,,M60-69,,1958-11-13
1,M,Jaid Allan,88.66,,,,,,,,,,,,,,,,730,90,SBD,Wraps,,Open,,1998-09-06
2,M,Ernestas Šimkevičius,88.9,,,,,,,,,,,,,,,,655,90,SBD,Wraps,,Open,,1988-01-16
1,M,Artis Veiss,99.4,,,,,,,,,,,,,,,,730,100,SBD,Wraps,,Open,,1991-04-08
2,M,Saad Aljanaa,99.96,,,,,,,,,,,,,,,,707.5,100,SBD,Wraps,,Open,,1990-12-30
3,M,Louis Tricoire,98.46,,,,,,,,,,,,,,,,570,100,SBD,Wraps,,Open,,1999-11-07
DQ,M,Alvaro Montoya,98.08,,,,,,,,,,,,,,,,,100,SBD,Wraps,,Open,,1998-09-20
1,M,Jesus Oliva,108.48,,,,,,,,,,,,,,,,770,110,SBD,Wraps,,Open,,1996-02-02
DQ,M,Diego Jose,109.4,,,,,,,,,,,,,,,,,110,SBD,Wraps,,Open,,1999-03-09
DQ,M,Óscar Fernández,103,,,,,,,,,,,,,,,,,110,SBD,Wraps,,Open,,1991-11-01
1,M,Gheorghe Buceac,116.08,,,,,,,,,,,,,,,,820,125,SBD,Wraps,,Open,,1994-02-18
2,M,Henri Kotkansalo,111.7,,,,,,,,,,,,,,,,610,125,SBD,Wraps,,Open,,1996-11-10
1,M,Marvin Joly,136.3,,,,,,,,,,,,,,,,855,140,SBD,Wraps,,Open,,1998-03-14
2,M,Mohammed Alterkait,131.52,,,,,,,,,,,,,,,,852.5,140,SBD,Wraps,,Open,,1989-11-07
3,M,Francisco Ortiz,134.24,,,,,,,,,,,,,,,,800,140,SBD,Wraps,,Open,,1992-09-14
4,M,Giorgi Talakhadze,138.74,,,,,,,,,,,,,,,,760,140,SBD,Wraps,,Open,,1990-09-13
1,M,Jose Martinez,81.34,,,,,,,,,,,,,,,,675,82.5,SBD,Wraps,,J20-23,,2001-12-11
1,M,Alexandre Dessoulavy,99.1,,,,,,,,,,,,,,,,642.5,100,SBD,Wraps,,J20-23,,2002-11-08
1,M,Farids Bahtjarovs,109.9,,,,,,,,,,,,,,,,805,110,SBD,Wraps,,J20-23,,2003-09-01
1,M,Noe Dalla,120.06,,,,,,,,,,,,,,,,550,125,SBD,Wraps,,J20-23,,2001-01-13
1,M,Gvido Ozols,117.76,,,,,,,,,,,,,,,,575,125,SBD,Wraps,,J14-16,,2008-07-13
1,F,Samantha Tesone,63.52,,,,,,,,,,,,,,,,172.5,67.5,D,Raw,,M40-49,,1978-07-28
2,F,Sonia Albans,63.7,,,,,,,,,,,,,,,,152.5,67.5,D,Raw,,M40-49,,1977-01-11
1,F,Eunice Fernandes,79.6,,,,,,,,,,,,,,,,200,82.5,D,Raw,,M40-49,,1976-08-06
1,F,Geni Devonish,63.02,,,,,,,,,,,,,,,,125,67.5,D,Raw,,M50-59,,1974-08-09
1,F,Christina Ullman,89.1,,,,,,,,,,,,,,,,170,90,D,Raw,,M50-59,,1971-05-01
1,F,Justė Tuskaitė,66.3,,,,,,,,,,,,,,,,190,67.5,D,Raw,,Open,,1992-02-25
1,M,Manuel Palomar,80.5,,,,,,,,,,,,,,,,250.5,82.5,D,Raw,,M40-49,,1979-08-30
2,M,Andy Otter,81.1,,,,,,,,,,,,,,,,202.5,82.5,D,Raw,,M40-49,,1978-03-01
1,M,Andris Lūsis,88.3,,,,,,,,,,,,,,,,275,90,D,Raw,,M40-49,,1983-07-07
1,M,Ravi Chauhan,109,,,,,,,,,,,,,,,,220,110,D,Raw,,M40-49,,1983-08-10
1,M,Jaak Ruusma,122.4,,,,,,,,,,,,,,,,290,125,D,Raw,,M40-49,,1978-05-07
1,M,Adriano Maggioli,125.86,,,,,,,,,,,,,,,,280,140,D,Raw,,M40-49,,1980-11-13
1,M,Vugar Namazov,148.4,,,,,,,,,,,,,,,,343,140+,D,Raw,,M40-49,,1979-08-13
1,M,Jason Roberts,82.5,,,,,,,,,,,,,,,,192.5,82.5,D,Raw,,M50-59,,1969-10-10
1,M,Jose Alejandro,85.5,,,,,,,,,,,,,,,,220,90,D,Raw,,M50-59,,1974-10-01
1,M,John Cotton,110.7,,,,,,,,,,,,,,,,301,125,D,Raw,,M50-59,,1968-08-05
1,M,Douglas Delainey,87.02,,,,,,,,,,,,,,,,212.5,90,D,Raw,,M60-69,,1960-04-28
1,M,Peter Battle,81,,,,,,,,,,,,,,,,115,82.5,D,Raw,,M80+,,1927-01-14
1,M,Alex Saretsky,67.18,,,,,,,,,,,,,,,,200,67.5,D,Raw,,Open,,1989-08-26
1,M,Imantas Petrošius,74.3,,,,,,,,,,,,,,,,230,75,D,Raw,,Open,,1991-04-05
2,M,Ciprian Florin,73.4,,,,,,,,,,,,,,,,225,75,D,Raw,,Open,,1984-11-18
1,M,Jaime Colino,79.9,,,,,,,,,,,,,,,,327.5,82.5,D,Raw,,Open,,1989-09-19
DQ,M,Dominik Šafránek,79.8,,,,,,,,,,,,,,,,,82.5,D,Raw,,Open,,1992-03-18
1,M,Kamran Lazimov,89.96,,,,,,,,,,,,,,,,320,90,D,Raw,,Open,,1990-10-12
2,M,Andrius Naglius,90,,,,,,,,,,,,,,,,315,90,D,Raw,,Open,,1985-08-07
3,M,Szilárd Andrási,90,,,,,,,,,,,,,,,,300,90,D,Raw,,Open,,1997-06-09
4,M,Alvaro Lopez,88.3,,,,,,,,,,,,,,,,285,90,D,Raw,,Open,,1995-10-26
5,M,András Vass,87.9,,,,,,,,,,,,,,,,280,90,D,Raw,,Open,,1995-03-27
6,M,Kacper Cecko,88.4,,,,,,,,,,,,,,,,250,90,D,Raw,,Open,,1997-11-27
7,M,Ernestas Šimkevičius,88.9,,,,,,,,,,,,,,,,250,90,D,Raw,,Open,,1988-01-16
1,M,David Agut,98.8,,,,,,,,,,,,,,,,332.5,100,D,Raw,,Open,,1997-12-05
2,M,Audrius Vitartas,99.2,,,,,,,,,,,,,,,,302.5,100,D,Raw,,Open,,1992-07-15
3,M,Adam Loughnane,96,,,,,,,,,,,,,,,,275,100,D,Raw,,Open,,1997-08-07
4,M,Arturo Martin,99.1,,,,,,,,,,,,,,,,260,100,D,Raw,,Open,,1990-09-03
1,M,Andres Burgos,103.3,,,,,,,,,,,,,,,,362.5,110,D,Raw,,Open,,1993-12-31
2,M,Modestas Kasperavičius,106.6,,,,,,,,,,,,,,,,310,110,D,Raw,,Open,,1998-06-22
3,M,Diego Jose,109.4,,,,,,,,,,,,,,,,250,110,D,Raw,,Open,,1999-03-09
DQ,M,Óscar Fernández,103,,,,,,,,,,,,,,,,,110,D,Raw,,Open,,1991-11-01
1,M,John Cotton,110.7,,,,,,,,,,,,,,,,301,125,D,Raw,,Open,,1968-08-05
1,M,Giorgi Talakhadze,138.74,,,,,,,,,,,,,,,,310,140,D,Raw,,Open,,1990-09-13
2,M,Jose Angel,129.1,,,,,,,,,,,,,,,,240,140,D,Raw,,Open,,1995-03-29
1,M,Sultan Hussain,55.05,,,,,,,,,,,,,,,,155,56,D,Raw,,J20-23,,2003-01-18
1,M,Ilkin Namazov,140,,,,,,,,,,,,,,,,280,140,D,Raw,,J20-23,,2003-10-17
1,M,Mehdi Hajizada,55.4,,,,,,,,,,,,,,,,185,56,D,Raw,,J14-16,,2007-12-07
1,M,Freddie Simon,115,,,,,,,,,,,,,,,,200,125,D,Raw,,J14-16,,2008-10-30
1,M,Shaurya Dutta,54.18,,,,,,,,,,,,,,,,180,56,D,Raw,,J17-19,,2007-04-08
1,M,Jeet Gope,63.98,,,,,,,,,,,,,,,,175,67.5,D,Raw,,J17-19,,2007-04-15
1,M,Dávid Horváth,73.6,,,,,,,,,,,,,,,,225,75,D,Raw,,J17-19,,2006-01-23
1,F,Aimur Sagatbek,56.8,,,,,,,,,,,,,,,,22.5,60,D,Raw,,M40-49,,1983-06-20
1,F,Farida Pashayeva,69.64,,,,,,,,,,,,,,,,50,75,D,Raw,,M40-49,,1981-06-23
DQ,F,Eunice Fernandes,79.6,,,,,,,,,,,,,,,,,82.5,D,Raw,,M40-49,,1976-08-06
1,F,Bettina Razzouiki,55.6,,,,,,,,,,,,,,,,35,56,D,Raw,,M50-59,,1965-08-28
1,F,Lady Petra,80.28,,,,,,,,,,,,,,,,40,82.5,D,Raw,,M50-59,,1970-07-10
1,F,Farida Pashayeva,69.64,,,,,,,,,,,,,,,,50,75,D,Raw,,Open,,1981-06-23
2,F,Eszter Polgár,71.4,,,,,,,,,,,,,,,,45,75,D,Raw,,Open,,1986-08-18
3,F,Marina Nasretdinova,70.62,,,,,,,,,,,,,,,,40,75,D,Raw,,Open,,1971-06-07
1,F,Natalia Cosio,78.68,,,,,,,,,,,,,,,,30,82.5,D,Raw,,Open,,1995-03-10
2,F,Jillian Heil,77.06,,,,,,,,,,,,,,,,27.5,82.5,D,Raw,,Open,,1996-11-20
1,F,Tifani Szabo,98.6,,,,,,,,,,,,,,,,52.5,90+,D,Raw,,Open,,1999-09-22
2,F,Lucy Moore,107.54,,,,,,,,,,,,,,,,32.5,90+,D,Raw,,Open,,1992-11-13
1,M,Namig Jafarov,80,,,,,,,,,,,,,,,,80,82.5,D,Raw,,M40-49,,1976-08-27
2,M,Manuel Palomar,80.5,,,,,,,,,,,,,,,,70,82.5,D,Raw,,M40-49,,1979-08-30
1,M,Emanuil Manasiev,91.2,,,,,,,,,,,,,,,,62.5,100,D,Raw,,M40-49,,1977-07-05
1,M,Łukasz Warmuz,109.2,,,,,,,,,,,,,,,,80,110,D,Raw,,M40-49,,1982-02-16
1,M,Imran Khan,121.2,,,,,,,,,,,,,,,,50,125,D,Raw,,M40-49,,1984-03-16
1,M,Adriano Maggioli,125.86,,,,,,,,,,,,,,,,70,140,D,Raw,,M40-49,,1980-11-13
1,M,Stéphane Ledogar,63.5,,,,,,,,,,,,,,,,50,67.5,D,Raw,,M50-59,,1972-12-14
2,M,Matthew Chapman,66.48,,,,,,,,,,,,,,,,50,67.5,D,Raw,,M50-59,,1968-04-24
1,M,Jason Roberts,82.5,,,,,,,,,,,,,,,,45,82.5,D,Raw,,M50-59,,1969-10-10
1,M,Marcus Griffiths,119.88,,,,,,,,,,,,,,,,60,125,D,Raw,,M50-59,,1973-07-19
1,M,Douglas Delainey,87.02,,,,,,,,,,,,,,,,45,90,D,Raw,,M60-69,,1960-04-28
1,M,Ozjan Babazada,59.5,,,,,,,,,,,,,,,,62.5,60,D,Raw,,Open,,2007-06-16
1,M,Kalin Krasimirov,66.7,,,,,,,,,,,,,,,,65,67.5,D,Raw,,Open,,1992-02-19
2,M,Alex Saretsky,67.18,,,,,,,,,,,,,,,,62.5,67.5,D,Raw,,Open,,1989-08-26
3,M,Dávid Hérics,63.4,,,,,,,,,,,,,,,,55,67.5,D,Raw,,Open,,1991-03-03
4,M,Francisco Jesus,65.75,,,,,,,,,,,,,,,,40,67.5,D,Raw,,Open,,1996-01-08
1,M,Mikel Santos,74.3,,,,,,,,,,,,,,,,80,75,D,Raw,,Open,,2000-06-06
2,M,Hugues Chenevier,74.7,,,,,,,,,,,,,,,,75,75,D,Raw,,Open,,1992-11-11
3,M,Jean-François Dumas,74.8,,,,,,,,,,,,,,,,72.5,75,D,Raw,,Open,,1995-05-04
4,M,Gianluca Merlo,75,,,,,,,,,,,,,,,,72.5,75,D,Raw,,Open,,1988-08-19
5,M,Antonio Rodriguez,74.3,,,,,,,,,,,,,,,,52.5,75,D,Raw,,Open,,1991-03-28
1,M,Jaroslavs Matjuhins,81.5,,,,,,,,,,,,,,,,85,82.5,D,Raw,,Open,,1992-07-04
2,M,Namig Jafarov,80,,,,,,,,,,,,,,,,80,82.5,D,Raw,,Open,,1976-08-27
3,M,Kamal Mammadli,80.7,,,,,,,,,,,,,,,,77.5,82.5,D,Raw,,Open,,1996-02-05
4,M,Pascal Panot,77.5,,,,,,,,,,,,,,,,72.5,82.5,D,Raw,,Open,,1994-03-03
1,M,Detelin Yonchev,90,,,,,,,,,,,,,,,,95,90,D,Raw,,Open,,1993-11-22
2,M,Sadig Musayev,83.5,,,,,,,,,,,,,,,,82.5,90,D,Raw,,Open,,1984-11-11
3,M,Nicolas Floquet,85.2,,,,,,,,,,,,,,,,82.5,90,D,Raw,,Open,,1997-10-13
4,M,David Quintero,88,,,,,,,,,,,,,,,,60,90,D,Raw,,Open,,1988-02-27
1,M,Zaur Abbasov,98.6,,,,,,,,,,,,,,,,90,100,D,Raw,,Open,,1984-06-05
2,M,József Nyirádi,93.1,,,,,,,,,,,,,,,,67.5,100,D,Raw,,Open,,1991-08-08
3,M,Adam Loughnane,96,,,,,,,,,,,,,,,,60,100,D,Raw,,Open,,1997-08-07
4,M,Jack Waterman,94.4,,,,,,,,,,,,,,,,57.5,100,D,Raw,,Open,,1998-03-13
1,M,Jalil Aliyev,107.9,,,,,,,,,,,,,,,,87.5,110,D,Raw,,Open,,1994-06-24
2,M,Clay Rattenbury,108.76,,,,,,,,,,,,,,,,72.5,110,D,Raw,,Open,,1989-08-15
3,M,Farrukh Abdukayumov,102.3,,,,,,,,,,,,,,,,60,110,D,Raw,,Open,,1996-08-17
1,M,Dennis Sitek,119.9,,,,,,,,,,,,,,,,95,125,D,Raw,,Open,,1992-07-28
1,M,Giorgi Talakhadze,138.74,,,,,,,,,,,,,,,,92.5,140,D,Raw,,Open,,1990-09-13
1,M,Aziz Shukurov,54.8,,,,,,,,,,,,,,,,50,56,D,Raw,,J20-23,,2002-08-15
1,M,Harsh Vyas,88.14,,,,,,,,,,,,,,,,47.5,90,D,Raw,,J17-19,,2005-05-15
1,M,Héctor Pina,98.5,,,,,,,,,,,,,,,,72.5,100,D,Raw,,J17-19,,2005-07-10
1,M,Charlie Simon,122.08,,,,,,,,,,,,,,,,47.5,125,D,Raw,,J17-19,,2006-05-23
