Name,Equipment,Sex,Event,Division,BodyweightKg,WeightClassKg,Age,Squat1Kg,Squat2Kg,Squat3Kg,Best3SquatKg,Bench1Kg,Bench2Kg,Bench3Kg,Best3BenchKg,Deadlift1Kg,Deadlift2Kg,Deadlift3Kg,Best3DeadliftKg,TotalKg,Place
Tatiana Pineau,Raw,F,SBD,FR-O,57.7,60,30,72.5,80,-87.5,80,32.5,37.5,42.5,42.5,80,90,100,100,222.5,1
Charlotte Genevier,Raw,F,SBD,FR-O,58.7,60,24,52.5,62.5,72.5,72.5,40,45,-47.5,45,80,87.5,90,90,207.5,2
Megan Behounek,Raw,F,SBD,FR-O,64.2,67.5,27,47.5,52.5,-60,52.5,37.5,40,-42.5,40,67.5,75,85,85,177.5,1
Sheryl Condon,Raw,F,SBD,FR-O,72.7,75,37,120,127.5,132.5,132.5,-67.5,70,72.5,72.5,140,150,-157.5,150,355,1
Kristi Miranda,Raw,F,SBD,FR-O,77.5,82.5,31,52.5,60,-70,60,42.5,47.5,-52.5,47.5,82.5,90,95,95,202.5,1
Stephanie Whiting,Single-ply,F,SBD,F-M3,44.5,48,62,62.5,65,70,70,40,42.5,45,45,77.5,85,90,90,205,1
Stephanie Whiting,Single-ply,F,SBD,F-O,44.5,48,62,62.5,65,70,70,40,42.5,45,45,77.5,85,90,90,205,1
Brad Hegel,Raw,M,SBD,MR-M2,99.1,100,51,137.5,157.5,162.5,162.5,142.5,150,155,155,212.5,220,227.5,227.5,545,1
Andrew Freund,Raw,M,SBD,MR-M1,73.6,75,40,110,115,-120,115,-70,70,-75,70,130,140,150,150,335,1
Daniel Mahan,Raw,M,SBD,MR-M1,99,100,44,220,240,247.5,247.5,140,147.5,150,150,252.5,-272.5,-272.5,252.5,650,1
Bradley Carter,Raw,M,SBD,MR-T3,79.6,82.5,19,175,180,190,190,125,127.5,-135,127.5,185,192.5,200,200,517.5,1
Nicholas Loporchio,Raw,M,SBD,MR-T3,105.4,110,18,192.5,210,215,215,125,132.5,137.5,137.5,225,242.5,250,250,602.5,1
Tyler Sage,Raw,M,SBD,MR-T2,121.5,125,17,165,195,220,220,-127.5,135,-147.5,135,165,195,-225,195,550,1
Jaeyoon Cho,Raw,M,SBD,MR-O,72.7,75,21,102.5,112.5,-120,112.5,67.5,72.5,-75,72.5,110,-125,-125,110,295,1
Max Walters,Raw,M,SBD,MR-O,82.5,82.5,23,185,200,-207.5,200,137.5,-142.5,147.5,147.5,205,220,-232.5,220,567.5,1
Michael Dickun,Raw,M,SBD,MR-O,81.4,82.5,29,160,175,-180,175,112.5,120,-125,120,187.5,200,205,205,500,2
Nik Herold,Raw,M,SBD,MR-O,81.7,82.5,27,140,155,172.5,172.5,102.5,112.5,-120,112.5,165,182.5,200,200,485,3
Ryan Steffen,Raw,M,SBD,MR-O,77.6,82.5,28,135,147.5,167.5,167.5,90,102.5,-115,102.5,155,-162.5,,155,425,4
Antoinne Harris,Raw,M,SBD,MR-O,78.8,82.5,33,125,137.5,147.5,147.5,90,100,110,110,140,160,-182.5,160,417.5,5
Tojo Tseng,Raw,M,SBD,MR-O,79.1,82.5,49,125,-135,145,145,90,100,-110,100,140,152.5,165,165,410,6
Alex Piccioli,Raw,M,SBD,MR-O,81,82.5,26,140,-145,145,145,-137.5,-137.5,-137.5,,160,175,192.5,192.5,,DQ
Mike Ramirez,Raw,M,SBD,MR-O,109.1,110,24,220,230,240,240,150,160,165,165,220,230,245,245,650,1
Michael Seelhorst,Raw,M,SBD,MR-O,106.7,110,24,160,170,180,180,115,125,-135,125,,,,,,DQ
John Planas,Raw,M,SBD,MR-O,112,125,36,277.5,287.5,-292.5,287.5,200,-207.5,-207.5,200,292.5,300,-307.5,300,787.5,1
Lothar Vallot,Single-ply,M,SBD,M-M2,89.8,90,58,120,130,140,140,95,-102.5,-102.5,95,135,147.5,155,155,390,1
Wayne Jandoc,Single-ply,M,SBD,M-M2,105.7,110,53,272.5,-292.5,-292.5,272.5,-182.5,197.5,200,200,230,237.5,245,245,717.5,1
Ted Stewart,Single-ply,M,SBD,M-M2,122.4,125,54,215,227.5,237.5,237.5,132.5,145,-152.5,145,215,235,240,240,622.5,1
Dean Otsuka,Single-ply,M,SBD,M-O,65.5,67.5,23,182.5,195,-205,195,137.5,142.5,-150,142.5,207.5,217.5,227.5,227.5,565,1
Greg Darnell,Single-ply,M,SBD,M-O,72.5,75,20,152.5,-165,165,165,107.5,-115,-115,107.5,170,182.5,192.5,192.5,465,1
Misael Peraza,Single-ply,M,SBD,M-O,81.3,82.5,23,207.5,217.5,227.5,227.5,117.5,-125,125,125,217.5,235,240,240,592.5,1
Vithuran Arulmoli,Single-ply,M,SBD,M-O,81.4,82.5,22,167.5,-182.5,-185,167.5,102.5,110,112.5,112.5,182.5,200,-205,200,480,2
Shawn Buckley,Single-ply,M,SBD,M-O,90,90,28,282.5,305,-312.5,305,-180,180,-190,180,280,305,-322.5,305,790,1
Chris Bartl,Single-ply,M,SBD,M-O,89.1,90,32,210,227.5,235,235,147.5,-155,162.5,162.5,205,230,242.5,242.5,640,2
Michael Paz,Single-ply,M,SBD,M-O,88.8,90,23,130,142.5,150,150,92.5,102.5,107.5,107.5,182.5,200,227.5,227.5,485,3
Jeanette Yamamoto,Raw,F,B,FR-O,66.3,67.5,35,,,,,-42.5,42.5,-52.5,42.5,,,,,42.5,1
Lindsay Hood,Raw,F,B,FR-O,126.7,90+,33,,,,,92.5,97.5,100,100,,,,,100,1
Madison James,Single-ply,F,B,F-O,66,67.5,15,,,,,62.5,67.5,-70,67.5,,,,,67.5,1
David Bultman,Raw,M,B,MR-M3,74.8,75,65,,,,,115,122.5,127.5,127.5,,,,,127.5,1
Leo Liberio,Raw,M,B,MR-M3,79.5,82.5,62,,,,,125,132.5,-135,132.5,,,,,132.5,1
Mike Kane,Raw,M,B,MR-M4,80.7,82.5,70,,,,,100,-105,,100,,,,,100,2
Tom DeLong,Raw,M,B,MR-M2,82.5,82.5,53,,,,,-155,-155,-155,,,,,,,DQ
Rudolf Schaap,Raw,M,B,MR-M2,122.7,125,50,,,,,180,187.5,-192.5,187.5,,,,,187.5,1
Glen Tenove,Raw,M,B,MR-M2,123.7,125,55,,,,,177.5,-180,182.5,182.5,,,,,182.5,2
Carlos Rivas,Raw,M,B,MR-M1,78.5,82.5,47,,,,,145,152.5,-157.5,152.5,,,,,152.5,1
Will Hartwell,Raw,M,B,MR-M1,89.4,90,41,,,,,115,-132.5,-132.5,115,,,,,115,1
Sammy Graham,Raw,M,B,MR-M1,100,100,42,,,,,177.5,180,-182.5,180,,,,,180,1
Ken Thunberg,Raw,M,B,MR-M1,107.7,110,47,,,,,165,190,-192.5,190,,,,,190,1
Mark Byers,Raw,M,B,MR-M1,126.9,125+,44,,,,,145,-152.5,-152.5,145,,,,,145,1
Stephen Schaap,Raw,M,B,MR-T1,75,75,14,,,,,77.5,82.5,85,85,,,,,85,1
Tom DeLong,Raw,M,B,MR-O,82.5,82.5,53,,,,,-155,-155,-155,,,,,,,DQ
Shawn D. Christiansen,Raw,M,B,MR-O,98.4,100,36,,,,,177.5,-185,-185,177.5,,,,,177.5,1
Robert Rodriguez #4,Raw,M,B,MR-O,112.9,125,38,,,,,195,-200,-200,195,,,,,195,1
Rudolf Schaap,Raw,M,B,MR-O,122.7,125,50,,,,,180,187.5,-192.5,187.5,,,,,187.5,2
Kevin Jordan,Single-ply,M,B,M-M2,106,110,53,,,,,147.5,155,167.5,167.5,,,,,167.5,1
Jim Chaaban,Single-ply,M,B,M-M1,110.9,125,42,,,,,242.5,260,-272.5,260,,,,,260,1
Carlos Rivas,Single-ply,M,B,M-O,78.5,82.5,47,,,,,145,152.5,-157.5,152.5,,,,,152.5,1
Joseph Lipanovich,Single-ply,M,B,M-O,77.2,82.5,28,,,,,125,135,-142.5,135,,,,,135,2
Jim Chaaban,Single-ply,M,B,M-O,110.9,125,42,,,,,242.5,260,-272.5,260,,,,,260,1
Jeanette Yamamoto,Raw,F,D,FR-O,66.3,67.5,35,,,,,,,,,82.5,95,102.5,102.5,102.5,1
Madison James,Single-ply,F,D,F-O,66,67.5,15,,,,,,,,,117.5,122.5,-127.5,122.5,122.5,1
Mark Sandstrom,Raw,M,D,MR-M2,119.6,125,55,,,,,,,,,255,262.5,272.5,272.5,272.5,1
Will Hartwell,Raw,M,D,MR-M1,89.4,90,41,,,,,,,,,160,185,190,190,190,1
Mark Byers,Raw,M,D,MR-M1,126.9,125+,44,,,,,,,,,202.5,215,-227.5,215,215,1
Erik Sandstrom,Raw,M,D,MR-T2,73.9,75,16,,,,,,,,,160,170,182.5,182.5,182.5,1
Frank Valdez,Raw,M,D,MR-O,120.5,125,31,,,,,,,,,280,292.5,-300,292.5,292.5,1
David Schnitzer,Single-ply,M,D,M-O,72.1,75,31,,,,,,,,,162.5,172.5,180,180,180,1
Joseph Lipanovich,Single-ply,M,D,M-O,77.2,82.5,28,,,,,,,,,190,210,-212.5,210,210,1
