Division,WeightClassKg,Place,Name,Team,BodyweightKg,Best3SquatKg,Best3BenchKg,Best3DeadliftKg,TotalKg,Equipment,Event,Sex
Boys,51.71,1,Leo Martinez,Rio Grande City,51.26,158.76,106.59,163.29,428.64,Single-ply,SBD,M
Boys,51.71,2,Jesus Puente,La Joya Palmview,51.07,145.15,74.84,149.69,369.68,Single-ply,SBD,M
Boys,51.71,3,Tommy Livigni,McAllen Memorial,50.3,52.16,45.36,77.11,174.63,Single-ply,SBD,M
Boys,51.71,DQ,Martin Alaniz,Sharyland Pioneer,49.8,92.99,54.43,,,Single-ply,SBD,M
Boys,55.79,1,Kevin Trevino,McAllen Memorial,55.02,154.22,111.13,161.03,426.38,Single-ply,SBD,M
Boys,55.79,2,David Garza,La Joya Juarez-Lincoln,52.84,99.79,61.23,120.2,281.23,Single-ply,SBD,M
Boys,59.87,1,Chris Rios,Rio Grande City,59.65,181.44,122.47,181.44,485.34,Single-ply,SBD,M
Boys,59.87,2,Issac Galvan,Sharyland Pioneer,58.92,138.35,83.91,138.35,360.61,Single-ply,SBD,M
Boys,59.87,3,Anthony Trevino,Rio Grande City Grulla,56.38,113.4,70.31,136.08,319.78,Single-ply,SBD,M
Boys,59.87,4,Luis Raudales,Mission Veterans Memorial,56.47,111.13,79.38,127.01,317.51,Single-ply,SBD,M
Boys,59.87,DQ,Jesus Rosillo,McAllen,59.87,,,,,Single-ply,SBD,M
Boys,67.13,1,Abraham Hernández,La Joya Palmview,66.27,265.35,133.81,269.89,669.05,Single-ply,SBD,M
Boys,67.13,2,Coy Burrows,Sharyland Pioneer,66.68,235.87,142.88,224.53,603.28,Single-ply,SBD,M
Boys,67.13,3,Ricardo Pena #1,Rio Grande City,66.72,222.26,138.35,215.46,576.06,Single-ply,SBD,M
Boys,67.13,4,Moses Olivarez,McAllen Memorial,65.91,215.46,122.47,195.04,532.97,Single-ply,SBD,M
Boys,67.13,5,Eduardo Elizondo,Rio Grande City Grulla,62.46,172.37,106.59,176.9,455.86,Single-ply,SBD,M
Boys,67.13,6,Rolando Saenz,Mission Sharyland,66,183.7,86.18,163.29,433.18,Single-ply,SBD,M
Boys,67.13,7,Kameron Maples,McAllen Memorial,66.63,127.01,99.79,149.69,376.48,Single-ply,SBD,M
Boys,67.13,8,Abraham Salinas,Rio Grande City Grulla,66.59,122.47,92.99,131.54,347,Single-ply,SBD,M
Boys,67.13,9,Ricardo Liamas,Mission Veterans Memorial,61.82,102.06,79.38,127.01,308.44,Single-ply,SBD,M
Boys,74.84,1,Jonathan Casarez,Rio Grande City,72.17,204.12,147.42,231.33,582.87,Single-ply,SBD,M
Boys,74.84,2,David Alaniz,La Joya Palmview,73.26,197.31,127.01,192.78,517.1,Single-ply,SBD,M
Boys,74.84,3,Devin Alvardo,McAllen Memorial,73.53,188.24,113.4,197.31,498.95,Single-ply,SBD,M
Boys,74.84,4,Santino Pascual,Mission Sharyland,72.67,199.58,108.86,185.97,494.42,Single-ply,SBD,M
Boys,74.84,5,Guillermo Garza,McAllen,68.27,161.03,74.84,151.95,387.82,Single-ply,SBD,M
Boys,74.84,6,Jose Rodriguez #16,Mission Veterans Memorial,72.48,151.95,74.84,161.03,387.82,Single-ply,SBD,M
Boys,74.84,7,Adam Alvarado,McAllen Rowe,67.99,129.27,83.91,154.22,367.41,Single-ply,SBD,M
Boys,74.84,8,Yahir Puente,McAllen Memorial,68.27,124.74,72.57,151.95,349.27,Single-ply,SBD,M
Boys,74.84,DQ,Marcus Flores,McAllen,74.07,,,,,Single-ply,SBD,M
Boys,74.84,DQ,Christopher Palomo,McAllen,73.94,,,,,Single-ply,SBD,M
Boys,74.84,DQ,Eduardo Fraire,La Joya Palmview,74.62,147.42,,,,Single-ply,SBD,M
Boys,82.1,1,Franklin Arellano,McAllen,80.01,224.53,145.15,222.26,591.94,Single-ply,SBD,M
Boys,82.1,2,Robert Farias,Mission Sharyland,80.65,240.4,129.27,190.51,560.19,Single-ply,SBD,M
Boys,82.1,3,Oscar Mendoza,La Joya Palmview,81.83,208.65,147.42,204.12,560.19,Single-ply,SBD,M
Boys,82.1,4,Eduardo Cortez,McAllen Memorial,80.51,210.92,129.27,215.46,555.65,Single-ply,SBD,M
Boys,82.1,5,Edgar Castillo,McAllen Rowe,81.56,195.04,115.67,208.65,519.36,Single-ply,SBD,M
Boys,82.1,6,Joe Ramos,Rio Grande City Grulla,82.05,172.37,129.27,172.37,474,Single-ply,SBD,M
Boys,82.1,7,Alejandro Herrera,La Joya Palmview,82.1,181.44,106.59,183.7,471.74,Single-ply,SBD,M
Boys,82.1,8,Roland Briseno,McAllen,79.79,179.17,120.2,165.56,464.93,Single-ply,SBD,M
Boys,82.1,9,Marc Garcia,La Joya,80.97,183.7,102.06,176.9,462.66,Single-ply,SBD,M
Boys,82.1,10,David Saldana,McAllen Rowe,79.74,158.76,111.13,188.24,458.13,Single-ply,SBD,M
Boys,82.1,11,Adam Pena,La Joya,75.3,163.29,108.86,183.7,455.86,Single-ply,SBD,M
Boys,82.1,12,Juan Villarreal #3,Sharyland Pioneer,80.69,142.88,97.52,151.95,392.36,Single-ply,SBD,M
Boys,89.81,1,Obed Hernandez,Sharyland Pioneer,88,281.23,154.22,265.35,700.8,Single-ply,SBD,M
Boys,89.81,2,Daniel Villarreal,La Joya,89.81,265.35,142.88,254.01,662.24,Single-ply,SBD,M
Boys,89.81,3,Miguel de Hoyos,La Joya Palmview,87.27,238.14,149.69,219.99,607.81,Single-ply,SBD,M
Boys,89.81,4,Luis Garza,La Joya,84.1,224.53,129.27,219.99,573.79,Single-ply,SBD,M
Boys,89.81,5,Ryan Alvarez,Rio Grande City,85.37,229.06,124.74,219.99,573.79,Single-ply,SBD,M
Boys,89.81,6,Michael Morales,McAllen Rowe,84.14,204.12,131.54,192.78,528.44,Single-ply,SBD,M
Boys,89.81,7,Luis Venelia,La Joya Juarez-Lincoln,87.14,181.44,102.06,190.51,474,Single-ply,SBD,M
Boys,89.81,8,Aaron Gonzalez,McAllen Rowe,88.77,165.56,104.33,185.97,455.86,Single-ply,SBD,M
Boys,89.81,9,Andrew Torres,Sharyland Pioneer,87.54,181.44,127.01,142.88,451.32,Single-ply,SBD,M
Boys,89.81,10,Fernando Martinez #3,Mission Veterans Memorial,83.14,183.7,88.45,149.69,421.84,Single-ply,SBD,M
Boys,89.81,11,Joao Bollanegra,Mission Veterans Memorial,83.87,111.13,65.77,133.81,310.71,Single-ply,SBD,M
Boys,99.79,1,Eddie Hernandez,La Joya Juarez-Lincoln,97.61,244.94,154.22,238.14,637.3,Single-ply,SBD,M
Boys,99.79,2,Eduardo Garza,Rio Grande City,94.39,215.46,145.15,231.33,591.94,Single-ply,SBD,M
Boys,99.79,3,Axel Hernandez #1,McAllen Memorial,94.44,204.12,124.74,226.8,555.65,Single-ply,SBD,M
Boys,99.79,4,Daniel Vasquez,La Joya Palmview,93.67,238.14,117.93,190.51,546.58,Single-ply,SBD,M
Boys,99.79,5,Derek Solis,Rio Grande City Grulla,95.89,190.51,133.81,217.72,542.04,Single-ply,SBD,M
Boys,99.79,6,Justin Torres,McAllen Rowe,98.61,195.04,117.93,226.8,539.77,Single-ply,SBD,M
Boys,99.79,7,Erik Torres,Sharyland Pioneer,99.61,206.38,140.61,183.7,530.7,Single-ply,SBD,M
Boys,99.79,8,Jose Quintero,McAllen Rowe,93.35,197.31,124.74,183.7,505.76,Single-ply,SBD,M
Boys,99.79,9,Mason Brewer,McAllen,92.26,158.76,97.52,170.1,426.38,Single-ply,SBD,M
Boys,109.77,1,Jesus Proa,La Joya Juarez-Lincoln,109.27,290.3,170.1,244.94,705.34,Single-ply,SBD,M
Boys,109.77,2,Juan Martinez,La Joya Juarez-Lincoln,109.77,249.48,151.95,242.67,644.1,Single-ply,SBD,M
Boys,109.77,3,Fernando Robles,Rio Grande City,109.27,222.26,129.27,231.33,582.87,Single-ply,SBD,M
Boys,109.77,4,Israel Monzivais,La Joya Juarez-Lincoln,107.37,219.99,124.74,215.46,560.19,Single-ply,SBD,M
Boys,109.77,5,Arturo Pena,La Joya Palmview,103.65,233.6,108.86,188.24,530.7,Single-ply,SBD,M
Boys,109.77,6,Jose Molina #3,McAllen,106.1,174.63,117.93,181.44,474,Single-ply,SBD,M
Boys,109.77,7,Alexander Guerra,McAllen Memorial,107.55,190.51,102.06,172.37,464.93,Single-ply,SBD,M
Boys,109.77,8,Gonzalo Montalvo,Rio Grande City Grulla,101.38,158.76,115.67,140.61,415.04,Single-ply,SBD,M
Boys,109.77,DQ,Julian Lopez,McAllen,108.09,176.9,86.18,,,Single-ply,SBD,M
Boys,124.74,1,Juan Rivas,La Joya Palmview,119.43,317.51,181.44,240.4,739.36,Single-ply,SBD,M
Boys,124.74,2,Luis Salinas,Rio Grande City,121.29,272.16,181.44,285.76,739.36,Single-ply,SBD,M
Boys,124.74,3,Aliver Chapa,La Joya Juarez-Lincoln,119.34,276.69,183.7,249.48,709.87,Single-ply,SBD,M
Boys,124.74,4,Joshua Williams,Mission Sharyland,123.74,265.35,158.76,260.82,684.92,Single-ply,SBD,M
Boys,124.74,5,Juan Rodriguez,Rio Grande City,120.02,256.28,145.15,235.87,637.3,Single-ply,SBD,M
Boys,124.74,6,Miguel Salazar,Rio Grande City Grulla,111.13,231.33,136.08,226.8,594.21,Single-ply,SBD,M
Boys,124.74,7,Juan Liscano,Sharyland Pioneer,114.03,235.87,117.93,195.04,548.85,Single-ply,SBD,M
Boys,124.74,8,Luis Garcia #6,Rio Grande City Grulla,115.21,210.92,133.81,188.24,532.97,Single-ply,SBD,M
Boys,124.74,9,Osiel Alonso,La Joya Juarez-Lincoln,113.08,208.65,127.01,183.7,519.36,Single-ply,SBD,M
Boys,124.74,10,Jesse Garza #5,McAllen Rowe,113.76,181.44,131.54,192.78,505.76,Single-ply,SBD,M
Boys,124.74,11,Albert Torres,McAllen Rowe,119.7,190.51,104.33,158.76,453.59,Single-ply,SBD,M
Boys,124.74,12,Daniel Cerroblanco,Mission Veterans Memorial,116.3,179.17,97.52,165.56,442.25,Single-ply,SBD,M
Boys,124.74,DQ,Juan Gomez,Mission Sharyland,116.85,204.12,,,,Single-ply,SBD,M
Boys,124.74+,1,Arturo Ochoa,McAllen,138.12,233.6,195.04,233.6,662.24,Single-ply,SBD,M
Boys,124.74+,2,Bryan Aguillon,McAllen Rowe,130.09,235.87,154.22,251.74,641.83,Single-ply,SBD,M
Boys,124.74+,3,Jacob Mata,McAllen Rowe,147.51,204.12,142.88,176.9,523.9,Single-ply,SBD,M
Boys,124.74+,4,Oscar Garcia,Mission Sharyland,141.29,231.33,113.4,158.76,503.49,Single-ply,SBD,M
Boys,124.74+,5,Omar Mendoza,La Joya Juarez-Lincoln,138.94,183.7,124.74,192.78,501.22,Single-ply,SBD,M
Boys,124.74+,6,Montgomery Wolter,Mission Veterans Memorial,129.73,106.59,79.38,129.27,315.25,Single-ply,SBD,M
Boys,124.74+,DQ,Jose Chapa,La Joya,169.19,288.03,,,,Single-ply,SBD,M
