Place,Name,Sex,BirthDate,Country,Equipment,Event,BodyweightKg,WeightClassKg,Division,Squat1Kg,Squat2Kg,Squat3Kg,Best3SquatKg,Bench1Kg,Bench2Kg,Bench3Kg,Best3BenchKg,Deadlift1Kg,Deadlift2Kg,Deadlift3Kg,Best3DeadliftKg,TotalKg
1,Romy Tisson,F,1996-03-11,Belgium,Raw,SBD,45.51,47,Open,87.5,92.5,-95,92.5,40,42.5,-45,42.5,110,-115,120,120,255
1,Stefanie Verhulst,F,1990-12-13,Belgium,Raw,SBD,51.56,52,Open,-122.5,122.5,127.5,127.5,67.5,70,-72.5,70,135,142.5,150,150,347.5
2,Julie Muscolino,F,1987-10-20,Belgium,Raw,SBD,51.88,52,Open,120,125,130,130,60,62.5,-65,62.5,147.5,152.5,-155,152.5,345
3,Morgane Biesmans,F,1999-10-24,Belgium,Raw,SBD,51.74,52,Open,115,-122.5,122.5,122.5,55,60,-65,60,125,137.5,-145,137.5,320
4,Jessica Dederichs,F,1996-04-20,Belgium,Raw,SBD,51.24,52,Open,100,107.5,-112.5,107.5,57.5,60,-62.5,60,125,130,135,135,302.5
1,Zoé Coinne,F,1998-06-15,Belgium,Raw,SBD,55.56,57,Open,130,137.5,142.5,142.5,77.5,82.5,85,85,140,150,-157.5,150,377.5
2,Hinde Hajji,F,1999-10-11,Belgium,Raw,SBD,54.66,57,Open,112.5,120,-127.5,120,45,47.5,50,50,140,150,157.5,157.5,327.5
1,Jana Dutordoir,F,2000-08-29,Belgium,Raw,SBD,61.98,63,Open,150,157.5,-162.5,157.5,-75,75,77.5,77.5,175,187.5,195,195,430
2,Ineke Van Den Cruyce,F,1993-08-17,Belgium,Raw,SBD,61.56,63,Open,132.5,137.5,142.5,142.5,67.5,72.5,77.5,77.5,160,167.5,-172.5,167.5,387.5
3,Saya De Monie,F,1996-09-18,Belgium,Raw,SBD,62.54,63,Open,117.5,-122.5,125,125,67.5,72.5,75,75,152.5,162.5,170,170,370
4,Ethel Vandiest,F,1991-04-21,Belgium,Raw,SBD,61.14,63,Open,115,125,130,130,60,62.5,67.5,67.5,130,142.5,150,150,347.5
5,Tania Cuvelier,F,1999-02-08,Belgium,Raw,SBD,62.9,63,Open,117.5,122.5,-127.5,122.5,60,65,-67.5,65,150,160,-167.5,160,347.5
1,Aurélie Van Nuffelen,F,2001-06-18,Belgium,Raw,SBD,62.66,63,Juniors,112.5,122.5,130,130,62.5,65,-67.5,65,130,140,150,150,345
6,Jella Troch,F,1991-11-18,Belgium,Raw,SBD,60.14,63,Open,105,-115,120,120,70,75,77.5,77.5,120,135,142.5,142.5,340
DQ,Sahyuri Lalime,F,1984-11-18,Belgium,Raw,SBD,62.88,63,Masters 1,167.5,177.5,-183,177.5,-87.5,-90,-90,,187.5,200,210,210,
1,Anne-Sophie Brysse,F,2000-09-06,Belgium,Raw,SBD,67.12,69,Open,160,167.5,-172.5,167.5,85,90,92.5,92.5,165,175,185,185,445
2,Laura Dannenmuller,F,1995-04-26,France,Raw,SBD,68.4,69,Open,145,152.5,-157.5,152.5,67.5,-72.5,72.5,72.5,160,170,180,180,405
3,Rebecca Neal,F,1993-01-21,UK,Raw,SBD,67.62,69,Open,130,137.5,142.5,142.5,72.5,-77.5,-80,72.5,165,175,185,185,400
4,Marion Staats,F,1991-03-02,Netherlands,Raw,SBD,68.24,69,Open,105,-112.5,-112.5,105,72.5,-77.5,-77.5,72.5,-135,140,-150,140,317.5
1,Gaby Muller,F,1998-04-29,Luxembourg,Raw,SBD,70.46,76,Open,150,160,167.5,167.5,97.5,100,102.5,102.5,170,187.5,-195,187.5,457.5
1,Tine Vanduffel,F,2001-05-23,Belgium,Raw,SBD,72.64,76,Juniors,132.5,140,142.5,142.5,72.5,77.5,-82.5,77.5,140,150,-155,150,370
1,Anne-Sophie Jost,F,1999-07-04,Belgium,Raw,SBD,82.92,84,Open,150,157.5,165,165,85,90,95,95,175,185,200,200,460
2,Beatrice Narizzano,F,1990-09-27,Italy,Raw,SBD,83.26,84,Open,150,157.5,165,165,90,95,97.5,97.5,167.5,175,180,180,442.5
3,Elodie Fontana,F,1988-08-31,Belgium,Raw,SBD,82.1,84,Open,125,130,137.5,137.5,77.5,80,82.5,82.5,155,160,170,170,390
1,Alexander Janssen,M,1992-09-25,Belgium,Raw,SBD,65.86,66,Open,165,-172.5,-172.5,165,105,110,-115,110,210,217.5,-222.5,217.5,492.5
1,Arnaud Robbeets,M,2001-02-05,Belgium,Raw,SBD,65.66,66,Juniors,155,-162.5,-170,155,110,-115,-115,110,200,-225,,200,465
1,Michael Bernete-Diaz,M,2000-03-12,Belgium,Raw,SBD,72.3,74,Open,200,-215,215,215,150,160,-165,160,220,232.5,-237.5,232.5,607.5
1,Jason Magerat,M,2003-08-26,Belgium,Raw,SBD,73.82,74,Juniors,205,212.5,-215,212.5,-170,170,-180,170,210,225,-227.5,225,607.5
2,Jorne Feijaerts,M,1995-12-16,Belgium,Raw,SBD,73.98,74,Open,185,197.5,207.5,207.5,115,122.5,127.5,127.5,230,250,262.5,262.5,597.5
3,Dimitri Chaval,M,1998-10-09,Belgium,Raw,SBD,73.66,74,Open,195,205,210,210,-140,140,145,145,210,230,235,235,590
4,Thomas Declerck,M,1999-08-20,Belgium,Raw,SBD,73.98,74,Open,195,205,210,210,150,155,157.5,157.5,195,205,-212.5,205,572.5
5,Cedrick Hayen,M,1997-11-25,Belgium,Raw,SBD,73.76,74,Open,-195,202.5,210,210,-130,-130,130,130,215,225,-235,225,565
2,Jahson Kamara,M,2005-12-09,Belgium,Raw,SBD,72.88,74,Juniors,205,217.5,-225,217.5,115,122.5,127.5,127.5,205,217.5,-227.5,217.5,562.5
6,Bryan Van Muylder,M,2000-08-20,Belgium,Raw,SBD,72.3,74,Open,167.5,182.5,190,190,130,-135,137.5,137.5,215,227.5,-235,227.5,555
7,Dimas De Ridder,M,1998-04-05,Belgium,Raw,SBD,73.8,74,Open,195,-205,205,205,107.5,115,120,120,-210,222.5,-230,222.5,547.5
8,Alexy Brex,M,2000-08-06,Belgium,Raw,SBD,69.1,74,Open,180,190,200,200,120,127.5,-132.5,127.5,215,-222.5,-222.5,215,542.5
1,Elias De Buck,M,1996-11-08,Belgium,Raw,SBD,82.4,83,Open,252.5,-268,268,268,175,183,-185,183,280,-301,-301,280,731
2,Leonard Moke,M,2000-08-02,Belgium,Raw,SBD,82.52,83,Open,240,-255,260,260,147.5,152.5,-155,152.5,290,-316.5,-319,290,702.5
3,Julien Razananjariny,M,1985-09-13,France,Raw,SBD,82.62,83,Open,227.5,-242.5,250,250,132.5,140,142.5,142.5,-260,270,-285,270,662.5
1,Nicolas Warnon,M,2003-05-07,Belgium,Raw,SBD,82.66,83,Juniors,215,235,242.5,242.5,140,145,-147.5,145,250,265,275,275,662.5
4,Nadjaf Heybatov,M,1998-09-11,Azerbaijan,Raw,SBD,82.84,83,Open,210,222.5,-230,222.5,150,155,-160,155,240,257.5,-265,257.5,635
5,Alex Coppens,M,1997-04-15,Belgium,Raw,SBD,81.84,83,Open,205,217.5,-225,217.5,140,145,-150,145,230,250,-262.5,250,612.5
6,Lars Driezen,M,2000-02-15,Belgium,Raw,SBD,81.98,83,Open,175,-190,-190,175,135,142.5,-147.5,142.5,265,282.5,-290,282.5,600
7,Tom Van Delm,M,1996-02-15,Belgium,Raw,SBD,82.46,83,Open,197.5,210,217.5,217.5,117.5,120,-122.5,120,242.5,-260,262.5,262.5,600
8,Thibault Ruelle,M,2000-05-14,Belgium,Raw,SBD,82.66,83,Open,190,200,205,205,145,152.5,155,155,225,240,-250,240,600
9,Stijn Vanheste,M,1991-04-12,Belgium,Raw,SBD,82.94,83,Open,210,220,-225,220,120,125,130,130,220,240,-250,240,590
10,Bjorn Van Den Hende,M,2000-08-07,Belgium,Raw,SBD,82.7,83,Open,207.5,-215,215,215,130,137.5,-142.5,137.5,220,227.5,-232.5,227.5,580
DQ,Remy Katzenberg,M,1995-08-08,Belgium,Raw,SBD,82.48,83,Open,220,225,227.5,227.5,140,-145,145,145,-290,-301.5,-301.5,,
1,Andrew Rubinstein,M,1992-09-07,Belgium,Raw,SBD,92.12,93,Open,232.5,247.5,257.5,257.5,170,177.5,180,180,287.5,305,320.5,320.5,758
2,Rob Esselens,M,1994-12-14,Belgium,Raw,SBD,92.66,93,Open,265,-280,-280,265,180,182.5,-187.5,182.5,270,290,-295,290,737.5
3,Karel Van Der Velpen,M,2000-06-15,Belgium,Raw,SBD,92,93,Open,250,262.5,-270,262.5,170,175,-180,175,275,290,-305,290,727.5
1,Pierre Prevost,M,2002-02-03,Belgium,Raw,SBD,92.16,93,Juniors,220,235,-242.5,235,180,190,193.5,193.5,260,280,-300,280,708.5
4,Vincent Di Liberto,M,1996-10-04,Belgium,Raw,SBD,91.18,93,Open,240,252.5,262.5,262.5,140,145,150,150,255,265,-300,265,677.5
5,Gilles De Peuter,M,1998-06-01,Belgium,Raw,SBD,89.16,93,Open,245,260,265,265,110,115,-120,115,270,285,-295,285,665
6,Thomas Bostaji,M,2000-11-10,Belgium,Raw,SBD,91.7,93,Open,210,220,227.5,227.5,157.5,165,-172.5,165,250,262.5,267.5,267.5,660
7,Wesley Pultyn,M,1998-11-18,Belgium,Raw,SBD,92.42,93,Open,220,230,242.5,242.5,157.5,165,-172.5,165,230,240,250,250,657.5
8,Maxime Monfort,M,1996-09-21,Belgium,Raw,SBD,92.3,93,Open,210,222.5,232.5,232.5,135,-140,140,140,255,270,-280,270,642.5
9,Mathieu Hoogstoel,M,1996-10-18,Belgium,Raw,SBD,90.3,93,Open,192.5,202.5,-210,202.5,127.5,-135,135,135,235,255,275,275,612.5
1,Jonathan Celis,M,2000-08-19,Belgium,Raw,SBD,102.04,105,Open,280,300,310,310,195,205,213,213,275,290,-300,290,813
2,Florian Gillissen,M,1995-10-31,Belgium,Raw,SBD,105,105,Open,300,320.5,325.5,325.5,152.5,160,165,165,290,310,-325,310,800.5
3,Bert Boydens,M,1999-02-23,Belgium,Raw,SBD,99.8,105,Open,257.5,267.5,275,275,150,157.5,-165,157.5,305,320,-327.5,320,752.5
4,Noah Heukemes,M,1995-01-20,Belgium,Raw,SBD,101.22,105,Open,255,265,275,275,145,-152.5,152.5,152.5,-280,280,300,300,727.5
1,Marc Vandewiele,M,1974-07-06,Belgium,Raw,SBD,103.7,105,Masters 2,250,265,272.5,272.5,142.5,150,-152.5,150,285,297.5,-302.5,297.5,720
1,Rachid Acheache,M,1978-07-25,Belgium,Raw,SBD,103.78,105,Masters 1,260,270,-275.5,270,142.5,-147.5,-147.5,142.5,265,277.5,280,280,692.5
1,Jens De Maeseneer,M,2001-08-10,Belgium,Raw,SBD,104.14,105,Juniors,220,-232.5,235,235,160,165,170,170,260,280,-290,280,685
5,Gauthier Verkinderen,M,1995-10-10,Belgium,Raw,SBD,103.88,105,Open,230,245,252.5,252.5,-160,-160,160,160,245,262.5,-280,262.5,675
6,Niels Boermans,M,1992-07-23,Belgium,Raw,SBD,103.84,105,Open,210,220,230,230,165,172.5,175,175,230,242.5,255,255,660
7,Simon Rheel,M,1997-07-18,Belgium,Raw,SBD,104.9,105,Open,235,250,257.5,257.5,135,142.5,-147.5,142.5,235,247.5,255,255,655
8,Nicolas Delplanque,M,2000-03-28,Belgium,Raw,SBD,99.42,105,Open,190,205,222.5,222.5,132.5,137.5,142.5,142.5,240,255,267.5,267.5,632.5
9,Antoine Miriallakis,M,1995-07-27,Belgium,Raw,SBD,104.36,105,Open,220,230,-237.5,230,130,135,140,140,240,255,-270,255,625
10,Robin Fabeck,M,1998-03-14,Belgium,Raw,SBD,100.36,105,Open,210,225,-230,225,135,-142.5,-142.5,135,207.5,225,-245,225,585
11,Alexandre Morillas,M,1993-11-04,Belgium,Raw,SBD,98.72,105,Open,205,-217.5,-217.5,205,150,-160,-160,150,225,-240,,225,580
1,Jochen Strubbe,M,1998-12-11,Belgium,Raw,SBD,119.56,120,Open,280,307.5,320,320,190,202.5,210,210,310,330,-345,330,860
2,Thibault Bacq,M,1998-06-13,Belgium,Raw,SBD,111.96,120,Open,260,277.5,290,290,160,170,-175,170,275,292.5,302.5,302.5,762.5
1,Cas Vervoort,M,2003-06-13,Belgium,Raw,SBD,110.5,120,Juniors,257.5,272.5,282.5,282.5,155,160,162.5,162.5,285,300,-317.5,300,745
2,Brecht Leenders,M,2003-02-28,Belgium,Raw,SBD,105.22,120,Juniors,252.5,265,270,270,145,152.5,-160,152.5,280,300,-305,300,722.5
3,Thibault De Bie,M,1999-07-09,Belgium,Raw,SBD,111.68,120,Open,240,250,255,255,150,157.5,162.5,162.5,280,290,297.5,297.5,715
4,Dieter Vandoren,M,1998-09-21,Belgium,Raw,SBD,107.46,120,Open,235,250,260,260,170,-180,-180,170,250,270,-275,270,700
3,Loïc Verbeke,M,2004-05-02,Belgium,Raw,SBD,109.76,120,Juniors,-235,242.5,255,255,150,155,160,160,265,280,-295,280,695
4,Senne Briesen,M,2001-07-18,Belgium,Raw,SBD,107.94,120,Juniors,245,255,-262.5,255,162.5,170,-175,170,240,252.5,-260,252.5,677.5
5,Pieter Van Overbeke,M,1997-06-12,Belgium,Raw,SBD,108.36,120,Open,205,220,227.5,227.5,145,155,160,160,250,270,280,280,667.5
5,Brecht Van Wynsberge,M,2001-09-02,Belgium,Raw,SBD,112.3,120,Juniors,225,240,250,250,140,147.5,152.5,152.5,235,252.5,-267.5,252.5,655
1,Steve Ringoot,M,1989-07-14,Belgium,Raw,SBD,150.52,120+,Open,320,-350,350,350,220,230,232.5,232.5,310,330,337.5,337.5,920
2,Noa Depaepe,M,2000-03-27,Belgium,Raw,SBD,126.12,120+,Open,260,277.5,-282.5,277.5,152.5,160,-162.5,160,275,295,305,305,742.5
