Place,Name,Sex,Age,Country,Equipment,Division,BodyweightKg,WeightClassKg,Squat1Kg,Squat2Kg,Squat3Kg,Squat4Kg,Best3SquatKg,Bench1Kg,Bench2Kg,Bench3Kg,Bench4Kg,Best3BenchKg,Deadlift1Kg,Deadlift2Kg,Deadlift3Kg,Deadlift4Kg,Best3DeadliftKg,TotalKg,Event,Team,BirthDate
1,Lu Willdig,F,43,UK,Sleeves,M40-44,66,67.5,125,-132.5,-132.5,,125,65,-72.5,-72.5,,65,140,147,152.5,,152.5,342.5,SBD,WPU GB,
1,Anna Gibiino,F,49,UK,Sleeves,M45-49,58.45,60,118,123,126,,126,67.5,71,-74,,71,140,143,-146,,143,340,SBD,WPU GB,
1,Roz Griffiths,F,51,UK,Sleeves,M50-54,81.45,82.5,110,-120,-120,,110,47.5,52.5,55,,55,125,135,142.5,146,142.5,307.5,SBD,WPU GB,
NS,Lucy Moore,F,31,UK,Sleeves,Open,,,,,,,,,,,,,,,,,,,SBD,WPU GB,
1,Marta Eixart,F,17,Spain,Wraps,T16-17,66.4,67.5,132.5,140,-150,,140,60,-65,-65,,60,145,155,160.5,-161,160.5,360.5,SBD,WPU SPAIN,
NS,Lucy Moore,F,31,UK,Sleeves,Open,,,,,,,,,,,,,,,,,,,B,WPU GB,
1,Katie Deaville,F,35,UK,Sleeves,Open,107.6,110,,,,,,60,65,70,75,70,,,,,,70,B,WPU GB,
1,Bettina Razzouki-Korkis,F,59,Poland,Raw,Open,56,56,,,,,,75,80,85,-87.5,85,,,,,,85,B,WPU POLAND,
1,Harriet Lack,F,,UK,Bare,Youth,42.6,44,,,,,,,,,,,40,45,50,57.5,50,50,D,WPU GB,
1,Kate Tilley,F,52,UK,Sleeves,M50-54,106,110,,,,,,,,,,,70,80,90,,90,90,D,WPU GB,
1,Amy Bergmann,F,44,UK,Raw,M40-44,122.9,110+,,,,,,,,,,,145,155,-160,,155,155,D,WPU GB,
1,Paul Baines,M,56,UK,Sleeves,M55-59,147.8,140+,200,215,220,,220,170,175,180,,180,210,230,-235,,230,630,SBD,WPU GB,
1,Terence Adams,M,74,UK,Sleeves,M70-74,81,82.5,100,-110,110,,110,80,-87.5,-87.5,,80,130,140,150,,150,340,SBD,WPU GB,
1,Mark Branham,M,70,USA,Sleeves,M70-74,127.1,140,115,125,137.5,,137.5,110,125,-135,,125,140,150,-165,,150,412.5,SBD,WPU USA,
1,Matt Merrick,M,37,UK,Sleeves,Open,89.65,90,220,240,251,260,251,150,160,170,,170,260,300,310,,310,731,SBD,WPU GB,
1,Philip Newton,M,37,UK,Sleeves,Open,151.2,140+,180,190,207.5,,207.5,120,132.5,-140,,132.5,215,225,232.5,,232.5,572.5,SBD,WPU GB,
1,David Crballo,M,,Spain,Wraps,J20-23,96.4,100,190,200,210,-212.5,210,95,100,-107.5,,100,190,210,-215,,210,520,SBD,WPU SPAIN,
1,John Cotton,M,56,UK,Wraps,M55-59,116.9,125,230,250,-300,,250,165,180,-192.5,,180,271,306,,,306,736,SBD,WPU GB,
1,Vasile Buceac,M,32,Romania,Wraps,Open,87.5,90,220,-235,-235,,220,122.5,-125,125,,125,225,235,-240,,235,580,SBD,WPU REM,
1,Gheorghe Buceac,M,30,Romania,Wraps,Open,113.9,125,325,340,360,,360,175,180,-185,,180,300,315,-320,,315,855,SBD,WPU REM,
2,Elliott Clarke,M,38,UK,Wraps,Open,116.45,125,230,245,250,,250,135,150,155,,155,215,240,260,,260,665,SBD,WPU GB,
1,Freddie Simon,M,,UK,Wraps,T16-17,113.7,125,125,135,142.5,,142.5,90,98,-100,,98,195,205,212.5,,212.5,453,SBD,WPU GB,
1,Imran Khan,M,40,UK,Single-ply,M40-44,122.5,125,245,255,265,,265,145,-152.5,-152.5,,145,207.5,215,-225,,215,625,SBD,WPU GB,
1,Marcus Griffiths,M,51,UK,Single-ply,M50-54,116.8,125,310,325,,,325,180,190,200,,200,285,300,,,300,825,SBD,WPU GB,
1,Craig Kelly,M,40,UK,Single-ply,Open,81.75,82.5,205,220,227.5,,227.5,80,120,,,120,205,220,-230,,220,567.5,SBD,WPU GB,
1,Marcus Griffiths,M,51,UK,Single-ply,Open,116.8,125,310,325,,,325,180,190,200,,200,285,300,,,300,825,SBD,WPU GB,
1,David Mannering,M,64,UK,Multi-ply,M60-64,73.95,75,150,170,,,170,-185,185,205,,205,150,170,,,170,545,SBD,WPU GB,
1,Gavin Prosser,M,41,UK,Multi-ply,Open,103.5,110,310,340,360,,360,70,90,115,,115,310,-342.5,,,310,785,SBD,WPU GB,
NS,Richard Best,M,40,UK,Sleeves,M40-44,,,,,,,,,,,,,,,,,,,B,WPU GB,
1,Narinder Singh,M,41,India,Sleeves,M40-44,102.8,110,,,,,,145,152.5,157.5,,157.5,,,,,,157.5,B,WPU India,
NS,Diego Ajado,M,45,Spain,Sleeves,M45-49,,,,,,,,,,,,,,,,,,,B,WPU SPAIN,
1,PJ Carter,M,49,UK,Sleeves,M45-49,135,140,,,,,,135,140,150,,150,,,,,,150,B,WPU GB,
1,John Benson,M,52,UK,Sleeves,M50-54,85.2,90,,,,,,90,100,105,,105,,,,,,105,B,WPU GB,
1,William Drysdale,M,68,UK,Sleeves,M65-69,91.65,100,,,,,,80,85,90,95,90,,,,,,90,B,WPU GB,
1,Peter Battle,M,97,UK,Sleeves,M80+,80.85,82.5,,,,,,60,-62,-62,,60,,,,,,60,B,WPU GB,
1,Jose Antonio,M,25,Spain,Sleeves,Open,58.95,60,,,,,,100,105,-107.5,,105,,,,,,105,B,WPU SPAIN,
1,Karl Deaville,M,37,UK,Sleeves,Open,68.1,75,,,,,,50,-55,55,60,55,,,,,,55,B,WPU GB,
1,Matthew Taylor,M,39,UK,Sleeves,Open,82.45,82.5,,,,,,90,100,105,,105,,,,,,105,B,WPU GB,
1,Gavin Rafferty,M,43,UK,Raw,M40-44,99.85,100,,,,,,185,190,,,190,,,,,,190,B,WPU GB,
1,Mark Bergmann,M,45,UK,Raw,M45-49,140,140,,,,,,155,161,-165,,161,,,,,,161,B,WPU GB,
1,Martin Bargeman,M,54,UK,Raw,M50-54,107,110,,,,,,135,142.5,147.5,,147.5,,,,,,147.5,B,WPU GB,
1,Piotr Strzała,M,58,Poland,Raw,M55-59,107.2,110,,,,,,185,192.5,-202.5,,192.5,,,,,,192.5,B,WPU POLAND,
1,Matt Small,M,45,UK,Single-ply,M45-49,136.3,140,,,,,,190,210,-227.5,,210,,,,,,210,B,WPU GB,
1,Glen Smith,M,38,UK,Single-ply,Open,82.25,82.5,,,,,,200,210,,,210,,,,,,210,B,WPU GB,
1,Paul Morgan,M,51,UK,Multi-ply,M50-54,113.45,125,,,,,,280,300,-320,,300,,,,,,300,B,WPU GB,
1,Sean Blackburn,M,56,UK,Multi-ply,M55-59,107.65,110,,,,,,242.5,-272,342,-380,342,,,,,,342,B,WPU GB,
1,Matthew Taylor,M,39,UK,Sleeves,Open,82.45,82.5,,,,,,,,,,,-170,170,180,,180,180,D,WPU GB,
1,Gourav Verma,M,21,India,Sleeves,J20-23,116.2,125,,,,,,,,,,,170,182.5,190,-195,190,190,D,WPU India,
1,Rakesh Kumar,M,43,India,Sleeves,M40-44,79.7,82.5,,,,,,,,,,,80,90,100,,100,100,D,WPU India,
1,Kanwardeep Singh,M,43,India,Sleeves,M40-44,110,110,,,,,,,,,,,150,165,,,165,165,D,WPU India,
NS,Diego Ajado,M,45,Spain,Sleeves,M45-49,,,,,,,,,,,,,,,,,,,D,WPU spain,
1,Daniel Milnes,M,48,UK,Sleeves,M45-49,86.35,90,,,,,,,,,,,140,155,170,,170,170,D,WPU GB,
1,PJ Carter,M,49,UK,Sleeves,M45-49,125,125,,,,,,,,,,,200,220,,,220,220,D,WPU GB,
NS,David Jimenez,M,50,Spain,Sleeves,M50-54,,,,,,,,,,,,,,,,,,,D,WPU SPAIN,
1,William Drysdale,M,68,UK,Sleeves,M65-69,,140+,,,,,,,,,,,120,130,140,145,140,140,D,WPU GB,
1,Peter Battle,M,97,UK,Sleeves,M80+,80.85,82.5,,,,,,,,,,,100,112,117.5,,117.5,117.5,D,WPU GB,
1,Vishal Verma,M,27,India,Sleeves,Open,65.15,67.5,,,,,,,,,,,180,195,207.5,,207.5,207.5,D,WPU India,
1,Glen Smith,M,38,UK,Sleeves,Open,82.25,82.5,,,,,,,,,,,261.5,282.5,,,282.5,282.5,D,WPU GB,
1,Mohit Sehdev,M,27,India,Sleeves,Open,89,90,,,,,,,,,,,80,90,105,,105,105,D,WPU India,
1,Chris Staff,M,30,UK,Sleeves,Open,93.6,100,,,,,,,,,,,240,257.5,-262.5,,257.5,257.5,D,WPU GB,
2,Harjinder Singh,M,35,India,Sleeves,Open,93,100,,,,,,,,,,,-90,90,100,,100,100,D,WPU India,
1,Manpreet Singh,M,27,India,Sleeves,Open,143.05,140+,,,,,,,,,,,180,195,207,212.5,207,207,D,WPU India,
2,Josh Sharp,M,33,UK,Sleeves,Open,154.4,140+,,,,,,,,,,,-190,190,-205,,190,190,D,WPU GB,
1,Gavin Prosser,M,41,UK,Multi-ply,Open,103.5,110,,,,,,,,,,,310,-342.5,,,310,310,D,WPU GB,
